sim/waves/be_message_store.vcd
$version Generated by VerilatedVcd $end
$timescale 1ps $end
 $scope module TOP $end
  $var wire 1 " clk $end
  $var wire 1 # rst_n $end
  $var wire 1 $ wr_en $end
  $var wire 6 % wr_idx [5:0] $end
  $var wire 8 & wr_msg_id [7:0] $end
  $var wire 2 ' wr_side [1:0] $end
  $var wire 2 ( wr_status [1:0] $end
  $var wire 8 ) wr_len [7:0] $end
  $var wire 512 * wr_payload [511:0] $end
  $var wire 1 : upd_en $end
  $var wire 6 ; upd_idx [5:0] $end
  $var wire 2 < upd_status [1:0] $end
  $var wire 1 = clear_en $end
  $var wire 6 > rd_idx [5:0] $end
  $var wire 1 ? rd_valid $end
  $var wire 8 @ rd_msg_id [7:0] $end
  $var wire 2 A rd_side [1:0] $end
  $var wire 2 B rd_status [1:0] $end
  $var wire 8 C rd_len [7:0] $end
  $var wire 512 D rd_payload [511:0] $end
  $var wire 8 T lookup_msg_id [7:0] $end
  $var wire 1 U lookup_hit $end
  $var wire 6 V lookup_idx [5:0] $end
  $scope module be_message_store $end
   $var wire 32 W IDX_W [31:0] $end
   $var wire 1 " clk $end
   $var wire 1 # rst_n $end
   $var wire 1 $ wr_en $end
   $var wire 6 % wr_idx [5:0] $end
   $var wire 8 & wr_msg_id [7:0] $end
   $var wire 2 ' wr_side [1:0] $end
   $var wire 2 ( wr_status [1:0] $end
   $var wire 8 ) wr_len [7:0] $end
   $var wire 512 * wr_payload [511:0] $end
   $var wire 1 : upd_en $end
   $var wire 6 ; upd_idx [5:0] $end
   $var wire 2 < upd_status [1:0] $end
   $var wire 1 = clear_en $end
   $var wire 6 > rd_idx [5:0] $end
   $var wire 1 ? rd_valid $end
   $var wire 8 @ rd_msg_id [7:0] $end
   $var wire 2 A rd_side [1:0] $end
   $var wire 2 B rd_status [1:0] $end
   $var wire 8 C rd_len [7:0] $end
   $var wire 512 D rd_payload [511:0] $end
   $var wire 8 T lookup_msg_id [7:0] $end
   $var wire 1 U lookup_hit $end
   $var wire 6 V lookup_idx [5:0] $end
  $upscope $end
  $scope module chat_pkg $end
   $var wire 32 X MAX_MSG_LEN [31:0] $end
   $var wire 32 X MAX_MSG_NUM [31:0] $end
   $var wire 32 X MAX_LINE_LEN [31:0] $end
   $var wire 32 Y MAX_NAME_LEN [31:0] $end
   $var wire 32 Z MSG_ID_WIDTH [31:0] $end
   $var wire 32 Z SEQ_WIDTH [31:0] $end
   $var wire 32 Z LEN_WIDTH [31:0] $end
   $var wire 32 [ RETRY_WIDTH [31:0] $end
   $var wire 32 [ MAX_RETRY [31:0] $end
   $var wire 8 \ SOF_BYTE [7:0] $end
   $var wire 32 Y CRC_WIDTH [31:0] $end
   $var wire 16 ] CRC16_POLY [15:0] $end
   $var wire 16 ^ CRC16_INIT [15:0] $end
   $var wire 32 _ CLK_FREQ_HZ_DEFAULT [31:0] $end
   $var wire 32 ` UART_BAUD_DEFAULT [31:0] $end
  $upscope $end
 $upscope $end
$enddefinitions $end


#0
0"
0#
0$
b000000 %
b00000000 &
b00 '
b00 (
b00000000 )
b00000000000000000000000000000000000000000000000000000000000000000000000000000000000000000000000000000000000000000000000000000000000000000000000000000000000000000000000000000000000000000000000000000000000000000000000000000000000000000000000000000000000000000000000000000000000000000000000000000000000000000000000000000000000000000000000000000000000000000000000000000000000000000000000000000000000000000000000000000000000000000000000000000000000000000000000000000000000000000000000000000000000000000000000000000000 *
0:
b000000 ;
b00 <
0=
b000000 >
0?
b00000000 @
b00 A
b00 B
b00000000 C
b00000000000000000000000000000000000000000000000000000000000000000000000000000000000000000000000000000000000000000000000000000000000000000000000000000000000000000000000000000000000000000000000000000000000000000000000000000000000000000000000000000000000000000000000000000000000000000000000000000000000000000000000000000000000000000000000000000000000000000000000000000000000000000000000000000000000000000000000000000000000000000000000000000000000000000000000000000000000000000000000000000000000000000000000000000000 D
b00000000 T
0U
b000000 V
b00000000000000000000000000000110 W
b00000000000000000000000001000000 X
b00000000000000000000000000010000 Y
b00000000000000000000000000001000 Z
b00000000000000000000000000000100 [
b01111110 \
b0001000000100001 ]
b1111111111111111 ^
b00000101111101011110000100000000 _
b00000000000000011100001000000000 `
#5
1"
#10
0"
#15
1"
#20
0"
#25
1"
#30
0"
#35
1"
#40
0"
1#
#45
1"
#50
0"
0#
#55
1"
#60
0"
#65
1"
#70
0"
#75
1"
#80
0"
#85
1"
#90
0"
1#
#95
1"
#100
0"
1$
b000101 %
b00101010 &
b00000100 )
b00000000000000000000000000000000000000000000000000000000000000000000000000000000000000000000000000000000000000000000000000000000000000000000000000000000000000000000000000000000000000000000000000000000000000000000000000000000000000000000000000000000000000000000000000000000000000000000000000000000000000000000000000000000000000000000000000000000000000000000000000000000000000000000000000000000000000000000000000000000000000000000000000000000000000000000000000000000000000000000000001100111011011100110100101110000 *
#105
1"
#110
0"
0#
0$
b000000 %
b00000000 &
b00000000 )
b00000000000000000000000000000000000000000000000000000000000000000000000000000000000000000000000000000000000000000000000000000000000000000000000000000000000000000000000000000000000000000000000000000000000000000000000000000000000000000000000000000000000000000000000000000000000000000000000000000000000000000000000000000000000000000000000000000000000000000000000000000000000000000000000000000000000000000000000000000000000000000000000000000000000000000000000000000000000000000000000000000000000000000000000000000000 *
#115
1"
#120
0"
#125
1"
#130
0"
#135
1"
#140
0"
#145
1"
#150
0"
1#
#155
1"
#160
0"
1$
b00000001 &
b00000001 )
b00000000000000000000000000000000000000000000000000000000000000000000000000000000000000000000000000000000000000000000000000000000000000000000000000000000000000000000000000000000000000000000000000000000000000000000000000000000000000000000000000000000000000000000000000000000000000000000000000000000000000000000000000000000000000000000000000000000000000000000000000000000000000000000000000000000000000000000000000000000000000000000000000000000000000000000000000000000000000000000000000000000000000000000000001000001 *
#165
1"
1?
b00000001 @
b00000001 C
b00000000000000000000000000000000000000000000000000000000000000000000000000000000000000000000000000000000000000000000000000000000000000000000000000000000000000000000000000000000000000000000000000000000000000000000000000000000000000000000000000000000000000000000000000000000000000000000000000000000000000000000000000000000000000000000000000000000000000000000000000000000000000000000000000000000000000000000000000000000000000000000000000000000000000000000000000000000000000000000000000000000000000000000000001000001 D
#170
0"
b011111 %
b00000010 &
b01 '
b01 (
b00000010 )
b00000000000000000000000000000000000000000000000000000000000000000000000000000000000000000000000000000000000000000000000000000000000000000000000000000000000000000000000000000000000000000000000000000000000000000000000000000000000000000000000000000000000000000000000000000000000000000000000000000000000000000000000000000000000000000000000000000000000000000000000000000000000000000000000000000000000000000000000000000000000000000000000000000000000000000000000000000000000000000000000000000000000000000110001001000010 *
#175
1"
#180
0"
b111111 %
b00000011 &
b10 '
b10 (
b00000011 )
b00000000000000000000000000000000000000000000000000000000000000000000000000000000000000000000000000000000000000000000000000000000000000000000000000000000000000000000000000000000000000000000000000000000000000000000000000000000000000000000000000000000000000000000000000000000000000000000000000000000000000000000000000000000000000000000000000000000000000000000000000000000000000000000000000000000000000000000000000000000000000000000000000000000000000000000000000000000000000000000000000000000011000110110001101000011 *
#185
1"
#190
0"
0#
0$
b000000 %
b00000000 &
b00 '
b00 (
b00000000 )
b00000000000000000000000000000000000000000000000000000000000000000000000000000000000000000000000000000000000000000000000000000000000000000000000000000000000000000000000000000000000000000000000000000000000000000000000000000000000000000000000000000000000000000000000000000000000000000000000000000000000000000000000000000000000000000000000000000000000000000000000000000000000000000000000000000000000000000000000000000000000000000000000000000000000000000000000000000000000000000000000000000000000000000000000000000000 *
0?
#195
1"
#200
0"
#205
1"
#210
0"
#215
1"
#220
0"
#225
1"
#230
0"
1#
#235
1"
#240
0"
1$
b000111 %
b01100011 &
b00000011 )
b00000000000000000000000000000000000000000000000000000000000000000000000000000000000000000000000000000000000000000000000000000000000000000000000000000000000000000000000000000000000000000000000000000000000000000000000000000000000000000000000000000000000000000000000000000000000000000000000000000000000000000000000000000000000000000000000000000000000000000000000000000000000000000000000000000000000000000000000000000000000000000000000000000000000000000000000000000000000000000000000000000000011000110110001001100001 *
#245
1"
#250
0"
0$
b00000000000000000000000000000000000000000000000000000000000000000000000000000000000000000000000000000000000000000000000000000000000000000000000000000000000000000000000000000000000000000000000000000000000000000000000000000000000000000000000000000000000000000000000000000000000000000000000000000000000000000000000000000000000000000000000000000000000000000000000000000000000000000000000000000000000000000000000000000000000000000000000000000000000000000000000000000000000000000000000000000000000000000000000000000000 *
1:
b000111 ;
b01 <
#255
1"
#260
0"
0#
b000000 %
b00000000 &
b00000000 )
0:
b000000 ;
b00 <
#265
1"
#270
0"
#275
1"
#280
0"
#285
1"
#290
0"
#295
1"
#300
0"
1#
#305
1"
#310
0"
1:
b001010 ;
b01 <
#315
1"
#320
0"
0#
0:
b000000 ;
b00 <
#325
1"
#330
0"
#335
1"
#340
0"
#345
1"
#350
0"
#355
1"
#360
0"
1#
#365
1"
#370
0"
1$
b001011 %
b00000101 &
b01 '
b01 (
b01000000 )
b11000100110000011011111010111011101110001011010110110010101011111010110010101001101001101010001110100000100111011001101010010111100101001001000110001110100010111000100010000101100000100111111101111100011110010111011001110011011100000110110101101010011001110110010001100001010111100101101101011000010101010101001001001111010011000100100101000110010000110100000000111101001110100011011100110100001100010010111000101011001010000010010100100010000111110001110000011001000101100001001100010000000011010000101000000111 *
#375
1"
#380
0"
0#
0$
b000000 %
b00000000 &
b00 '
b00 (
b00000000 )
b00000000000000000000000000000000000000000000000000000000000000000000000000000000000000000000000000000000000000000000000000000000000000000000000000000000000000000000000000000000000000000000000000000000000000000000000000000000000000000000000000000000000000000000000000000000000000000000000000000000000000000000000000000000000000000000000000000000000000000000000000000000000000000000000000000000000000000000000000000000000000000000000000000000000000000000000000000000000000000000000000000000000000000000000000000000 *
#385
1"
#390
0"
#395
1"
#400
0"
#405
1"
#410
0"
#415
1"
#420
0"
1#
#425
1"
#430
0"
1$
b000011 %
b00010001 &
b00000001 )
b00000000000000000000000000000000000000000000000000000000000000000000000000000000000000000000000000000000000000000000000000000000000000000000000000000000000000000000000000000000000000000000000000000000000000000000000000000000000000000000000000000000000000000000000000000000000000000000000000000000000000000000000000000000000000000000000000000000000000000000000000000000000000000000000000000000000000000000000000000000000000000000000000000000000000000000000000000000000000000000000000000000000000000000000001111000 *
#435
1"
#440
0"
0#
0$
b000000 %
b00000000 &
b00000000 )
b00000000000000000000000000000000000000000000000000000000000000000000000000000000000000000000000000000000000000000000000000000000000000000000000000000000000000000000000000000000000000000000000000000000000000000000000000000000000000000000000000000000000000000000000000000000000000000000000000000000000000000000000000000000000000000000000000000000000000000000000000000000000000000000000000000000000000000000000000000000000000000000000000000000000000000000000000000000000000000000000000000000000000000000000000000000 *
#445
1"
#450
0"
#455
1"
#460
0"
#465
1"
#470
0"
#475
1"
#480
0"
1#
#485
1"
#490
0"
1$
b000011 %
b00010001 &
b00000001 )
b00000000000000000000000000000000000000000000000000000000000000000000000000000000000000000000000000000000000000000000000000000000000000000000000000000000000000000000000000000000000000000000000000000000000000000000000000000000000000000000000000000000000000000000000000000000000000000000000000000000000000000000000000000000000000000000000000000000000000000000000000000000000000000000000000000000000000000000000000000000000000000000000000000000000000000000000000000000000000000000000000000000000000000000000001111000 *
#495
1"
#500
0"
0#
0$
b000000 %
b00000000 &
b00000000 )
b00000000000000000000000000000000000000000000000000000000000000000000000000000000000000000000000000000000000000000000000000000000000000000000000000000000000000000000000000000000000000000000000000000000000000000000000000000000000000000000000000000000000000000000000000000000000000000000000000000000000000000000000000000000000000000000000000000000000000000000000000000000000000000000000000000000000000000000000000000000000000000000000000000000000000000000000000000000000000000000000000000000000000000000000000000000 *
#505
1"
#510
0"
#515
1"
#520
0"
#525
1"
#530
0"
#535
1"
#540
0"
1#
#545
1"
#550
0"
1$
b000111 %
b00000101 &
b00000001 )
b00000000000000000000000000000000000000000000000000000000000000000000000000000000000000000000000000000000000000000000000000000000000000000000000000000000000000000000000000000000000000000000000000000000000000000000000000000000000000000000000000000000000000000000000000000000000000000000000000000000000000000000000000000000000000000000000000000000000000000000000000000000000000000000000000000000000000000000000000000000000000000000000000000000000000000000000000000000000000000000000000000000000000000000000001100001 *
#555
1"
#560
0"
b010100 %
b01 '
b01 (
b00000000000000000000000000000000000000000000000000000000000000000000000000000000000000000000000000000000000000000000000000000000000000000000000000000000000000000000000000000000000000000000000000000000000000000000000000000000000000000000000000000000000000000000000000000000000000000000000000000000000000000000000000000000000000000000000000000000000000000000000000000000000000000000000000000000000000000000000000000000000000000000000000000000000000000000000000000000000000000000000000000000000000000000000001100010 *
#565
1"
#570
0"
0#
0$
b000000 %
b00000000 &
b00 '
b00 (
b00000000 )
b00000000000000000000000000000000000000000000000000000000000000000000000000000000000000000000000000000000000000000000000000000000000000000000000000000000000000000000000000000000000000000000000000000000000000000000000000000000000000000000000000000000000000000000000000000000000000000000000000000000000000000000000000000000000000000000000000000000000000000000000000000000000000000000000000000000000000000000000000000000000000000000000000000000000000000000000000000000000000000000000000000000000000000000000000000000 *
#575
1"
#580
0"
#585
1"
#590
0"
#595
1"
#600
0"
#605
1"
#610
0"
1#
#615
1"
#620
0"
1$
b000100 %
b00100001 &
b00000001 )
b00000000000000000000000000000000000000000000000000000000000000000000000000000000000000000000000000000000000000000000000000000000000000000000000000000000000000000000000000000000000000000000000000000000000000000000000000000000000000000000000000000000000000000000000000000000000000000000000000000000000000000000000000000000000000000000000000000000000000000000000000000000000000000000000000000000000000000000000000000000000000000000000000000000000000000000000000000000000000000000000000000000000000000000000001110001 *
1:
b000100 ;
b01 <
#625
1"
#630
0"
0#
0$
b000000 %
b00000000 &
b00000000 )
b00000000000000000000000000000000000000000000000000000000000000000000000000000000000000000000000000000000000000000000000000000000000000000000000000000000000000000000000000000000000000000000000000000000000000000000000000000000000000000000000000000000000000000000000000000000000000000000000000000000000000000000000000000000000000000000000000000000000000000000000000000000000000000000000000000000000000000000000000000000000000000000000000000000000000000000000000000000000000000000000000000000000000000000000000000000 *
0:
b000000 ;
b00 <
#635
1"
#640
0"
#645
1"
#650
0"
#655
1"
#660
0"
#665
1"
#670
0"
1#
#675
1"
#680
0"
1$
b001000 %
b00110010 &
b01 '
b00000001 )
b00000000000000000000000000000000000000000000000000000000000000000000000000000000000000000000000000000000000000000000000000000000000000000000000000000000000000000000000000000000000000000000000000000000000000000000000000000000000000000000000000000000000000000000000000000000000000000000000000000000000000000000000000000000000000000000000000000000000000000000000000000000000000000000000000000000000000000000000000000000000000000000000000000000000000000000000000000000000000000000000000000000000000000000000001110010 *
#685
1"
#690
0"
b000000 %
b00111100 &
b00 '
b00000000000000000000000000000000000000000000000000000000000000000000000000000000000000000000000000000000000000000000000000000000000000000000000000000000000000000000000000000000000000000000000000000000000000000000000000000000000000000000000000000000000000000000000000000000000000000000000000000000000000000000000000000000000000000000000000000000000000000000000000000000000000000000000000000000000000000000000000000000000000000000000000000000000000000000000000000000000000000000000000000000000000000000000001001100 *
1:
b001000 ;
b01 <
#695
1"
1?
b00111100 @
b00000000000000000000000000000000000000000000000000000000000000000000000000000000000000000000000000000000000000000000000000000000000000000000000000000000000000000000000000000000000000000000000000000000000000000000000000000000000000000000000000000000000000000000000000000000000000000000000000000000000000000000000000000000000000000000000000000000000000000000000000000000000000000000000000000000000000000000000000000000000000000000000000000000000000000000000000000000000000000000000000000000000000000000000001001100 D
#700
0"
0#
0$
b00000000 &
b00000000 )
b00000000000000000000000000000000000000000000000000000000000000000000000000000000000000000000000000000000000000000000000000000000000000000000000000000000000000000000000000000000000000000000000000000000000000000000000000000000000000000000000000000000000000000000000000000000000000000000000000000000000000000000000000000000000000000000000000000000000000000000000000000000000000000000000000000000000000000000000000000000000000000000000000000000000000000000000000000000000000000000000000000000000000000000000000000000 *
0:
b000000 ;
b00 <
0?
#705
1"
#710
0"
#715
1"
#720
0"
#725
1"
#730
0"
#735
1"
#740
0"
1#
#745
1"
#750
0"
1$
b00000001 &
b00000001 )
b00000000000000000000000000000000000000000000000000000000000000000000000000000000000000000000000000000000000000000000000000000000000000000000000000000000000000000000000000000000000000000000000000000000000000000000000000000000000000000000000000000000000000000000000000000000000000000000000000000000000000000000000000000000000000000000000000000000000000000000000000000000000000000000000000000000000000000000000000000000000000000000000000000000000000000000000000000000000000000000000000000000000000000000000001100001 *
#755
1"
1?
b00000001 @
b00000000000000000000000000000000000000000000000000000000000000000000000000000000000000000000000000000000000000000000000000000000000000000000000000000000000000000000000000000000000000000000000000000000000000000000000000000000000000000000000000000000000000000000000000000000000000000000000000000000000000000000000000000000000000000000000000000000000000000000000000000000000000000000000000000000000000000000000000000000000000000000000000000000000000000000000000000000000000000000000000000000000000000000000001100001 D
#760
0"
b010100 %
b00000010 &
b01 '
b01 (
b00000000000000000000000000000000000000000000000000000000000000000000000000000000000000000000000000000000000000000000000000000000000000000000000000000000000000000000000000000000000000000000000000000000000000000000000000000000000000000000000000000000000000000000000000000000000000000000000000000000000000000000000000000000000000000000000000000000000000000000000000000000000000000000000000000000000000000000000000000000000000000000000000000000000000000000000000000000000000000000000000000000000000000000000001100010 *
#765
1"
#770
0"
b111111 %
b00000011 &
b10 '
b10 (
b00000000000000000000000000000000000000000000000000000000000000000000000000000000000000000000000000000000000000000000000000000000000000000000000000000000000000000000000000000000000000000000000000000000000000000000000000000000000000000000000000000000000000000000000000000000000000000000000000000000000000000000000000000000000000000000000000000000000000000000000000000000000000000000000000000000000000000000000000000000000000000000000000000000000000000000000000000000000000000000000000000000000000000000000001100011 *
#775
1"
#780
0"
0$
b00000000000000000000000000000000000000000000000000000000000000000000000000000000000000000000000000000000000000000000000000000000000000000000000000000000000000000000000000000000000000000000000000000000000000000000000000000000000000000000000000000000000000000000000000000000000000000000000000000000000000000000000000000000000000000000000000000000000000000000000000000000000000000000000000000000000000000000000000000000000000000000000000000000000000000000000000000000000000000000000000000000000000000000000000000000 *
1=
#785
1"
0?
#790
0"
0#
b000000 %
b00000000 &
b00 '
b00 (
b00000000 )
0=
#795
1"
#800
0"
#805
1"
#810
0"
#815
1"
#820
0"
#825
1"
#830
0"
1#
#835
1"
#840
0"
1$
b000101 %
b00001010 &
b00000001 )
b00000000000000000000000000000000000000000000000000000000000000000000000000000000000000000000000000000000000000000000000000000000000000000000000000000000000000000000000000000000000000000000000000000000000000000000000000000000000000000000000000000000000000000000000000000000000000000000000000000000000000000000000000000000000000000000000000000000000000000000000000000000000000000000000000000000000000000000000000000000000000000000000000000000000000000000000000000000000000000000000000000000000000000000000001000001 *
#845
1"
#850
0"
b01100011 &
b00000000000000000000000000000000000000000000000000000000000000000000000000000000000000000000000000000000000000000000000000000000000000000000000000000000000000000000000000000000000000000000000000000000000000000000000000000000000000000000000000000000000000000000000000000000000000000000000000000000000000000000000000000000000000000000000000000000000000000000000000000000000000000000000000000000000000000000000000000000000000000000000000000000000000000000000000000000000000000000000000000000000000000000000001011010 *
1=
#855
1"
#860
0"
0#
0$
b000000 %
b00000000 &
b00000000 )
b00000000000000000000000000000000000000000000000000000000000000000000000000000000000000000000000000000000000000000000000000000000000000000000000000000000000000000000000000000000000000000000000000000000000000000000000000000000000000000000000000000000000000000000000000000000000000000000000000000000000000000000000000000000000000000000000000000000000000000000000000000000000000000000000000000000000000000000000000000000000000000000000000000000000000000000000000000000000000000000000000000000000000000000000000000000 *
0=
#865
1"
#870
0"
#875
1"
#880
0"
#885
1"
#890
0"
#895
1"
#900
0"
1#
#905
1"
#910
0"
1$
b000010 %
b00000001 &
b00000001 )
b00000000000000000000000000000000000000000000000000000000000000000000000000000000000000000000000000000000000000000000000000000000000000000000000000000000000000000000000000000000000000000000000000000000000000000000000000000000000000000000000000000000000000000000000000000000000000000000000000000000000000000000000000000000000000000000000000000000000000000000000000000000000000000000000000000000000000000000000000000000000000000000000000000000000000000000000000000000000000000000000000000000000000000000000001100001 *
#915
1"
#920
0"
0$
b00000000000000000000000000000000000000000000000000000000000000000000000000000000000000000000000000000000000000000000000000000000000000000000000000000000000000000000000000000000000000000000000000000000000000000000000000000000000000000000000000000000000000000000000000000000000000000000000000000000000000000000000000000000000000000000000000000000000000000000000000000000000000000000000000000000000000000000000000000000000000000000000000000000000000000000000000000000000000000000000000000000000000000000000000000000 *
1=
#925
1"
#930
0"
1$
b00000111 &
b01 '
b01 (
b00000000000000000000000000000000000000000000000000000000000000000000000000000000000000000000000000000000000000000000000000000000000000000000000000000000000000000000000000000000000000000000000000000000000000000000000000000000000000000000000000000000000000000000000000000000000000000000000000000000000000000000000000000000000000000000000000000000000000000000000000000000000000000000000000000000000000000000000000000000000000000000000000000000000000000000000000000000000000000000000000000000000000000000000001111010 *
0=
#935
1"
#940
0"
0#
0$
b000000 %
b00000000 &
b00 '
b00 (
b00000000 )
b00000000000000000000000000000000000000000000000000000000000000000000000000000000000000000000000000000000000000000000000000000000000000000000000000000000000000000000000000000000000000000000000000000000000000000000000000000000000000000000000000000000000000000000000000000000000000000000000000000000000000000000000000000000000000000000000000000000000000000000000000000000000000000000000000000000000000000000000000000000000000000000000000000000000000000000000000000000000000000000000000000000000000000000000000000000 *
#945
1"
#950
0"
#955
1"
#960
0"
#965
1"
#970
0"
#975
1"
#980
0"
1#
#985
1"
#990
0"
1$
b000010 %
b00000001 &
b00000001 )
b00000000000000000000000000000000000000000000000000000000000000000000000000000000000000000000000000000000000000000000000000000000000000000000000000000000000000000000000000000000000000000000000000000000000000000000000000000000000000000000000000000000000000000000000000000000000000000000000000000000000000000000000000000000000000000000000000000000000000000000000000000000000000000000000000000000000000000000000000000000000000000000000000000000000000000000000000000000000000000000000000000000000000000000000001100001 *
#995
1"
#1000
0"
b101000 %
b00000010 &
b01 '
b01 (
b00000000000000000000000000000000000000000000000000000000000000000000000000000000000000000000000000000000000000000000000000000000000000000000000000000000000000000000000000000000000000000000000000000000000000000000000000000000000000000000000000000000000000000000000000000000000000000000000000000000000000000000000000000000000000000000000000000000000000000000000000000000000000000000000000000000000000000000000000000000000000000000000000000000000000000000000000000000000000000000000000000000000000000000000001100010 *
#1005
1"
#1010
0"
0#
0$
b000000 %
b00000000 &
b00 '
b00 (
b00000000 )
b00000000000000000000000000000000000000000000000000000000000000000000000000000000000000000000000000000000000000000000000000000000000000000000000000000000000000000000000000000000000000000000000000000000000000000000000000000000000000000000000000000000000000000000000000000000000000000000000000000000000000000000000000000000000000000000000000000000000000000000000000000000000000000000000000000000000000000000000000000000000000000000000000000000000000000000000000000000000000000000000000000000000000000000000000000000 *
#1015
1"
#1020
0"
#1025
1"
#1030
0"
#1035
1"
#1040
0"
#1045
1"
#1050
0"
1#
