sim/waves/be_top.vcd
$version Generated by VerilatedVcd $end
$timescale 1ps $end
 $scope module TOP $end
  $var wire 1 t clk $end
  $var wire 1 u rst_n $end
  $var wire 1 v io_key_valid $end
  $var wire 1 w io_key_ready $end
  $var wire 3 x io_key_type [2:0] $end
  $var wire 8 y io_key_ascii [7:0] $end
  $var wire 1 z cm_rx_valid $end
  $var wire 1 { cm_rx_ready $end
  $var wire 3 | cm_rx_frame_type [2:0] $end
  $var wire 8 } cm_rx_seq [7:0] $end
  $var wire 8 ~ cm_rx_len [7:0] $end
  $var wire 512 !! cm_rx_payload [511:0] $end
  $var wire 1 1! cm_status_valid $end
  $var wire 1 2! cm_status_ready $end
  $var wire 8 3! cm_status_msg_id [7:0] $end
  $var wire 2 4! cm_status_code [1:0] $end
  $var wire 1 5! be_tx_valid $end
  $var wire 1 6! be_tx_ready $end
  $var wire 3 7! be_tx_frame_type [2:0] $end
  $var wire 8 8! be_tx_msg_id [7:0] $end
  $var wire 8 9! be_tx_len [7:0] $end
  $var wire 512 :! be_tx_payload [511:0] $end
  $var wire 1 J! be_render_valid $end
  $var wire 1 K! be_render_ready $end
  $var wire 4 L! be_render_cmd [3:0] $end
  $var wire 8 M! be_render_msg_id [7:0] $end
  $var wire 2 N! be_render_side [1:0] $end
  $var wire 2 O! be_render_status [1:0] $end
  $var wire 8 P! be_render_len [7:0] $end
  $var wire 512 Q! be_render_payload [511:0] $end
  $var wire 8 a! be_render_cursor_pos [7:0] $end
  $var wire 8 b! be_render_ascii [7:0] $end
  $var wire 2 c! be_render_conn_state [1:0] $end
  $var wire 8 @ be_render_peer_name_len [7:0] $end
  $var wire 128 A be_render_peer_name [127:0] $end
  $var wire 6 d! line_rd_idx [5:0] $end
  $var wire 8 e! line_rd_data [7:0] $end
  $var wire 8 E line_len [7:0] $end
  $var wire 8 F cursor_pos [7:0] $end
  $var wire 1 G enter_committed $end
  $var wire 6 f! store_rd_idx [5:0] $end
  $var wire 1 g! store_rd_valid $end
  $var wire 8 h! store_rd_msg_id [7:0] $end
  $var wire 2 i! store_rd_side [1:0] $end
  $var wire 2 j! store_rd_status [1:0] $end
  $var wire 8 k! store_rd_len [7:0] $end
  $var wire 512 l! store_rd_payload [511:0] $end
  $var wire 2 c! conn_state_obs [1:0] $end
  $scope module be_top $end
   $var wire 32 '" LINE_IDX_W [31:0] $end
   $var wire 32 '" STORE_IDX_W [31:0] $end
   $var wire 32 (" MY_NAME_LEN [31:0] $end
   $var wire 128 )" MY_NAME_PACKED [127:0] $end
   $var wire 1 t clk $end
   $var wire 1 u rst_n $end
   $var wire 1 v io_key_valid $end
   $var wire 1 w io_key_ready $end
   $var wire 3 x io_key_type [2:0] $end
   $var wire 8 y io_key_ascii [7:0] $end
   $var wire 1 z cm_rx_valid $end
   $var wire 1 { cm_rx_ready $end
   $var wire 3 | cm_rx_frame_type [2:0] $end
   $var wire 8 } cm_rx_seq [7:0] $end
   $var wire 8 ~ cm_rx_len [7:0] $end
   $var wire 512 !! cm_rx_payload [511:0] $end
   $var wire 1 1! cm_status_valid $end
   $var wire 1 2! cm_status_ready $end
   $var wire 8 3! cm_status_msg_id [7:0] $end
   $var wire 2 4! cm_status_code [1:0] $end
   $var wire 1 5! be_tx_valid $end
   $var wire 1 6! be_tx_ready $end
   $var wire 3 7! be_tx_frame_type [2:0] $end
   $var wire 8 8! be_tx_msg_id [7:0] $end
   $var wire 8 9! be_tx_len [7:0] $end
   $var wire 512 :! be_tx_payload [511:0] $end
   $var wire 1 J! be_render_valid $end
   $var wire 1 K! be_render_ready $end
   $var wire 4 L! be_render_cmd [3:0] $end
   $var wire 8 M! be_render_msg_id [7:0] $end
   $var wire 2 N! be_render_side [1:0] $end
   $var wire 2 O! be_render_status [1:0] $end
   $var wire 8 P! be_render_len [7:0] $end
   $var wire 512 Q! be_render_payload [511:0] $end
   $var wire 8 a! be_render_cursor_pos [7:0] $end
   $var wire 8 b! be_render_ascii [7:0] $end
   $var wire 2 c! be_render_conn_state [1:0] $end
   $var wire 8 @ be_render_peer_name_len [7:0] $end
   $var wire 128 A be_render_peer_name [127:0] $end
   $var wire 6 d! line_rd_idx [5:0] $end
   $var wire 8 e! line_rd_data [7:0] $end
   $var wire 8 E line_len [7:0] $end
   $var wire 8 F cursor_pos [7:0] $end
   $var wire 1 G enter_committed $end
   $var wire 6 f! store_rd_idx [5:0] $end
   $var wire 1 g! store_rd_valid $end
   $var wire 8 h! store_rd_msg_id [7:0] $end
   $var wire 2 i! store_rd_side [1:0] $end
   $var wire 2 j! store_rd_status [1:0] $end
   $var wire 8 k! store_rd_len [7:0] $end
   $var wire 512 l! store_rd_payload [511:0] $end
   $var wire 2 c! conn_state_obs [1:0] $end
   $var wire 5 H state_q [4:0] $end
   $var wire 5 " state_d [4:0] $end
   $var wire 8 E len_q [7:0] $end
   $var wire 8 F cursor_pos_q [7:0] $end
   $var wire 1 G enter_pulse_q $end
   $var wire 8 I last_event_ascii_q [7:0] $end
   $var wire 6 J wr_ptr_q [5:0] $end
   $var wire 8 K next_msg_id_q [7:0] $end
   $var wire 8 L pending_msg_id_q [7:0] $end
   $var wire 8 M pending_len_q [7:0] $end
   $var wire 8 N rx_seq_q [7:0] $end
   $var wire 8 O rx_len_q [7:0] $end
   $var wire 512 P rx_payload_q [511:0] $end
   $var wire 8 ` status_msg_id_q [7:0] $end
   $var wire 2 a status_status_q [1:0] $end
   $var wire 128 A peer_name_q [127:0] $end
   $var wire 8 @ peer_name_len_q [7:0] $end
   $var wire 512 b line_buf_packed [511:0] $end
   $var wire 512 -" my_name_payload [511:0] $end
   $var wire 8 |! rx_len_clamped [7:0] $end
   $var wire 8 }! rx_name_len_clamped [7:0] $end
   $var wire 1 # peer_name_changed $end
   $var wire 1 ~! rx_is_data $end
   $var wire 1 !" rx_is_hello $end
   $var wire 1 "" rx_is_rehello $end
   $var wire 1 #" rx_is_username $end
   $var wire 1 $" rx_is_goodbye $end
   $var wire 1 2! in_chat_idle $end
   $var wire 1 r in_handshake_idle $end
   $var wire 1 s in_disc_idle $end
   $var wire 1 $ accept_io $end
   $var wire 1 % accept_rx $end
   $var wire 1 & accept_status $end
   $var wire 1 ' accept_username_frame $end
   $var wire 1 ( do_store_clear $end
   $var wire 1 ) store_wr_en $end
   $var wire 6 J store_wr_idx [5:0] $end
   $var wire 8 * store_wr_msg_id [7:0] $end
   $var wire 2 + store_wr_side [1:0] $end
   $var wire 2 , store_wr_status [1:0] $end
   $var wire 8 - store_wr_len [7:0] $end
   $var wire 512 . store_wr_payload [511:0] $end
   $var wire 1 > store_lookup_hit $end
   $var wire 6 ? store_lookup_idx [5:0] $end
   $var wire 1 %" store_upd_en $end
   $var wire 6 ? store_upd_idx [5:0] $end
   $var wire 2 &" store_upd_status [1:0] $end
   $scope module u_store $end
    $var wire 32 '" IDX_W [31:0] $end
    $var wire 1 t clk $end
    $var wire 1 u rst_n $end
    $var wire 1 ) wr_en $end
    $var wire 6 J wr_idx [5:0] $end
    $var wire 8 * wr_msg_id [7:0] $end
    $var wire 2 + wr_side [1:0] $end
    $var wire 2 , wr_status [1:0] $end
    $var wire 8 - wr_len [7:0] $end
    $var wire 512 . wr_payload [511:0] $end
    $var wire 1 %" upd_en $end
    $var wire 6 ? upd_idx [5:0] $end
    $var wire 2 &" upd_status [1:0] $end
    $var wire 1 ( clear_en $end
    $var wire 6 f! rd_idx [5:0] $end
    $var wire 1 g! rd_valid $end
    $var wire 8 h! rd_msg_id [7:0] $end
    $var wire 2 i! rd_side [1:0] $end
    $var wire 2 j! rd_status [1:0] $end
    $var wire 8 k! rd_len [7:0] $end
    $var wire 512 l! rd_payload [511:0] $end
    $var wire 8 3! lookup_msg_id [7:0] $end
    $var wire 1 > lookup_hit $end
    $var wire 6 ? lookup_idx [5:0] $end
   $upscope $end
  $upscope $end
  $scope module chat_pkg $end
   $var wire 32 =" MAX_MSG_LEN [31:0] $end
   $var wire 32 =" MAX_MSG_NUM [31:0] $end
   $var wire 32 =" MAX_LINE_LEN [31:0] $end
   $var wire 32 >" MAX_NAME_LEN [31:0] $end
   $var wire 32 ?" MSG_ID_WIDTH [31:0] $end
   $var wire 32 ?" SEQ_WIDTH [31:0] $end
   $var wire 32 ?" LEN_WIDTH [31:0] $end
   $var wire 32 (" RETRY_WIDTH [31:0] $end
   $var wire 32 (" MAX_RETRY [31:0] $end
   $var wire 8 @" SOF_BYTE [7:0] $end
   $var wire 32 >" CRC_WIDTH [31:0] $end
   $var wire 16 A" CRC16_POLY [15:0] $end
   $var wire 16 B" CRC16_INIT [15:0] $end
   $var wire 32 C" CLK_FREQ_HZ_DEFAULT [31:0] $end
   $var wire 32 D" UART_BAUD_DEFAULT [31:0] $end
  $upscope $end
 $upscope $end
$enddefinitions $end


#0
b00001 "
0#
0$
0%
0&
0'
0(
0)
b00000000 *
b00 +
b00 ,
b00000000 -
b00000000000000000000000000000000000000000000000000000000000000000000000000000000000000000000000000000000000000000000000000000000000000000000000000000000000000000000000000000000000000000000000000000000000000000000000000000000000000000000000000000000000000000000000000000000000000000000000000000000000000000000000000000000000000000000000000000000000000000000000000000000000000000000000000000000000000000000000000000000000000000000000000000000000000000000000000000000000000000000000000000000000000000000000000000000 .
0>
b000000 ?
b00000000 @
b00000000000000000000000000000000000000000000000000000000000000000000000000000000000000000000000000000000000000000000000000000000 A
b00000000 E
b00000000 F
0G
b00000 H
b00000000 I
b000000 J
b00000000 K
b00000000 L
b00000000 M
b00000000 N
b00000000 O
b00000000000000000000000000000000000000000000000000000000000000000000000000000000000000000000000000000000000000000000000000000000000000000000000000000000000000000000000000000000000000000000000000000000000000000000000000000000000000000000000000000000000000000000000000000000000000000000000000000000000000000000000000000000000000000000000000000000000000000000000000000000000000000000000000000000000000000000000000000000000000000000000000000000000000000000000000000000000000000000000000000000000000000000000000000000 P
b00000000 `
b00 a
b00000000000000000000000000000000000000000000000000000000000000000000000000000000000000000000000000000000000000000000000000000000000000000000000000000000000000000000000000000000000000000000000000000000000000000000000000000000000000000000000000000000000000000000000000000000000000000000000000000000000000000000000000000000000000000000000000000000000000000000000000000000000000000000000000000000000000000000000000000000000000000000000000000000000000000000000000000000000000000000000000000000000000000000000000000000 b
0r
0s
0t
0u
0v
0w
b000 x
b00000000 y
0z
0{
b000 |
b00000000 }
b00000000 ~
b00000000000000000000000000000000000000000000000000000000000000000000000000000000000000000000000000000000000000000000000000000000000000000000000000000000000000000000000000000000000000000000000000000000000000000000000000000000000000000000000000000000000000000000000000000000000000000000000000000000000000000000000000000000000000000000000000000000000000000000000000000000000000000000000000000000000000000000000000000000000000000000000000000000000000000000000000000000000000000000000000000000000000000000000000000000 !!
01!
02!
b00000000 3!
b00 4!
05!
16!
b000 7!
b00000000 8!
b00000000 9!
b00000000000000000000000000000000000000000000000000000000000000000000000000000000000000000000000000000000000000000000000000000000000000000000000000000000000000000000000000000000000000000000000000000000000000000000000000000000000000000000000000000000000000000000000000000000000000000000000000000000000000000000000000000000000000000000000000000000000000000000000000000000000000000000000000000000000000000000000000000000000000000000000000000000000000000000000000000000000000000000000000000000000000000000000000000000 :!
1J!
1K!
b0101 L!
b00000000 M!
b00 N!
b00 O!
b00000000 P!
b00000000000000000000000000000000000000000000000000000000000000000000000000000000000000000000000000000000000000000000000000000000000000000000000000000000000000000000000000000000000000000000000000000000000000000000000000000000000000000000000000000000000000000000000000000000000000000000000000000000000000000000000000000000000000000000000000000000000000000000000000000000000000000000000000000000000000000000000000000000000000000000000000000000000000000000000000000000000000000000000000000000000000000000000000000000 Q!
b00000000 a!
b00000000 b!
b00 c!
b000000 d!
b00000000 e!
b000000 f!
0g!
b00000000 h!
b00 i!
b00 j!
b00000000 k!
b00000000000000000000000000000000000000000000000000000000000000000000000000000000000000000000000000000000000000000000000000000000000000000000000000000000000000000000000000000000000000000000000000000000000000000000000000000000000000000000000000000000000000000000000000000000000000000000000000000000000000000000000000000000000000000000000000000000000000000000000000000000000000000000000000000000000000000000000000000000000000000000000000000000000000000000000000000000000000000000000000000000000000000000000000000000 l!
b00000000 |!
b00000000 }!
1~!
0!"
0""
0#"
0$"
0%"
b01 &"
b00000000000000000000000000000110 '"
b00000000000000000000000000000100 ("
b00000000000000000000000000000000000000000000000000000000000000000000000000000000000000000000000001100011011010010110110001000001 )"
b00000000000000000000000000000000000000000000000000000000000000000000000000000000000000000000000000000000000000000000000000000000000000000000000000000000000000000000000000000000000000000000000000000000000000000000000000000000000000000000000000000000000000000000000000000000000000000000000000000000000000000000000000000000000000000000000000000000000000000000000000000000000000000000000000000000000000000000000000000000000000000000000000000000000000000000000000000000000000000000000001100011011010010110110001000001 -"
b00000000000000000000000001000000 ="
b00000000000000000000000000010000 >"
b00000000000000000000000000001000 ?"
b01111110 @"
b0001000000100001 A"
b1111111111111111 B"
b00000101111101011110000100000000 C"
b00000000000000011100001000000000 D"
#5
1t
#10
0t
#15
1t
#20
0t
#25
1t
#30
0t
#35
1t
#40
0t
1u
#45
b00010 "
b00001 H
1t
15!
b011 7!
b00000100 9!
b00000000000000000000000000000000000000000000000000000000000000000000000000000000000000000000000000000000000000000000000000000000000000000000000000000000000000000000000000000000000000000000000000000000000000000000000000000000000000000000000000000000000000000000000000000000000000000000000000000000000000000000000000000000000000000000000000000000000000000000000000000000000000000000000000000000000000000000000000000000000000000000000000000000000000000000000000000000000000000000000001100011011010010110110001000001 :!
0J!
b0000 L!
#50
b00001 "
b00000 H
0t
0u
05!
b000 7!
b00000000 9!
b00000000000000000000000000000000000000000000000000000000000000000000000000000000000000000000000000000000000000000000000000000000000000000000000000000000000000000000000000000000000000000000000000000000000000000000000000000000000000000000000000000000000000000000000000000000000000000000000000000000000000000000000000000000000000000000000000000000000000000000000000000000000000000000000000000000000000000000000000000000000000000000000000000000000000000000000000000000000000000000000000000000000000000000000000000000 :!
1J!
b0101 L!
#55
1t
#60
0t
#65
1t
#70
0t
#75
1t
#80
0t
#85
1t
#90
0t
1u
#95
b00010 "
b00001 H
1t
15!
b011 7!
b00000100 9!
b00000000000000000000000000000000000000000000000000000000000000000000000000000000000000000000000000000000000000000000000000000000000000000000000000000000000000000000000000000000000000000000000000000000000000000000000000000000000000000000000000000000000000000000000000000000000000000000000000000000000000000000000000000000000000000000000000000000000000000000000000000000000000000000000000000000000000000000000000000000000000000000000000000000000000000000000000000000000000000000000001100011011010010110110001000001 :!
0J!
b0000 L!
#100
0t
#105
b00010 H
1r
1t
1w
1{
05!
b000 7!
b00000000 9!
b00000000000000000000000000000000000000000000000000000000000000000000000000000000000000000000000000000000000000000000000000000000000000000000000000000000000000000000000000000000000000000000000000000000000000000000000000000000000000000000000000000000000000000000000000000000000000000000000000000000000000000000000000000000000000000000000000000000000000000000000000000000000000000000000000000000000000000000000000000000000000000000000000000000000000000000000000000000000000000000000000000000000000000000000000000000 :!
b01 c!
#110
b00100 "
1#
1%
1'
1(
0t
0w
1z
b101 |
b00000011 ~
b00000000000000000000000000000000000000000000000000000000000000000000000000000000000000000000000000000000000000000000000000000000000000000000000000000000000000000000000000000000000000000000000000000000000000000000000000000000000000000000000000000000000000000000000000000000000000000000000000000000000000000000000000000000000000000000000000000000000000000000000000000000000000000000000000000000000000000000000000000000000000000000000000000000000000000000000000000000000000000000000000000000011000100110111101000010 !!
b00000011 |!
b00000011 }!
0~!
1#"
#115
b00101 "
0#
0%
0'
0(
b00000011 @
b00000000000000000000000000000000000000000000000000000000000000000000000000000000000000000000000000000000011000100110111101000010 A
b00100 H
0r
1t
0{
1J!
b1001 L!
b10 c!
#120
1#
0t
0z
b000 |
b00000000 ~
b00000000000000000000000000000000000000000000000000000000000000000000000000000000000000000000000000000000000000000000000000000000000000000000000000000000000000000000000000000000000000000000000000000000000000000000000000000000000000000000000000000000000000000000000000000000000000000000000000000000000000000000000000000000000000000000000000000000000000000000000000000000000000000000000000000000000000000000000000000000000000000000000000000000000000000000000000000000000000000000000000000000000000000000000000000000 !!
b00000000 |!
b00000000 }!
1~!
0#"
#125
b00101 H
1t
1w
1{
12!
0J!
b0000 L!
#130
b00001 "
0#
b00000000 @
b00000000000000000000000000000000000000000000000000000000000000000000000000000000000000000000000000000000000000000000000000000000 A
b00000 H
0t
0u
0w
0{
02!
1J!
b0101 L!
b00 c!
#135
1t
#140
0t
#145
1t
#150
0t
#155
1t
#160
0t
#165
1t
#170
0t
1u
#175
b00010 "
b00001 H
1t
15!
b011 7!
b00000100 9!
b00000000000000000000000000000000000000000000000000000000000000000000000000000000000000000000000000000000000000000000000000000000000000000000000000000000000000000000000000000000000000000000000000000000000000000000000000000000000000000000000000000000000000000000000000000000000000000000000000000000000000000000000000000000000000000000000000000000000000000000000000000000000000000000000000000000000000000000000000000000000000000000000000000000000000000000000000000000000000000000000001100011011010010110110001000001 :!
0J!
b0000 L!
#180
0t
#185
b00010 H
1r
1t
1w
1{
05!
b000 7!
b00000000 9!
b00000000000000000000000000000000000000000000000000000000000000000000000000000000000000000000000000000000000000000000000000000000000000000000000000000000000000000000000000000000000000000000000000000000000000000000000000000000000000000000000000000000000000000000000000000000000000000000000000000000000000000000000000000000000000000000000000000000000000000000000000000000000000000000000000000000000000000000000000000000000000000000000000000000000000000000000000000000000000000000000000000000000000000000000000000000 :!
b01 c!
#190
b00100 "
1#
1%
1'
1(
0t
0w
1z
b101 |
b00000011 ~
b00000000000000000000000000000000000000000000000000000000000000000000000000000000000000000000000000000000000000000000000000000000000000000000000000000000000000000000000000000000000000000000000000000000000000000000000000000000000000000000000000000000000000000000000000000000000000000000000000000000000000000000000000000000000000000000000000000000000000000000000000000000000000000000000000000000000000000000000000000000000000000000000000000000000000000000000000000000000000000000000000000000011000100110111101000010 !!
b00000011 |!
b00000011 }!
0~!
1#"
#195
b00101 "
0#
0%
0'
0(
b00000011 @
b00000000000000000000000000000000000000000000000000000000000000000000000000000000000000000000000000000000011000100110111101000010 A
b00100 H
0r
1t
0{
1J!
b1001 L!
b10 c!
#200
1#
0t
0z
b000 |
b00000000 ~
b00000000000000000000000000000000000000000000000000000000000000000000000000000000000000000000000000000000000000000000000000000000000000000000000000000000000000000000000000000000000000000000000000000000000000000000000000000000000000000000000000000000000000000000000000000000000000000000000000000000000000000000000000000000000000000000000000000000000000000000000000000000000000000000000000000000000000000000000000000000000000000000000000000000000000000000000000000000000000000000000000000000000000000000000000000000 !!
b00000000 |!
b00000000 }!
1~!
0#"
#205
b00101 H
1t
1w
1{
12!
0J!
b0000 L!
#210
b00111 "
1$
0t
1v
b01100001 y
#215
b00101 "
0$
b00000001 E
b00000001 F
b00111 H
b01100001 I
b00000000000000000000000000000000000000000000000000000000000000000000000000000000000000000000000000000000000000000000000000000000000000000000000000000000000000000000000000000000000000000000000000000000000000000000000000000000000000000000000000000000000000000000000000000000000000000000000000000000000000000000000000000000000000000000000000000000000000000000000000000000000000000000000000000000000000000000000000000000000000000000000000000000000000000000000000000000000000000000000000000000000000000000000001100001 b
1t
0w
0{
02!
1J!
b0111 L!
b00000001 a!
b01100001 b!
b01100001 e!
#220
0t
0v
b00000000 y
#225
b00101 H
1t
1w
1{
12!
0J!
b0000 L!
b00000000 a!
b00000000 b!
#230
b00001 "
0#
b00000000 @
b00000000000000000000000000000000000000000000000000000000000000000000000000000000000000000000000000000000000000000000000000000000 A
b00000000 E
b00000000 F
b00000 H
b00000000 I
b00000000000000000000000000000000000000000000000000000000000000000000000000000000000000000000000000000000000000000000000000000000000000000000000000000000000000000000000000000000000000000000000000000000000000000000000000000000000000000000000000000000000000000000000000000000000000000000000000000000000000000000000000000000000000000000000000000000000000000000000000000000000000000000000000000000000000000000000000000000000000000000000000000000000000000000000000000000000000000000000000000000000000000000000000000000 b
0t
0u
0w
0{
02!
1J!
b0101 L!
b00 c!
b00000000 e!
#235
1t
#240
0t
#245
1t
#250
0t
#255
1t
#260
0t
#265
1t
#270
0t
1u
#275
b00010 "
b00001 H
1t
15!
b011 7!
b00000100 9!
b00000000000000000000000000000000000000000000000000000000000000000000000000000000000000000000000000000000000000000000000000000000000000000000000000000000000000000000000000000000000000000000000000000000000000000000000000000000000000000000000000000000000000000000000000000000000000000000000000000000000000000000000000000000000000000000000000000000000000000000000000000000000000000000000000000000000000000000000000000000000000000000000000000000000000000000000000000000000000000000000001100011011010010110110001000001 :!
0J!
b0000 L!
#280
0t
#285
b00010 H
1r
1t
1w
1{
05!
b000 7!
b00000000 9!
b00000000000000000000000000000000000000000000000000000000000000000000000000000000000000000000000000000000000000000000000000000000000000000000000000000000000000000000000000000000000000000000000000000000000000000000000000000000000000000000000000000000000000000000000000000000000000000000000000000000000000000000000000000000000000000000000000000000000000000000000000000000000000000000000000000000000000000000000000000000000000000000000000000000000000000000000000000000000000000000000000000000000000000000000000000000 :!
b01 c!
#290
b00100 "
1#
1%
1'
1(
0t
0w
1z
b101 |
b00000011 ~
b00000000000000000000000000000000000000000000000000000000000000000000000000000000000000000000000000000000000000000000000000000000000000000000000000000000000000000000000000000000000000000000000000000000000000000000000000000000000000000000000000000000000000000000000000000000000000000000000000000000000000000000000000000000000000000000000000000000000000000000000000000000000000000000000000000000000000000000000000000000000000000000000000000000000000000000000000000000000000000000000000000000011000100110111101000010 !!
b00000011 |!
b00000011 }!
0~!
1#"
#295
b00101 "
0#
0%
0'
0(
b00000011 @
b00000000000000000000000000000000000000000000000000000000000000000000000000000000000000000000000000000000011000100110111101000010 A
b00100 H
0r
1t
0{
1J!
b1001 L!
b10 c!
#300
1#
0t
0z
b000 |
b00000000 ~
b00000000000000000000000000000000000000000000000000000000000000000000000000000000000000000000000000000000000000000000000000000000000000000000000000000000000000000000000000000000000000000000000000000000000000000000000000000000000000000000000000000000000000000000000000000000000000000000000000000000000000000000000000000000000000000000000000000000000000000000000000000000000000000000000000000000000000000000000000000000000000000000000000000000000000000000000000000000000000000000000000000000000000000000000000000000 !!
b00000000 |!
b00000000 }!
1~!
0#"
#305
b00101 H
1t
1w
1{
12!
0J!
b0000 L!
#310
b00111 "
1$
0t
1v
b01101000 y
#315
b00101 "
0$
b00000001 E
b00000001 F
b00111 H
b01101000 I
b00000000000000000000000000000000000000000000000000000000000000000000000000000000000000000000000000000000000000000000000000000000000000000000000000000000000000000000000000000000000000000000000000000000000000000000000000000000000000000000000000000000000000000000000000000000000000000000000000000000000000000000000000000000000000000000000000000000000000000000000000000000000000000000000000000000000000000000000000000000000000000000000000000000000000000000000000000000000000000000000000000000000000000000000001101000 b
1t
0w
0{
02!
1J!
b0111 L!
b00000001 a!
b01101000 b!
b01101000 e!
#320
0t
0v
b00000000 y
#325
b00101 H
1t
1w
1{
12!
0J!
b0000 L!
b00000000 a!
b00000000 b!
#330
b00111 "
1$
0t
1v
b01100101 y
#335
b00101 "
0$
b00000010 E
b00000010 F
b00111 H
b01100101 I
b00000000000000000000000000000000000000000000000000000000000000000000000000000000000000000000000000000000000000000000000000000000000000000000000000000000000000000000000000000000000000000000000000000000000000000000000000000000000000000000000000000000000000000000000000000000000000000000000000000000000000000000000000000000000000000000000000000000000000000000000000000000000000000000000000000000000000000000000000000000000000000000000000000000000000000000000000000000000000000000000000000000000000000110010101101000 b
1t
0w
0{
02!
1J!
b0111 L!
b00000010 a!
b01100101 b!
#340
0t
0v
b00000000 y
#345
b00101 H
1t
1w
1{
12!
0J!
b0000 L!
b00000000 a!
b00000000 b!
#350
b00111 "
1$
0t
1v
b01101100 y
#355
b00101 "
0$
b00000011 E
b00000011 F
b00111 H
b01101100 I
b00000000000000000000000000000000000000000000000000000000000000000000000000000000000000000000000000000000000000000000000000000000000000000000000000000000000000000000000000000000000000000000000000000000000000000000000000000000000000000000000000000000000000000000000000000000000000000000000000000000000000000000000000000000000000000000000000000000000000000000000000000000000000000000000000000000000000000000000000000000000000000000000000000000000000000000000000000000000000000000000000000000011011000110010101101000 b
1t
0w
0{
02!
1J!
b0111 L!
b00000011 a!
b01101100 b!
#360
0t
0v
b00000000 y
#365
b00101 H
1t
1w
1{
12!
0J!
b0000 L!
b00000000 a!
b00000000 b!
#370
b00111 "
1$
0t
1v
b01101100 y
#375
b00101 "
0$
b00000100 E
b00000100 F
b00111 H
b00000000000000000000000000000000000000000000000000000000000000000000000000000000000000000000000000000000000000000000000000000000000000000000000000000000000000000000000000000000000000000000000000000000000000000000000000000000000000000000000000000000000000000000000000000000000000000000000000000000000000000000000000000000000000000000000000000000000000000000000000000000000000000000000000000000000000000000000000000000000000000000000000000000000000000000000000000000000000000000000001101100011011000110010101101000 b
1t
0w
0{
02!
1J!
b0111 L!
b00000100 a!
b01101100 b!
#380
0t
0v
b00000000 y
#385
b00101 H
1t
1w
1{
12!
0J!
b0000 L!
b00000000 a!
b00000000 b!
#390
b00111 "
1$
0t
1v
b01101111 y
#395
b00101 "
0$
b00000101 E
b00000101 F
b00111 H
b01101111 I
b00000000000000000000000000000000000000000000000000000000000000000000000000000000000000000000000000000000000000000000000000000000000000000000000000000000000000000000000000000000000000000000000000000000000000000000000000000000000000000000000000000000000000000000000000000000000000000000000000000000000000000000000000000000000000000000000000000000000000000000000000000000000000000000000000000000000000000000000000000000000000000000000000000000000000000000000000000000000000000110111101101100011011000110010101101000 b
1t
0w
0{
02!
1J!
b0111 L!
b00000101 a!
b01101111 b!
#400
0t
0v
b00000000 y
#405
b00101 H
1t
1w
1{
12!
0J!
b0000 L!
b00000000 a!
b00000000 b!
#410
b00001 "
0#
b00000000 @
b00000000000000000000000000000000000000000000000000000000000000000000000000000000000000000000000000000000000000000000000000000000 A
b00000000 E
b00000000 F
b00000 H
b00000000 I
b00000000000000000000000000000000000000000000000000000000000000000000000000000000000000000000000000000000000000000000000000000000000000000000000000000000000000000000000000000000000000000000000000000000000000000000000000000000000000000000000000000000000000000000000000000000000000000000000000000000000000000000000000000000000000000000000000000000000000000000000000000000000000000000000000000000000000000000000000000000000000000000000000000000000000000000000000000000000000000000000000000000000000000000000000000000 b
0t
0u
0w
0{
02!
1J!
b0101 L!
b00 c!
b00000000 e!
#415
1t
#420
0t
#425
1t
#430
0t
#435
1t
#440
0t
#445
1t
#450
0t
1u
#455
b00010 "
b00001 H
1t
15!
b011 7!
b00000100 9!
b00000000000000000000000000000000000000000000000000000000000000000000000000000000000000000000000000000000000000000000000000000000000000000000000000000000000000000000000000000000000000000000000000000000000000000000000000000000000000000000000000000000000000000000000000000000000000000000000000000000000000000000000000000000000000000000000000000000000000000000000000000000000000000000000000000000000000000000000000000000000000000000000000000000000000000000000000000000000000000000000001100011011010010110110001000001 :!
0J!
b0000 L!
#460
0t
#465
b00010 H
1r
1t
1w
1{
05!
b000 7!
b00000000 9!
b00000000000000000000000000000000000000000000000000000000000000000000000000000000000000000000000000000000000000000000000000000000000000000000000000000000000000000000000000000000000000000000000000000000000000000000000000000000000000000000000000000000000000000000000000000000000000000000000000000000000000000000000000000000000000000000000000000000000000000000000000000000000000000000000000000000000000000000000000000000000000000000000000000000000000000000000000000000000000000000000000000000000000000000000000000000 :!
b01 c!
#470
b00100 "
1#
1%
1'
1(
0t
0w
1z
b101 |
b00000011 ~
b00000000000000000000000000000000000000000000000000000000000000000000000000000000000000000000000000000000000000000000000000000000000000000000000000000000000000000000000000000000000000000000000000000000000000000000000000000000000000000000000000000000000000000000000000000000000000000000000000000000000000000000000000000000000000000000000000000000000000000000000000000000000000000000000000000000000000000000000000000000000000000000000000000000000000000000000000000000000000000000000000000000011000100110111101000010 !!
b00000011 |!
b00000011 }!
0~!
1#"
#475
b00101 "
0#
0%
0'
0(
b00000011 @
b00000000000000000000000000000000000000000000000000000000000000000000000000000000000000000000000000000000011000100110111101000010 A
b00100 H
0r
1t
0{
1J!
b1001 L!
b10 c!
#480
1#
0t
0z
b000 |
b00000000 ~
b00000000000000000000000000000000000000000000000000000000000000000000000000000000000000000000000000000000000000000000000000000000000000000000000000000000000000000000000000000000000000000000000000000000000000000000000000000000000000000000000000000000000000000000000000000000000000000000000000000000000000000000000000000000000000000000000000000000000000000000000000000000000000000000000000000000000000000000000000000000000000000000000000000000000000000000000000000000000000000000000000000000000000000000000000000000 !!
b00000000 |!
b00000000 }!
1~!
0#"
#485
b00101 H
1t
1w
1{
12!
0J!
b0000 L!
#490
b00111 "
1$
0t
1v
b01100001 y
#495
b00101 "
0$
b00000001 E
b00000001 F
b00111 H
b01100001 I
b00000000000000000000000000000000000000000000000000000000000000000000000000000000000000000000000000000000000000000000000000000000000000000000000000000000000000000000000000000000000000000000000000000000000000000000000000000000000000000000000000000000000000000000000000000000000000000000000000000000000000000000000000000000000000000000000000000000000000000000000000000000000000000000000000000000000000000000000000000000000000000000000000000000000000000000000000000000000000000000000000000000000000000000000001100001 b
1t
0w
0{
02!
1J!
b0111 L!
b00000001 a!
b01100001 b!
b01100001 e!
#500
0t
0v
b00000000 y
#505
b00101 H
1t
1w
1{
12!
0J!
b0000 L!
b00000000 a!
b00000000 b!
#510
b00111 "
1$
0t
1v
b01100010 y
#515
b00101 "
0$
b00000010 E
b00000010 F
b00111 H
b01100010 I
b00000000000000000000000000000000000000000000000000000000000000000000000000000000000000000000000000000000000000000000000000000000000000000000000000000000000000000000000000000000000000000000000000000000000000000000000000000000000000000000000000000000000000000000000000000000000000000000000000000000000000000000000000000000000000000000000000000000000000000000000000000000000000000000000000000000000000000000000000000000000000000000000000000000000000000000000000000000000000000000000000000000000000000110001001100001 b
1t
0w
0{
02!
1J!
b0111 L!
b00000010 a!
b01100010 b!
#520
0t
0v
b00000000 y
#525
b00101 H
1t
1w
1{
12!
0J!
b0000 L!
b00000000 a!
b00000000 b!
#530
b00111 "
1$
0t
1v
b01100011 y
