sim/waves/comm_rx_fsm.vcd
$version Generated by VerilatedVcd $end
$timescale 1ps $end
 $scope module TOP $end
  $var wire 1 8 clk $end
  $var wire 1 9 rst_n $end
  $var wire 1 : frame_in_valid $end
  $var wire 1 ; frame_in_ready $end
  $var wire 3 < frame_in_type [2:0] $end
  $var wire 8 = frame_in_seq [7:0] $end
  $var wire 8 > frame_in_len [7:0] $end
  $var wire 512 ? frame_in_payload [511:0] $end
  $var wire 1 O cm_rx_valid $end
  $var wire 1 P cm_rx_ready $end
  $var wire 3 " cm_rx_frame_type [2:0] $end
  $var wire 8 # cm_rx_seq [7:0] $end
  $var wire 8 $ cm_rx_len [7:0] $end
  $var wire 512 % cm_rx_payload [511:0] $end
  $var wire 1 Q ack_q_valid $end
  $var wire 1 R ack_q_ready $end
  $var wire 8 # ack_q_seq [7:0] $end
  $var wire 1 S tx_ack_valid $end
  $var wire 8 = tx_ack_seq [7:0] $end
  $scope module chat_pkg $end
   $var wire 32 Z MAX_MSG_LEN [31:0] $end
   $var wire 32 Z MAX_MSG_NUM [31:0] $end
   $var wire 32 Z MAX_LINE_LEN [31:0] $end
   $var wire 32 [ MAX_NAME_LEN [31:0] $end
   $var wire 32 \ MSG_ID_WIDTH [31:0] $end
   $var wire 32 \ SEQ_WIDTH [31:0] $end
   $var wire 32 \ LEN_WIDTH [31:0] $end
   $var wire 32 ] RETRY_WIDTH [31:0] $end
   $var wire 32 ] MAX_RETRY [31:0] $end
   $var wire 8 ^ SOF_BYTE [7:0] $end
   $var wire 32 [ CRC_WIDTH [31:0] $end
   $var wire 16 _ CRC16_POLY [15:0] $end
   $var wire 16 ` CRC16_INIT [15:0] $end
   $var wire 32 a CLK_FREQ_HZ_DEFAULT [31:0] $end
   $var wire 32 b UART_BAUD_DEFAULT [31:0] $end
  $upscope $end
  $scope module comm_rx_fsm $end
   $var wire 1 8 clk $end
   $var wire 1 9 rst_n $end
   $var wire 1 : frame_in_valid $end
   $var wire 1 ; frame_in_ready $end
   $var wire 3 < frame_in_type [2:0] $end
   $var wire 8 = frame_in_seq [7:0] $end
   $var wire 8 > frame_in_len [7:0] $end
   $var wire 512 ? frame_in_payload [511:0] $end
   $var wire 1 O cm_rx_valid $end
   $var wire 1 P cm_rx_ready $end
   $var wire 3 " cm_rx_frame_type [2:0] $end
   $var wire 8 # cm_rx_seq [7:0] $end
   $var wire 8 $ cm_rx_len [7:0] $end
   $var wire 512 % cm_rx_payload [511:0] $end
   $var wire 1 Q ack_q_valid $end
   $var wire 1 R ack_q_ready $end
   $var wire 8 # ack_q_seq [7:0] $end
   $var wire 1 S tx_ack_valid $end
   $var wire 8 = tx_ack_seq [7:0] $end
   $var wire 2 5 state_q [1:0] $end
   $var wire 2 T state_d [1:0] $end
   $var wire 3 " type_q [2:0] $end
   $var wire 8 # seq_q [7:0] $end
   $var wire 8 $ len_q [7:0] $end
   $var wire 512 % payload_q [511:0] $end
   $var wire 8 6 expected_rx_seq_q [7:0] $end
   $var wire 1 7 dup_q $end
   $var wire 1 U frame_is_ack $end
   $var wire 1 V frame_is_data $end
   $var wire 1 W frame_is_control $end
   $var wire 1 X accept_frame $end
   $var wire 1 Y incoming_dup $end
  $upscope $end
 $upscope $end
$enddefinitions $end


#0
b000 "
b00000000 #
b00000000 $
b00000000000000000000000000000000000000000000000000000000000000000000000000000000000000000000000000000000000000000000000000000000000000000000000000000000000000000000000000000000000000000000000000000000000000000000000000000000000000000000000000000000000000000000000000000000000000000000000000000000000000000000000000000000000000000000000000000000000000000000000000000000000000000000000000000000000000000000000000000000000000000000000000000000000000000000000000000000000000000000000000000000000000000000000000000000 %
b00 5
b00000000 6
07
08
09
0:
1;
b000 <
b00000000 =
b00000000 >
b00000000000000000000000000000000000000000000000000000000000000000000000000000000000000000000000000000000000000000000000000000000000000000000000000000000000000000000000000000000000000000000000000000000000000000000000000000000000000000000000000000000000000000000000000000000000000000000000000000000000000000000000000000000000000000000000000000000000000000000000000000000000000000000000000000000000000000000000000000000000000000000000000000000000000000000000000000000000000000000000000000000000000000000000000000000 ?
0O
1P
0Q
1R
0S
b00 T
0U
1V
0W
0X
0Y
b00000000000000000000000001000000 Z
b00000000000000000000000000010000 [
b00000000000000000000000000001000 \
b00000000000000000000000000000100 ]
b01111110 ^
b0001000000100001 _
b1111111111111111 `
b00000101111101011110000100000000 a
b00000000000000011100001000000000 b
#5
18
#10
08
#15
18
#20
08
#25
18
#30
08
#35
18
#40
08
19
#45
18
#50
08
1:
b001 <
b01010101 =
1S
1U
0V
1X
#55
18
#60
08
0:
0S
0X
#65
18
#70
08
#75
18
#80
08
#85
18
#90
08
#95
18
#100
08
09
b000 <
b00000000 =
0U
1V
#105
18
#110
08
#115
18
#120
08
#125
18
#130
08
#135
18
#140
08
19
#145
18
#150
08
1:
b00000010 >
b00000000000000000000000000000000000000000000000000000000000000000000000000000000000000000000000000000000000000000000000000000000000000000000000000000000000000000000000000000000000000000000000000000000000000000000000000000000000000000000000000000000000000000000000000000000000000000000000000000000000000000000000000000000000000000000000000000000000000000000000000000000000000000000000000000000000000000000000000000000000000000000000000000000000000000000000000000000000000000000000000000000000000000110100101101000 ?
b01 T
1X
#155
b00000010 $
b00000000000000000000000000000000000000000000000000000000000000000000000000000000000000000000000000000000000000000000000000000000000000000000000000000000000000000000000000000000000000000000000000000000000000000000000000000000000000000000000000000000000000000000000000000000000000000000000000000000000000000000000000000000000000000000000000000000000000000000000000000000000000000000000000000000000000000000000000000000000000000000000000000000000000000000000000000000000000000000000000000000000000000110100101101000 %
b01 5
18
0;
1O
b10 T
0X
#160
08
0:
#165
b10 5
18
0O
1Q
b00 T
#170
08
#175
b00 5
b00000001 6
18
1;
0Q
1Y
#180
08
#185
18
#190
08
#195
18
#200
08
#205
18
#210
08
#215
18
#220
b00000000 $
b00000000000000000000000000000000000000000000000000000000000000000000000000000000000000000000000000000000000000000000000000000000000000000000000000000000000000000000000000000000000000000000000000000000000000000000000000000000000000000000000000000000000000000000000000000000000000000000000000000000000000000000000000000000000000000000000000000000000000000000000000000000000000000000000000000000000000000000000000000000000000000000000000000000000000000000000000000000000000000000000000000000000000000000000000000000 %
b00000000 6
08
09
b00000000 >
b00000000000000000000000000000000000000000000000000000000000000000000000000000000000000000000000000000000000000000000000000000000000000000000000000000000000000000000000000000000000000000000000000000000000000000000000000000000000000000000000000000000000000000000000000000000000000000000000000000000000000000000000000000000000000000000000000000000000000000000000000000000000000000000000000000000000000000000000000000000000000000000000000000000000000000000000000000000000000000000000000000000000000000000000000000000 ?
0Y
#225
18
#230
08
#235
18
#240
08
#245
18
#250
08
#255
18
#260
08
19
#265
18
#270
08
1:
b00000001 >
b00000000000000000000000000000000000000000000000000000000000000000000000000000000000000000000000000000000000000000000000000000000000000000000000000000000000000000000000000000000000000000000000000000000000000000000000000000000000000000000000000000000000000000000000000000000000000000000000000000000000000000000000000000000000000000000000000000000000000000000000000000000000000000000000000000000000000000000000000000000000000000000000000000000000000000000000000000000000000000000000000000000000000000000000001100001 ?
b01 T
1X
#275
b00000001 $
b00000000000000000000000000000000000000000000000000000000000000000000000000000000000000000000000000000000000000000000000000000000000000000000000000000000000000000000000000000000000000000000000000000000000000000000000000000000000000000000000000000000000000000000000000000000000000000000000000000000000000000000000000000000000000000000000000000000000000000000000000000000000000000000000000000000000000000000000000000000000000000000000000000000000000000000000000000000000000000000000000000000000000000000000001100001 %
b01 5
18
0;
1O
b10 T
0X
#280
08
0:
#285
b10 5
18
0O
1Q
b00 T
#290
08
#295
b00 5
b00000001 6
18
1;
0Q
1Y
#300
08
#305
18
#310
08
#315
18
#320
08
#325
18
#330
08
#335
18
#340
08
1:
b10 T
1X
#345
b10 5
17
18
0;
1Q
b00 T
0X
#350
08
0:
#355
b00 5
18
1;
0Q
#360
08
#365
18
#370
08
#375
18
#380
08
#385
18
#390
08
#395
18
#400
b00000000 $
b00000000000000000000000000000000000000000000000000000000000000000000000000000000000000000000000000000000000000000000000000000000000000000000000000000000000000000000000000000000000000000000000000000000000000000000000000000000000000000000000000000000000000000000000000000000000000000000000000000000000000000000000000000000000000000000000000000000000000000000000000000000000000000000000000000000000000000000000000000000000000000000000000000000000000000000000000000000000000000000000000000000000000000000000000000000 %
b00000000 6
07
08
09
b00000000 >
b00000000000000000000000000000000000000000000000000000000000000000000000000000000000000000000000000000000000000000000000000000000000000000000000000000000000000000000000000000000000000000000000000000000000000000000000000000000000000000000000000000000000000000000000000000000000000000000000000000000000000000000000000000000000000000000000000000000000000000000000000000000000000000000000000000000000000000000000000000000000000000000000000000000000000000000000000000000000000000000000000000000000000000000000000000000 ?
0Y
#405
18
#410
08
#415
18
#420
08
#425
18
#430
08
#435
18
#440
08
19
#445
18
#450
08
1:
b00000001 >
b00000000000000000000000000000000000000000000000000000000000000000000000000000000000000000000000000000000000000000000000000000000000000000000000000000000000000000000000000000000000000000000000000000000000000000000000000000000000000000000000000000000000000000000000000000000000000000000000000000000000000000000000000000000000000000000000000000000000000000000000000000000000000000000000000000000000000000000000000000000000000000000000000000000000000000000000000000000000000000000000000000000000000000000000001100001 ?
b01 T
1X
#455
b00000001 $
b00000000000000000000000000000000000000000000000000000000000000000000000000000000000000000000000000000000000000000000000000000000000000000000000000000000000000000000000000000000000000000000000000000000000000000000000000000000000000000000000000000000000000000000000000000000000000000000000000000000000000000000000000000000000000000000000000000000000000000000000000000000000000000000000000000000000000000000000000000000000000000000000000000000000000000000000000000000000000000000000000000000000000000000000001100001 %
b01 5
18
0;
1O
b10 T
0X
#460
08
0:
#465
b10 5
18
0O
1Q
b00 T
#470
08
#475
b00 5
b00000001 6
18
1;
0Q
1Y
#480
08
#485
18
#490
08
#495
18
#500
08
#505
18
#510
08
#515
18
#520
08
1:
b00000001 =
b00000000000000000000000000000000000000000000000000000000000000000000000000000000000000000000000000000000000000000000000000000000000000000000000000000000000000000000000000000000000000000000000000000000000000000000000000000000000000000000000000000000000000000000000000000000000000000000000000000000000000000000000000000000000000000000000000000000000000000000000000000000000000000000000000000000000000000000000000000000000000000000000000000000000000000000000000000000000000000000000000000000000000000000000001100010 ?
b01 T
1X
0Y
#525
b00000001 #
b00000000000000000000000000000000000000000000000000000000000000000000000000000000000000000000000000000000000000000000000000000000000000000000000000000000000000000000000000000000000000000000000000000000000000000000000000000000000000000000000000000000000000000000000000000000000000000000000000000000000000000000000000000000000000000000000000000000000000000000000000000000000000000000000000000000000000000000000000000000000000000000000000000000000000000000000000000000000000000000000000000000000000000000000001100010 %
b01 5
18
0;
1O
b10 T
0X
#530
08
0:
#535
b10 5
18
0O
1Q
b00 T
#540
08
#545
b00 5
b00000000 6
18
1;
0Q
1Y
#550
08
#555
18
#560
08
#565
18
#570
08
#575
18
#580
08
#585
18
#590
08
1:
b10 T
1X
#595
b10 5
17
18
0;
1Q
b00 T
0X
#600
08
0:
#605
b00 5
18
1;
0Q
#610
08
#615
18
#620
08
#625
18
#630
08
#635
18
#640
08
#645
18
#650
08
1:
b00000000 =
b00000000000000000000000000000000000000000000000000000000000000000000000000000000000000000000000000000000000000000000000000000000000000000000000000000000000000000000000000000000000000000000000000000000000000000000000000000000000000000000000000000000000000000000000000000000000000000000000000000000000000000000000000000000000000000000000000000000000000000000000000000000000000000000000000000000000000000000000000000000000000000000000000000000000000000000000000000000000000000000000000000000000000000000000001100011 ?
b01 T
1X
0Y
#655
b00000000 #
b00000000000000000000000000000000000000000000000000000000000000000000000000000000000000000000000000000000000000000000000000000000000000000000000000000000000000000000000000000000000000000000000000000000000000000000000000000000000000000000000000000000000000000000000000000000000000000000000000000000000000000000000000000000000000000000000000000000000000000000000000000000000000000000000000000000000000000000000000000000000000000000000000000000000000000000000000000000000000000000000000000000000000000000000001100011 %
b01 5
07
18
0;
1O
b10 T
0X
#660
08
0:
#665
b10 5
18
0O
1Q
b00 T
#670
08
#675
b00 5
b00000001 6
18
1;
0Q
1Y
#680
08
#685
18
#690
08
#695
18
#700
08
#705
18
#710
08
#715
18
#720
b00000000 $
b00000000000000000000000000000000000000000000000000000000000000000000000000000000000000000000000000000000000000000000000000000000000000000000000000000000000000000000000000000000000000000000000000000000000000000000000000000000000000000000000000000000000000000000000000000000000000000000000000000000000000000000000000000000000000000000000000000000000000000000000000000000000000000000000000000000000000000000000000000000000000000000000000000000000000000000000000000000000000000000000000000000000000000000000000000000 %
b00000000 6
08
09
b00000000 >
b00000000000000000000000000000000000000000000000000000000000000000000000000000000000000000000000000000000000000000000000000000000000000000000000000000000000000000000000000000000000000000000000000000000000000000000000000000000000000000000000000000000000000000000000000000000000000000000000000000000000000000000000000000000000000000000000000000000000000000000000000000000000000000000000000000000000000000000000000000000000000000000000000000000000000000000000000000000000000000000000000000000000000000000000000000000 ?
0Y
#725
18
#730
08
#735
18
#740
08
#745
18
#750
08
#755
18
#760
08
19
#765
18
#770
08
1:
b00000001 >
b00000000000000000000000000000000000000000000000000000000000000000000000000000000000000000000000000000000000000000000000000000000000000000000000000000000000000000000000000000000000000000000000000000000000000000000000000000000000000000000000000000000000000000000000000000000000000000000000000000000000000000000000000000000000000000000000000000000000000000000000000000000000000000000000000000000000000000000000000000000000000000000000000000000000000000000000000000000000000000000000000000000000000000000000001111000 ?
b01 T
1X
#775
b00000001 $
b00000000000000000000000000000000000000000000000000000000000000000000000000000000000000000000000000000000000000000000000000000000000000000000000000000000000000000000000000000000000000000000000000000000000000000000000000000000000000000000000000000000000000000000000000000000000000000000000000000000000000000000000000000000000000000000000000000000000000000000000000000000000000000000000000000000000000000000000000000000000000000000000000000000000000000000000000000000000000000000000000000000000000000000000001111000 %
b01 5
18
0;
1O
b10 T
0X
#780
08
0:
#785
b10 5
18
0O
1Q
b00 T
#790
08
#795
b00 5
b00000001 6
18
1;
0Q
1Y
#800
08
#805
18
#810
08
#815
18
#820
08
#825
18
#830
08
#835
18
#840
08
1:
b011 <
b00000100 >
b00000000000000000000000000000000000000000000000000000000000000000000000000000000000000000000000000000000000000000000000000000000000000000000000000000000000000000000000000000000000000000000000000000000000000000000000000000000000000000000000000000000000000000000000000000000000000000000000000000000000000000000000000000000000000000000000000000000000000000000000000000000000000000000000000000000000000000000000000000000000000000000000000000000000000000000000000000000000000000000000001100011011010010110110001000001 ?
b01 T
0V
1W
1X
0Y
#845
b011 "
b00000100 $
b00000000000000000000000000000000000000000000000000000000000000000000000000000000000000000000000000000000000000000000000000000000000000000000000000000000000000000000000000000000000000000000000000000000000000000000000000000000000000000000000000000000000000000000000000000000000000000000000000000000000000000000000000000000000000000000000000000000000000000000000000000000000000000000000000000000000000000000000000000000000000000000000000000000000000000000000000000000000000000000000001100011011010010110110001000001 %
b01 5
18
0;
1O
b10 T
0X
#850
08
0:
#855
b10 5
18
0O
1Q
b00 T
#860
08
#865
b00 5
18
1;
0Q
#870
08
#875
18
#880
08
#885
18
#890
08
#895
18
#900
08
#905
18
#910
08
1:
b000 <
b00000001 =
b00000001 >
b00000000000000000000000000000000000000000000000000000000000000000000000000000000000000000000000000000000000000000000000000000000000000000000000000000000000000000000000000000000000000000000000000000000000000000000000000000000000000000000000000000000000000000000000000000000000000000000000000000000000000000000000000000000000000000000000000000000000000000000000000000000000000000000000000000000000000000000000000000000000000000000000000000000000000000000000000000000000000000000000000000000000000000000000001111001 ?
b01 T
1V
0W
1X
#915
b000 "
b00000001 #
b00000001 $
b00000000000000000000000000000000000000000000000000000000000000000000000000000000000000000000000000000000000000000000000000000000000000000000000000000000000000000000000000000000000000000000000000000000000000000000000000000000000000000000000000000000000000000000000000000000000000000000000000000000000000000000000000000000000000000000000000000000000000000000000000000000000000000000000000000000000000000000000000000000000000000000000000000000000000000000000000000000000000000000000000000000000000000000000001111001 %
b01 5
18
0;
1O
b10 T
0X
#920
08
0:
#925
b10 5
18
0O
1Q
b00 T
#930
08
#935
b00 5
b00000000 6
18
1;
0Q
1Y
#940
08
#945
18
#950
08
#955
18
#960
08
#965
18
#970
08
#975
18
#980
08
1:
b110 <
b01110111 =
b00000000 >
b00000000000000000000000000000000000000000000000000000000000000000000000000000000000000000000000000000000000000000000000000000000000000000000000000000000000000000000000000000000000000000000000000000000000000000000000000000000000000000000000000000000000000000000000000000000000000000000000000000000000000000000000000000000000000000000000000000000000000000000000000000000000000000000000000000000000000000000000000000000000000000000000000000000000000000000000000000000000000000000000000000000000000000000000000000000 ?
b01 T
0V
1W
1X
0Y
#985
b110 "
b01110111 #
b00000000 $
b00000000000000000000000000000000000000000000000000000000000000000000000000000000000000000000000000000000000000000000000000000000000000000000000000000000000000000000000000000000000000000000000000000000000000000000000000000000000000000000000000000000000000000000000000000000000000000000000000000000000000000000000000000000000000000000000000000000000000000000000000000000000000000000000000000000000000000000000000000000000000000000000000000000000000000000000000000000000000000000000000000000000000000000000000000000 %
b01 5
18
0;
1O
b10 T
0X
#990
08
0:
#995
b10 5
18
0O
1Q
b00 T
#1000
08
#1005
b00 5
18
1;
0Q
#1010
08
#1015
18
#1020
08
#1025
18
#1030
08
#1035
18
#1040
08
#1045
18
#1050
b000 "
b00000000 #
08
09
b000 <
b00000000 =
1V
0W
#1055
18
#1060
08
#1065
18
#1070
08
#1075
18
#1080
08
#1085
18
#1090
08
19
#1095
18
#1100
08
1:
b00000001 >
b00000000000000000000000000000000000000000000000000000000000000000000000000000000000000000000000000000000000000000000000000000000000000000000000000000000000000000000000000000000000000000000000000000000000000000000000000000000000000000000000000000000000000000000000000000000000000000000000000000000000000000000000000000000000000000000000000000000000000000000000000000000000000000000000000000000000000000000000000000000000000000000000000000000000000000000000000000000000000000000000000000000000000000000000001110001 ?
0P
b01 T
1X
#1105
b00000001 $
b00000000000000000000000000000000000000000000000000000000000000000000000000000000000000000000000000000000000000000000000000000000000000000000000000000000000000000000000000000000000000000000000000000000000000000000000000000000000000000000000000000000000000000000000000000000000000000000000000000000000000000000000000000000000000000000000000000000000000000000000000000000000000000000000000000000000000000000000000000000000000000000000000000000000000000000000000000000000000000000000000000000000000000000000001110001 %
b01 5
18
0;
1O
0X
#1110
08
0:
#1115
18
#1120
08
#1125
18
#1130
08
#1135
18
#1140
08
#1145
18
#1150
08
#1155
18
#1160
08
#1165
18
#1170
08
#1175
18
#1180
08
#1185
18
#1190
08
1P
b10 T
#1195
b10 5
18
0O
1Q
b00 T
#1200
08
#1205
b00 5
b00000001 6
18
1;
0Q
1Y
#1210
08
#1215
18
#1220
08
#1225
18
#1230
08
#1235
18
#1240
08
#1245
18
#1250
08
#1255
18
#1260
08
#1265
18
#1270
08
#1275
18
#1280
b00000000 $
b00000000000000000000000000000000000000000000000000000000000000000000000000000000000000000000000000000000000000000000000000000000000000000000000000000000000000000000000000000000000000000000000000000000000000000000000000000000000000000000000000000000000000000000000000000000000000000000000000000000000000000000000000000000000000000000000000000000000000000000000000000000000000000000000000000000000000000000000000000000000000000000000000000000000000000000000000000000000000000000000000000000000000000000000000000000 %
b00000000 6
08
09
b00000000 >
b00000000000000000000000000000000000000000000000000000000000000000000000000000000000000000000000000000000000000000000000000000000000000000000000000000000000000000000000000000000000000000000000000000000000000000000000000000000000000000000000000000000000000000000000000000000000000000000000000000000000000000000000000000000000000000000000000000000000000000000000000000000000000000000000000000000000000000000000000000000000000000000000000000000000000000000000000000000000000000000000000000000000000000000000000000000 ?
0Y
#1285
18
#1290
08
#1295
18
#1300
08
#1305
18
#1310
08
#1315
18
#1320
08
19
#1325
18
#1330
08
1:
b00000001 >
b00000000000000000000000000000000000000000000000000000000000000000000000000000000000000000000000000000000000000000000000000000000000000000000000000000000000000000000000000000000000000000000000000000000000000000000000000000000000000000000000000000000000000000000000000000000000000000000000000000000000000000000000000000000000000000000000000000000000000000000000000000000000000000000000000000000000000000000000000000000000000000000000000000000000000000000000000000000000000000000000000000000000000000000000001110010 ?
0R
b01 T
1X
#1335
b00000001 $
b00000000000000000000000000000000000000000000000000000000000000000000000000000000000000000000000000000000000000000000000000000000000000000000000000000000000000000000000000000000000000000000000000000000000000000000000000000000000000000000000000000000000000000000000000000000000000000000000000000000000000000000000000000000000000000000000000000000000000000000000000000000000000000000000000000000000000000000000000000000000000000000000000000000000000000000000000000000000000000000000000000000000000000000000001110010 %
b01 5
18
0;
1O
b10 T
0X
#1340
08
0:
#1345
b10 5
18
0O
1Q
#1350
08
#1355
18
#1360
08
#1365
18
#1370
08
#1375
18
#1380
08
#1385
18
#1390
08
#1395
18
#1400
08
#1405
18
#1410
08
#1415
18
#1420
08
1R
b00 T
#1425
b00 5
b00000001 6
18
1;
0Q
1Y
