sim/waves/comm_frame_decoder.vcd
$version Generated by VerilatedVcd $end
$timescale 1ps $end
 $scope module TOP $end
  $var wire 1 9 clk $end
  $var wire 1 : rst_n $end
  $var wire 1 ; byte_in_valid $end
  $var wire 8 < byte_in_data [7:0] $end
  $var wire 1 = frame_out_valid $end
  $var wire 1 > frame_out_ready $end
  $var wire 3 " frame_out_type [2:0] $end
  $var wire 8 # frame_out_seq [7:0] $end
  $var wire 8 $ frame_out_len [7:0] $end
  $var wire 512 % frame_out_payload [511:0] $end
  $var wire 1 ? drop_pulse $end
  $scope module chat_pkg $end
   $var wire 32 E MAX_MSG_LEN [31:0] $end
   $var wire 32 E MAX_MSG_NUM [31:0] $end
   $var wire 32 E MAX_LINE_LEN [31:0] $end
   $var wire 32 F MAX_NAME_LEN [31:0] $end
   $var wire 32 G MSG_ID_WIDTH [31:0] $end
   $var wire 32 G SEQ_WIDTH [31:0] $end
   $var wire 32 G LEN_WIDTH [31:0] $end
   $var wire 32 H RETRY_WIDTH [31:0] $end
   $var wire 32 H MAX_RETRY [31:0] $end
   $var wire 8 I SOF_BYTE [7:0] $end
   $var wire 32 F CRC_WIDTH [31:0] $end
   $var wire 16 J CRC16_POLY [15:0] $end
   $var wire 16 K CRC16_INIT [15:0] $end
   $var wire 32 L CLK_FREQ_HZ_DEFAULT [31:0] $end
   $var wire 32 M UART_BAUD_DEFAULT [31:0] $end
  $upscope $end
  $scope module comm_frame_decoder $end
   $var wire 1 9 clk $end
   $var wire 1 : rst_n $end
   $var wire 1 ; byte_in_valid $end
   $var wire 8 < byte_in_data [7:0] $end
   $var wire 1 = frame_out_valid $end
   $var wire 1 > frame_out_ready $end
   $var wire 3 " frame_out_type [2:0] $end
   $var wire 8 # frame_out_seq [7:0] $end
   $var wire 8 $ frame_out_len [7:0] $end
   $var wire 512 % frame_out_payload [511:0] $end
   $var wire 1 ? drop_pulse $end
   $var wire 4 5 state_q [3:0] $end
   $var wire 4 @ state_d [3:0] $end
   $var wire 3 " type_q [2:0] $end
   $var wire 8 # seq_q [7:0] $end
   $var wire 8 $ len_q [7:0] $end
   $var wire 8 6 pld_idx_q [7:0] $end
   $var wire 512 % payload_q [511:0] $end
   $var wire 8 7 rx_crc_hi_q [7:0] $end
   $var wire 1 A crc_init $end
   $var wire 1 B crc_en $end
   $var wire 8 < crc_byte_in [7:0] $end
   $var wire 16 8 crc_state [15:0] $end
   $var wire 1 C crc_match_now $end
   $var wire 1 D drop_d $end
   $scope module u_crc $end
    $var wire 1 9 clk $end
    $var wire 1 : rst_n $end
    $var wire 1 A init $end
    $var wire 1 B en $end
    $var wire 8 < byte_in [7:0] $end
    $var wire 16 8 crc_out [15:0] $end
    $var wire 16 8 crc_q [15:0] $end
   $upscope $end
  $upscope $end
 $upscope $end
$enddefinitions $end


#0
b000 "
b00000000 #
b00000000 $
b00000000000000000000000000000000000000000000000000000000000000000000000000000000000000000000000000000000000000000000000000000000000000000000000000000000000000000000000000000000000000000000000000000000000000000000000000000000000000000000000000000000000000000000000000000000000000000000000000000000000000000000000000000000000000000000000000000000000000000000000000000000000000000000000000000000000000000000000000000000000000000000000000000000000000000000000000000000000000000000000000000000000000000000000000000000 %
b0000 5
b00000000 6
b00000000 7
b0000000000000000 8
09
0:
0;
b00000000 <
0=
1>
0?
b0000 @
0A
0B
1C
0D
b00000000000000000000000001000000 E
b00000000000000000000000000010000 F
b00000000000000000000000000001000 G
b00000000000000000000000000000100 H
b01111110 I
b0001000000100001 J
b1111111111111111 K
b00000101111101011110000100000000 L
b00000000000000011100001000000000 M
#5
b1111111111111111 8
19
0C
#10
09
#15
19
#20
09
#25
19
#30
09
#35
19
#40
09
1:
#45
19
#50
09
1;
b01111110 <
b0001 @
1A
#55
b0001 5
19
b0010 @
0A
1B
#60
09
b00000000 <
#65
b0010 5
b1110000111110000 8
19
b0011 @
#70
09
b00010010 <
#75
b00010010 #
b0011 5
b0010111101111100 8
19
b0100 @
#80
09
b00000100 <
#85
b00000100 $
b0100 5
b1110100100001001 8
19
#90
09
b01101000 <
#95
b00000000000000000000000000000000000000000000000000000000000000000000000000000000000000000000000000000000000000000000000000000000000000000000000000000000000000000000000000000000000000000000000000000000000000000000000000000000000000000000000000000000000000000000000000000000000000000000000000000000000000000000000000000000000000000000000000000000000000000000000000000000000000000000000000000000000000000000000000000000000000000000000000000000000000000000000000000000000000000000000000000000000000000000000001101000 %
b00000001 6
b1000100010101001 8
19
#100
09
b01101001 <
#105
b00000000000000000000000000000000000000000000000000000000000000000000000000000000000000000000000000000000000000000000000000000000000000000000000000000000000000000000000000000000000000000000000000000000000000000000000000000000000000000000000000000000000000000000000000000000000000000000000000000000000000000000000000000000000000000000000000000000000000000000000000000000000000000000000000000000000000000000000000000000000000000000000000000000000000000000000000000000000000000000000000000000000000000110100101101000 %
b00000010 6
b0100010000001111 8
19
#110
09
b00100001 <
#115
b00000000000000000000000000000000000000000000000000000000000000000000000000000000000000000000000000000000000000000000000000000000000000000000000000000000000000000000000000000000000000000000000000000000000000000000000000000000000000000000000000000000000000000000000000000000000000000000000000000000000000000000000000000000000000000000000000000000000000000000000000000000000000000000000000000000000000000000000000000000000000000000000000000000000000000000000000000000000000000000000000000000001000010110100101101000 %
b00000011 6
b0011001100000011 8
19
b0101 @
#120
09
#125
b00000000000000000000000000000000000000000000000000000000000000000000000000000000000000000000000000000000000000000000000000000000000000000000000000000000000000000000000000000000000000000000000000000000000000000000000000000000000000000000000000000000000000000000000000000000000000000000000000000000000000000000000000000000000000000000000000000000000000000000000000000000000000000000000000000000000000000000000000000000000000000000000000000000000000000000000000000000000000000000000000100001001000010110100101101000 %
b0101 5
b00000100 6
b0011000101110011 8
19
b0110 @
0B
#130
09
b00110001 <
#135
b0110 5
b00110001 7
19
b0000 @
1D
#140
09
b01110011 <
b0111 @
1C
0D
#145
b0111 5
19
1=
b0000 @
#150
09
0;
b00000000 <
0C
#155
b0000 5
19
0=
