sim/waves/comm_tx_fsm.vcd
$version Generated by VerilatedVcd $end
$timescale 1ps $end
 $scope module TOP $end
  $var wire 1 < clk $end
  $var wire 1 = rst_n $end
  $var wire 1 > be_tx_valid $end
  $var wire 1 ? be_tx_ready $end
  $var wire 3 @ be_tx_frame_type [2:0] $end
  $var wire 8 A be_tx_msg_id [7:0] $end
  $var wire 8 B be_tx_len [7:0] $end
  $var wire 512 C be_tx_payload [511:0] $end
  $var wire 1 S frame_req_valid $end
  $var wire 1 T frame_req_ready $end
  $var wire 3 " frame_req_type [2:0] $end
  $var wire 8 U frame_req_seq [7:0] $end
  $var wire 8 # frame_req_len [7:0] $end
  $var wire 512 $ frame_req_payload [511:0] $end
  $var wire 1 V ack_valid $end
  $var wire 8 W ack_seq [7:0] $end
  $var wire 1 X cm_status_valid $end
  $var wire 1 Y cm_status_ready $end
  $var wire 8 4 cm_status_msg_id [7:0] $end
  $var wire 2 Z cm_status_code [1:0] $end
  $scope module chat_pkg $end
   $var wire 32 _ MAX_MSG_LEN [31:0] $end
   $var wire 32 _ MAX_MSG_NUM [31:0] $end
   $var wire 32 _ MAX_LINE_LEN [31:0] $end
   $var wire 32 ` MAX_NAME_LEN [31:0] $end
   $var wire 32 a MSG_ID_WIDTH [31:0] $end
   $var wire 32 a SEQ_WIDTH [31:0] $end
   $var wire 32 a LEN_WIDTH [31:0] $end
   $var wire 32 b RETRY_WIDTH [31:0] $end
   $var wire 32 b MAX_RETRY [31:0] $end
   $var wire 8 c SOF_BYTE [7:0] $end
   $var wire 32 ` CRC_WIDTH [31:0] $end
   $var wire 16 d CRC16_POLY [15:0] $end
   $var wire 16 e CRC16_INIT [15:0] $end
   $var wire 32 f CLK_FREQ_HZ_DEFAULT [31:0] $end
   $var wire 32 g UART_BAUD_DEFAULT [31:0] $end
  $upscope $end
  $scope module comm_tx_fsm $end
   $var wire 32 ] TIMEOUT_CYCLES [31:0] $end
   $var wire 1 < clk $end
   $var wire 1 = rst_n $end
   $var wire 1 > be_tx_valid $end
   $var wire 1 ? be_tx_ready $end
   $var wire 3 @ be_tx_frame_type [2:0] $end
   $var wire 8 A be_tx_msg_id [7:0] $end
   $var wire 8 B be_tx_len [7:0] $end
   $var wire 512 C be_tx_payload [511:0] $end
   $var wire 1 S frame_req_valid $end
   $var wire 1 T frame_req_ready $end
   $var wire 3 " frame_req_type [2:0] $end
   $var wire 8 U frame_req_seq [7:0] $end
   $var wire 8 # frame_req_len [7:0] $end
   $var wire 512 $ frame_req_payload [511:0] $end
   $var wire 1 V ack_valid $end
   $var wire 8 W ack_seq [7:0] $end
   $var wire 1 X cm_status_valid $end
   $var wire 1 Y cm_status_ready $end
   $var wire 8 4 cm_status_msg_id [7:0] $end
   $var wire 2 Z cm_status_code [1:0] $end
   $var wire 32 ^ TIMEOUT_W [31:0] $end
   $var wire 3 5 state_q [2:0] $end
   $var wire 3 [ state_d [2:0] $end
   $var wire 3 " type_q [2:0] $end
   $var wire 8 4 msg_id_q [7:0] $end
   $var wire 8 # len_q [7:0] $end
   $var wire 512 $ payload_q [511:0] $end
   $var wire 8 6 tx_seq_q [7:0] $end
   $var wire 4 7 retry_q [3:0] $end
   $var wire 5 8 timeout_q [4:0] $end
   $var wire 1 9 timeout_hit $end
   $var wire 1 \ ack_match $end
   $var wire 1 : is_data $end
   $var wire 1 ; max_retries_used $end
  $upscope $end
 $upscope $end
$enddefinitions $end


#0
b000 "
b00000000 #
b00000000000000000000000000000000000000000000000000000000000000000000000000000000000000000000000000000000000000000000000000000000000000000000000000000000000000000000000000000000000000000000000000000000000000000000000000000000000000000000000000000000000000000000000000000000000000000000000000000000000000000000000000000000000000000000000000000000000000000000000000000000000000000000000000000000000000000000000000000000000000000000000000000000000000000000000000000000000000000000000000000000000000000000000000000000 $
b00000000 4
b000 5
b00000000 6
b0000 7
b00000 8
09
1:
0;
0<
0=
0>
1?
b000 @
b00000000 A
b00000000 B
b00000000000000000000000000000000000000000000000000000000000000000000000000000000000000000000000000000000000000000000000000000000000000000000000000000000000000000000000000000000000000000000000000000000000000000000000000000000000000000000000000000000000000000000000000000000000000000000000000000000000000000000000000000000000000000000000000000000000000000000000000000000000000000000000000000000000000000000000000000000000000000000000000000000000000000000000000000000000000000000000000000000000000000000000000000000 C
0S
1T
b00000000 U
0V
b00000000 W
0X
1Y
b01 Z
b000 [
0\
b00000000000000000000000000010100 ]
b00000000000000000000000000000101 ^
b00000000000000000000000001000000 _
b00000000000000000000000000010000 `
b00000000000000000000000000001000 a
b00000000000000000000000000000100 b
b01111110 c
b0001000000100001 d
b1111111111111111 e
b00000101111101011110000100000000 f
b00000000000000011100001000000000 g
#5
1<
#10
0<
#15
1<
#20
0<
#25
1<
#30
0<
#35
1<
#40
0<
1=
#45
1<
#50
0<
1>
b01000010 A
b00000010 B
b00000000000000000000000000000000000000000000000000000000000000000000000000000000000000000000000000000000000000000000000000000000000000000000000000000000000000000000000000000000000000000000000000000000000000000000000000000000000000000000000000000000000000000000000000000000000000000000000000000000000000000000000000000000000000000000000000000000000000000000000000000000000000000000000000000000000000000000000000000000000000000000000000000000000000000000000000000000000000000000000000000000000000000110100101101000 C
b001 [
#55
b00000010 #
b00000000000000000000000000000000000000000000000000000000000000000000000000000000000000000000000000000000000000000000000000000000000000000000000000000000000000000000000000000000000000000000000000000000000000000000000000000000000000000000000000000000000000000000000000000000000000000000000000000000000000000000000000000000000000000000000000000000000000000000000000000000000000000000000000000000000000000000000000000000000000000000000000000000000000000000000000000000000000000000000000000000000000000110100101101000 $
b01000010 4
b001 5
1<
0?
1S
b010 [
#60
0<
0>
#65
b010 5
1<
0S
#70
0<
1V
b011 [
1\
#75
b011 5
b00000001 6
1<
b00000001 U
1X
b00 Z
b000 [
0\
#80
0<
0V
#85
b000 5
1<
1?
0X
b01 Z
#90
0<
1>
b01000011 A
b00000001 B
b00000000000000000000000000000000000000000000000000000000000000000000000000000000000000000000000000000000000000000000000000000000000000000000000000000000000000000000000000000000000000000000000000000000000000000000000000000000000000000000000000000000000000000000000000000000000000000000000000000000000000000000000000000000000000000000000000000000000000000000000000000000000000000000000000000000000000000000000000000000000000000000000000000000000000000000000000000000000000000000000000000000000000000000000000100001 C
b001 [
#95
b00000001 #
b00000000000000000000000000000000000000000000000000000000000000000000000000000000000000000000000000000000000000000000000000000000000000000000000000000000000000000000000000000000000000000000000000000000000000000000000000000000000000000000000000000000000000000000000000000000000000000000000000000000000000000000000000000000000000000000000000000000000000000000000000000000000000000000000000000000000000000000000000000000000000000000000000000000000000000000000000000000000000000000000000000000000000000000000000100001 $
b01000011 4
b001 5
1<
0?
1S
b010 [
#100
0<
0>
#105
b010 5
1<
0S
#110
0<
1V
b00000001 W
b011 [
1\
#115
b011 5
b00000000 6
1<
b00000000 U
1X
b00 Z
b000 [
0\
#120
0<
0V
b00000000 W
#125
b000 5
1<
1?
0X
b01 Z
#130
b00000000 #
b00000000000000000000000000000000000000000000000000000000000000000000000000000000000000000000000000000000000000000000000000000000000000000000000000000000000000000000000000000000000000000000000000000000000000000000000000000000000000000000000000000000000000000000000000000000000000000000000000000000000000000000000000000000000000000000000000000000000000000000000000000000000000000000000000000000000000000000000000000000000000000000000000000000000000000000000000000000000000000000000000000000000000000000000000000000 $
b00000000 4
0<
0=
b00000000 A
b00000000 B
b00000000000000000000000000000000000000000000000000000000000000000000000000000000000000000000000000000000000000000000000000000000000000000000000000000000000000000000000000000000000000000000000000000000000000000000000000000000000000000000000000000000000000000000000000000000000000000000000000000000000000000000000000000000000000000000000000000000000000000000000000000000000000000000000000000000000000000000000000000000000000000000000000000000000000000000000000000000000000000000000000000000000000000000000000000000 C
#135
1<
#140
0<
#145
1<
#150
0<
#155
1<
#160
0<
#165
1<
#170
0<
1=
#175
1<
#180
0<
1>
b00010000 A
b00000010 B
b00000000000000000000000000000000000000000000000000000000000000000000000000000000000000000000000000000000000000000000000000000000000000000000000000000000000000000000000000000000000000000000000000000000000000000000000000000000000000000000000000000000000000000000000000000000000000000000000000000000000000000000000000000000000000000000000000000000000000000000000000000000000000000000000000000000000000000000000000000000000000000000000000000000000000000000000000000000000000000000000000000000000000000110001001100001 C
b001 [
#185
b00000010 #
b00000000000000000000000000000000000000000000000000000000000000000000000000000000000000000000000000000000000000000000000000000000000000000000000000000000000000000000000000000000000000000000000000000000000000000000000000000000000000000000000000000000000000000000000000000000000000000000000000000000000000000000000000000000000000000000000000000000000000000000000000000000000000000000000000000000000000000000000000000000000000000000000000000000000000000000000000000000000000000000000000000000000000000110001001100001 $
b00010000 4
b001 5
1<
0?
1S
b010 [
#190
0<
0>
#195
b010 5
1<
0S
#200
0<
1V
b00000001 W
#205
b00001 8
1<
#210
0<
0V
b00000000 W
#215
b00010 8
1<
#220
0<
#225
b00011 8
1<
#230
0<
#235
b00100 8
1<
#240
0<
#245
b00101 8
1<
#250
0<
#255
b00110 8
1<
#260
0<
#265
b00111 8
1<
#270
0<
#275
b01000 8
1<
#280
0<
#285
b01001 8
1<
#290
0<
#295
b01010 8
1<
#300
0<
#305
b01011 8
1<
#310
0<
#315
b01100 8
1<
#320
0<
#325
b01101 8
1<
#330
0<
#335
b01110 8
1<
#340
0<
#345
b01111 8
1<
#350
0<
#355
b10000 8
1<
#360
0<
#365
b10001 8
1<
#370
0<
#375
b10010 8
1<
#380
0<
#385
b10011 8
19
1<
b001 [
#390
0<
#395
b001 5
b0001 7
1<
1S
b010 [
#400
0<
#405
b010 5
b00000 8
09
1<
0S
#410
0<
1V
b011 [
1\
#415
b011 5
b00000001 6
1<
b00000001 U
1X
b00 Z
b000 [
0\
#420
0<
0V
#425
b000 5
1<
1?
0X
b01 Z
#430
b00000000 #
b00000000000000000000000000000000000000000000000000000000000000000000000000000000000000000000000000000000000000000000000000000000000000000000000000000000000000000000000000000000000000000000000000000000000000000000000000000000000000000000000000000000000000000000000000000000000000000000000000000000000000000000000000000000000000000000000000000000000000000000000000000000000000000000000000000000000000000000000000000000000000000000000000000000000000000000000000000000000000000000000000000000000000000000000000000000 $
b00000000 4
b00000000 6
b0000 7
0<
0=
b00000000 A
b00000000 B
b00000000000000000000000000000000000000000000000000000000000000000000000000000000000000000000000000000000000000000000000000000000000000000000000000000000000000000000000000000000000000000000000000000000000000000000000000000000000000000000000000000000000000000000000000000000000000000000000000000000000000000000000000000000000000000000000000000000000000000000000000000000000000000000000000000000000000000000000000000000000000000000000000000000000000000000000000000000000000000000000000000000000000000000000000000000 C
b00000000 U
#435
1<
#440
0<
#445
1<
#450
0<
#455
1<
#460
0<
#465
1<
#470
0<
1=
#475
1<
#480
0<
1>
b01110111 A
b00000001 B
b00000000000000000000000000000000000000000000000000000000000000000000000000000000000000000000000000000000000000000000000000000000000000000000000000000000000000000000000000000000000000000000000000000000000000000000000000000000000000000000000000000000000000000000000000000000000000000000000000000000000000000000000000000000000000000000000000000000000000000000000000000000000000000000000000000000000000000000000000000000000000000000000000000000000000000000000000000000000000000000000000000000000000000000000001111000 C
b001 [
#485
b00000001 #
b00000000000000000000000000000000000000000000000000000000000000000000000000000000000000000000000000000000000000000000000000000000000000000000000000000000000000000000000000000000000000000000000000000000000000000000000000000000000000000000000000000000000000000000000000000000000000000000000000000000000000000000000000000000000000000000000000000000000000000000000000000000000000000000000000000000000000000000000000000000000000000000000000000000000000000000000000000000000000000000000000000000000000000000000001111000 $
b01110111 4
b001 5
1<
0?
1S
b010 [
#490
0<
0>
#495
b010 5
1<
0S
#500
0<
#505
b00001 8
1<
#510
0<
#515
b00010 8
1<
#520
0<
#525
b00011 8
1<
#530
0<
#535
b00100 8
1<
#540
0<
#545
b00101 8
1<
#550
0<
#555
b00110 8
1<
#560
0<
#565
b00111 8
1<
#570
0<
#575
b01000 8
1<
#580
0<
#585
b01001 8
1<
#590
0<
#595
b01010 8
1<
#600
0<
#605
b01011 8
1<
#610
0<
#615
b01100 8
1<
#620
0<
#625
b01101 8
1<
#630
0<
#635
b01110 8
1<
#640
0<
#645
b01111 8
1<
#650
0<
#655
b10000 8
1<
#660
0<
#665
b10001 8
1<
#670
0<
#675
b10010 8
1<
#680
0<
#685
b10011 8
19
1<
b001 [
#690
0<
#695
b001 5
b0001 7
1<
1S
b010 [
#700
0<
#705
b010 5
b00000 8
09
1<
0S
#710
0<
#715
b00001 8
1<
#720
0<
#725
b00010 8
1<
#730
0<
#735
b00011 8
1<
#740
0<
#745
b00100 8
1<
#750
0<
#755
b00101 8
1<
#760
0<
#765
b00110 8
1<
#770
0<
#775
b00111 8
1<
#780
0<
#785
b01000 8
1<
#790
0<
#795
b01001 8
1<
#800
0<
#805
b01010 8
1<
#810
0<
#815
b01011 8
1<
#820
0<
#825
b01100 8
1<
#830
0<
#835
b01101 8
1<
#840
0<
#845
b01110 8
1<
#850
0<
#855
b01111 8
1<
#860
0<
#865
b10000 8
1<
#870
0<
#875
b10001 8
1<
#880
0<
#885
b10010 8
1<
#890
0<
#895
b10011 8
19
1<
b001 [
#900
0<
#905
b001 5
b0010 7
1<
1S
b010 [
#910
0<
#915
b010 5
b00000 8
09
1<
0S
#920
0<
#925
b00001 8
1<
#930
0<
#935
b00010 8
1<
#940
0<
#945
b00011 8
1<
#950
0<
#955
b00100 8
1<
#960
0<
#965
b00101 8
1<
#970
0<
#975
b00110 8
1<
#980
0<
#985
b00111 8
1<
#990
0<
#995
b01000 8
1<
#1000
0<
#1005
b01001 8
1<
#1010
0<
#1015
b01010 8
1<
#1020
0<
#1025
b01011 8
1<
#1030
0<
#1035
b01100 8
1<
#1040
0<
#1045
b01101 8
1<
#1050
0<
#1055
b01110 8
1<
#1060
0<
#1065
b01111 8
1<
#1070
0<
#1075
b10000 8
1<
#1080
0<
#1085
b10001 8
1<
#1090
0<
#1095
b10010 8
1<
#1100
0<
#1105
b10011 8
19
1<
b001 [
#1110
0<
#1115
b001 5
b0011 7
1<
1S
b010 [
#1120
0<
#1125
b010 5
b00000 8
09
1<
0S
#1130
0<
#1135
b00001 8
1<
#1140
0<
#1145
b00010 8
1<
#1150
0<
#1155
b00011 8
1<
#1160
0<
#1165
b00100 8
1<
#1170
0<
#1175
b00101 8
1<
#1180
0<
#1185
b00110 8
1<
#1190
0<
#1195
b00111 8
1<
#1200
0<
#1205
b01000 8
1<
#1210
0<
#1215
b01001 8
1<
#1220
0<
#1225
b01010 8
1<
#1230
0<
#1235
b01011 8
1<
#1240
0<
#1245
b01100 8
1<
#1250
0<
#1255
b01101 8
1<
#1260
0<
#1265
b01110 8
1<
#1270
0<
#1275
b01111 8
1<
#1280
0<
#1285
b10000 8
1<
#1290
0<
#1295
b10001 8
1<
#1300
0<
#1305
b10010 8
1<
#1310
0<
#1315
b10011 8
19
1<
b001 [
#1320
0<
#1325
b001 5
b0100 7
1;
1<
1S
b010 [
#1330
0<
#1335
b010 5
b00000 8
09
1<
0S
#1340
0<
#1345
b00001 8
1<
#1350
0<
#1355
b00010 8
1<
#1360
0<
#1365
b00011 8
1<
#1370
0<
#1375
b00100 8
1<
#1380
0<
#1385
b00101 8
1<
#1390
0<
#1395
b00110 8
1<
#1400
0<
#1405
b00111 8
1<
#1410
0<
#1415
b01000 8
1<
#1420
0<
#1425
b01001 8
1<
#1430
0<
#1435
b01010 8
1<
#1440
0<
#1445
b01011 8
1<
#1450
0<
#1455
b01100 8
1<
#1460
0<
#1465
b01101 8
1<
#1470
0<
#1475
b01110 8
1<
#1480
0<
#1485
b01111 8
1<
#1490
0<
#1495
b10000 8
1<
#1500
0<
#1505
b10001 8
1<
#1510
0<
#1515
b10010 8
1<
#1520
0<
#1525
b10011 8
19
1<
b100 [
#1530
0<
#1535
b100 5
1<
1X
b000 [
#1540
0<
#1545
b000 5
1<
1?
0X
#1550
b00000000 #
b00000000000000000000000000000000000000000000000000000000000000000000000000000000000000000000000000000000000000000000000000000000000000000000000000000000000000000000000000000000000000000000000000000000000000000000000000000000000000000000000000000000000000000000000000000000000000000000000000000000000000000000000000000000000000000000000000000000000000000000000000000000000000000000000000000000000000000000000000000000000000000000000000000000000000000000000000000000000000000000000000000000000000000000000000000000 $
b00000000 4
b0000 7
b00000 8
09
0;
0<
0=
b00000000 A
b00000000 B
b00000000000000000000000000000000000000000000000000000000000000000000000000000000000000000000000000000000000000000000000000000000000000000000000000000000000000000000000000000000000000000000000000000000000000000000000000000000000000000000000000000000000000000000000000000000000000000000000000000000000000000000000000000000000000000000000000000000000000000000000000000000000000000000000000000000000000000000000000000000000000000000000000000000000000000000000000000000000000000000000000000000000000000000000000000000 C
#1555
1<
#1560
0<
#1565
1<
#1570
0<
#1575
1<
#1580
0<
#1585
1<
#1590
0<
1=
#1595
1<
#1600
0<
1>
b011 @
b10101011 A
b00000100 B
b00000000000000000000000000000000000000000000000000000000000000000000000000000000000000000000000000000000000000000000000000000000000000000000000000000000000000000000000000000000000000000000000000000000000000000000000000000000000000000000000000000000000000000000000000000000000000000000000000000000000000000000000000000000000000000000000000000000000000000000000000000000000000000000000000000000000000000000000000000000000000000000000000000000000000000000000000000000000000000000000001100011011010010110110001000001 C
b001 [
#1605
b011 "
b00000100 #
b00000000000000000000000000000000000000000000000000000000000000000000000000000000000000000000000000000000000000000000000000000000000000000000000000000000000000000000000000000000000000000000000000000000000000000000000000000000000000000000000000000000000000000000000000000000000000000000000000000000000000000000000000000000000000000000000000000000000000000000000000000000000000000000000000000000000000000000000000000000000000000000000000000000000000000000000000000000000000000000000001100011011010010110110001000001 $
b10101011 4
b001 5
0:
1<
0?
1S
b010 [
#1610
0<
0>
#1615
b010 5
1<
0S
#1620
0<
1V
b000 [
1\
#1625
b000 5
b00000001 6
1<
1?
b00000001 U
0\
#1630
0<
0V
#1635
1<
#1640
0<
#1645
1<
#1650
0<
#1655
1<
#1660
0<
#1665
1<
#1670
0<
#1675
1<
#1680
0<
#1685
1<
#1690
0<
#1695
1<
#1700
0<
#1705
1<
#1710
b000 "
b00000000 #
b00000000000000000000000000000000000000000000000000000000000000000000000000000000000000000000000000000000000000000000000000000000000000000000000000000000000000000000000000000000000000000000000000000000000000000000000000000000000000000000000000000000000000000000000000000000000000000000000000000000000000000000000000000000000000000000000000000000000000000000000000000000000000000000000000000000000000000000000000000000000000000000000000000000000000000000000000000000000000000000000000000000000000000000000000000000 $
b00000000 4
b00000000 6
1:
0<
0=
b000 @
b00000000 A
b00000000 B
b00000000000000000000000000000000000000000000000000000000000000000000000000000000000000000000000000000000000000000000000000000000000000000000000000000000000000000000000000000000000000000000000000000000000000000000000000000000000000000000000000000000000000000000000000000000000000000000000000000000000000000000000000000000000000000000000000000000000000000000000000000000000000000000000000000000000000000000000000000000000000000000000000000000000000000000000000000000000000000000000000000000000000000000000000000000 C
b00000000 U
#1715
1<
#1720
0<
#1725
1<
#1730
0<
#1735
1<
#1740
0<
#1745
1<
#1750
0<
1=
#1755
1<
#1760
0<
1>
b00000001 B
b00000000000000000000000000000000000000000000000000000000000000000000000000000000000000000000000000000000000000000000000000000000000000000000000000000000000000000000000000000000000000000000000000000000000000000000000000000000000000000000000000000000000000000000000000000000000000000000000000000000000000000000000000000000000000000000000000000000000000000000000000000000000000000000000000000000000000000000000000000000000000000000000000000000000000000000000000000000000000000000000000000000000000000000000001000001 C
b001 [
#1765
b00000001 #
b00000000000000000000000000000000000000000000000000000000000000000000000000000000000000000000000000000000000000000000000000000000000000000000000000000000000000000000000000000000000000000000000000000000000000000000000000000000000000000000000000000000000000000000000000000000000000000000000000000000000000000000000000000000000000000000000000000000000000000000000000000000000000000000000000000000000000000000000000000000000000000000000000000000000000000000000000000000000000000000000000000000000000000000000001000001 $
b001 5
1<
0?
1S
b010 [
#1770
0<
0>
#1775
b010 5
1<
0S
#1780
0<
1V
b011 [
1\
#1785
b011 5
b00000001 6
1<
b00000001 U
1X
b00 Z
b000 [
0\
#1790
0<
0V
#1795
b000 5
1<
1?
0X
b01 Z
#1800
0<
1>
b00000001 A
b00000000000000000000000000000000000000000000000000000000000000000000000000000000000000000000000000000000000000000000000000000000000000000000000000000000000000000000000000000000000000000000000000000000000000000000000000000000000000000000000000000000000000000000000000000000000000000000000000000000000000000000000000000000000000000000000000000000000000000000000000000000000000000000000000000000000000000000000000000000000000000000000000000000000000000000000000000000000000000000000000000000000000000000000001000010 C
b001 [
#1805
b00000000000000000000000000000000000000000000000000000000000000000000000000000000000000000000000000000000000000000000000000000000000000000000000000000000000000000000000000000000000000000000000000000000000000000000000000000000000000000000000000000000000000000000000000000000000000000000000000000000000000000000000000000000000000000000000000000000000000000000000000000000000000000000000000000000000000000000000000000000000000000000000000000000000000000000000000000000000000000000000000000000000000000000000001000010 $
b00000001 4
b001 5
1<
0?
1S
b010 [
#1810
0<
0>
#1815
b010 5
1<
0S
#1820
0<
1V
b00000001 W
b011 [
1\
#1825
b011 5
b00000000 6
1<
b00000000 U
1X
b00 Z
b000 [
0\
#1830
0<
0V
b00000000 W
#1835
b000 5
1<
1?
0X
b01 Z
#1840
0<
1>
b00000010 A
b00000000000000000000000000000000000000000000000000000000000000000000000000000000000000000000000000000000000000000000000000000000000000000000000000000000000000000000000000000000000000000000000000000000000000000000000000000000000000000000000000000000000000000000000000000000000000000000000000000000000000000000000000000000000000000000000000000000000000000000000000000000000000000000000000000000000000000000000000000000000000000000000000000000000000000000000000000000000000000000000000000000000000000000000001000011 C
b001 [
#1845
b00000000000000000000000000000000000000000000000000000000000000000000000000000000000000000000000000000000000000000000000000000000000000000000000000000000000000000000000000000000000000000000000000000000000000000000000000000000000000000000000000000000000000000000000000000000000000000000000000000000000000000000000000000000000000000000000000000000000000000000000000000000000000000000000000000000000000000000000000000000000000000000000000000000000000000000000000000000000000000000000000000000000000000000000001000011 $
b00000010 4
b001 5
1<
0?
1S
b010 [
#1850
0<
0>
#1855
b010 5
1<
0S
#1860
0<
1V
b011 [
1\
#1865
b011 5
b00000001 6
1<
b00000001 U
1X
b00 Z
b000 [
0\
#1870
0<
0V
#1875
b000 5
1<
1?
0X
b01 Z
#1880
0<
1>
b00000011 A
b00000000000000000000000000000000000000000000000000000000000000000000000000000000000000000000000000000000000000000000000000000000000000000000000000000000000000000000000000000000000000000000000000000000000000000000000000000000000000000000000000000000000000000000000000000000000000000000000000000000000000000000000000000000000000000000000000000000000000000000000000000000000000000000000000000000000000000000000000000000000000000000000000000000000000000000000000000000000000000000000000000000000000000000000001000100 C
b001 [
#1885
b00000000000000000000000000000000000000000000000000000000000000000000000000000000000000000000000000000000000000000000000000000000000000000000000000000000000000000000000000000000000000000000000000000000000000000000000000000000000000000000000000000000000000000000000000000000000000000000000000000000000000000000000000000000000000000000000000000000000000000000000000000000000000000000000000000000000000000000000000000000000000000000000000000000000000000000000000000000000000000000000000000000000000000000000001000100 $
b00000011 4
b001 5
1<
0?
1S
b010 [
#1890
0<
0>
#1895
b010 5
1<
0S
#1900
0<
1V
b00000001 W
b011 [
1\
#1905
b011 5
b00000000 6
1<
b00000000 U
1X
b00 Z
b000 [
0\
#1910
0<
0V
b00000000 W
#1915
b000 5
1<
1?
0X
b01 Z
#1920
b00000000 #
b00000000000000000000000000000000000000000000000000000000000000000000000000000000000000000000000000000000000000000000000000000000000000000000000000000000000000000000000000000000000000000000000000000000000000000000000000000000000000000000000000000000000000000000000000000000000000000000000000000000000000000000000000000000000000000000000000000000000000000000000000000000000000000000000000000000000000000000000000000000000000000000000000000000000000000000000000000000000000000000000000000000000000000000000000000000 $
b00000000 4
0<
0=
b00000000 A
b00000000 B
b00000000000000000000000000000000000000000000000000000000000000000000000000000000000000000000000000000000000000000000000000000000000000000000000000000000000000000000000000000000000000000000000000000000000000000000000000000000000000000000000000000000000000000000000000000000000000000000000000000000000000000000000000000000000000000000000000000000000000000000000000000000000000000000000000000000000000000000000000000000000000000000000000000000000000000000000000000000000000000000000000000000000000000000000000000000 C
#1925
1<
#1930
0<
#1935
1<
#1940
0<
#1945
1<
#1950
0<
#1955
1<
#1960
0<
1=
#1965
1<
#1970
0<
1>
b110 @
b001 [
#1975
b110 "
b001 5
0:
1<
0?
1S
b010 [
#1980
0<
0>
#1985
b010 5
1<
0S
#1990
0<
#1995
b00001 8
1<
#2000
0<
#2005
b00010 8
1<
#2010
0<
#2015
b00011 8
1<
#2020
0<
#2025
b00100 8
1<
#2030
0<
#2035
b00101 8
1<
#2040
0<
#2045
b00110 8
1<
#2050
0<
#2055
b00111 8
1<
#2060
0<
#2065
b01000 8
1<
#2070
0<
#2075
b01001 8
1<
#2080
0<
#2085
b01010 8
1<
#2090
0<
#2095
b01011 8
1<
#2100
0<
#2105
b01100 8
1<
#2110
0<
#2115
b01101 8
1<
#2120
0<
#2125
b01110 8
1<
#2130
0<
#2135
b01111 8
1<
#2140
0<
#2145
b10000 8
1<
#2150
0<
#2155
b10001 8
1<
#2160
0<
#2165
b10010 8
1<
#2170
0<
#2175
b10011 8
19
1<
b001 [
#2180
0<
#2185
b001 5
b0001 7
1<
1S
b010 [
#2190
0<
#2195
b010 5
b00000 8
09
1<
0S
#2200
0<
#2205
b00001 8
1<
#2210
0<
#2215
b00010 8
1<
#2220
0<
#2225
b00011 8
1<
#2230
0<
#2235
b00100 8
1<
#2240
0<
#2245
b00101 8
1<
#2250
0<
#2255
b00110 8
1<
#2260
0<
#2265
b00111 8
1<
#2270
0<
#2275
b01000 8
1<
#2280
0<
#2285
b01001 8
1<
#2290
0<
#2295
b01010 8
1<
#2300
0<
#2305
b01011 8
1<
#2310
0<
#2315
b01100 8
1<
#2320
0<
#2325
b01101 8
1<
#2330
0<
#2335
b01110 8
1<
#2340
0<
#2345
b01111 8
1<
#2350
0<
#2355
b10000 8
1<
#2360
0<
#2365
b10001 8
1<
#2370
0<
#2375
b10010 8
1<
#2380
0<
#2385
b10011 8
19
1<
b001 [
#2390
0<
#2395
b001 5
b0010 7
1<
1S
b010 [
#2400
0<
#2405
b010 5
b00000 8
09
1<
0S
#2410
0<
#2415
b00001 8
1<
#2420
0<
#2425
b00010 8
1<
#2430
0<
#2435
b00011 8
1<
#2440
0<
#2445
b00100 8
1<
#2450
0<
#2455
b00101 8
1<
#2460
0<
#2465
b00110 8
1<
#2470
0<
#2475
b00111 8
1<
#2480
0<
#2485
b01000 8
1<
#2490
0<
#2495
b01001 8
1<
#2500
0<
#2505
b01010 8
1<
#2510
0<
#2515
b01011 8
1<
#2520
0<
#2525
b01100 8
1<
#2530
0<
#2535
b01101 8
1<
#2540
0<
#2545
b01110 8
1<
#2550
0<
#2555
b01111 8
1<
#2560
0<
#2565
b10000 8
1<
#2570
0<
#2575
b10001 8
1<
#2580
0<
#2585
b10010 8
1<
#2590
0<
#2595
b10011 8
19
1<
b001 [
#2600
0<
#2605
b001 5
b0011 7
1<
1S
b010 [
#2610
0<
#2615
b010 5
b00000 8
09
1<
0S
#2620
0<
#2625
b00001 8
1<
#2630
0<
#2635
b00010 8
1<
#2640
0<
#2645
b00011 8
1<
#2650
0<
#2655
b00100 8
1<
#2660
0<
#2665
b00101 8
1<
#2670
0<
#2675
b00110 8
1<
#2680
0<
#2685
b00111 8
1<
#2690
0<
#2695
b01000 8
1<
#2700
0<
#2705
b01001 8
1<
#2710
0<
#2715
b01010 8
1<
#2720
0<
#2725
b01011 8
1<
#2730
0<
#2735
b01100 8
1<
#2740
0<
#2745
b01101 8
1<
#2750
0<
#2755
b01110 8
1<
#2760
0<
#2765
b01111 8
1<
#2770
0<
#2775
b10000 8
1<
#2780
0<
#2785
b10001 8
1<
#2790
0<
#2795
b10010 8
1<
#2800
0<
#2805
b10011 8
19
1<
b001 [
#2810
0<
#2815
b001 5
b0100 7
1;
1<
1S
b010 [
#2820
0<
#2825
b010 5
b00000 8
09
1<
0S
#2830
0<
#2835
b00001 8
1<
#2840
0<
#2845
b00010 8
1<
#2850
0<
#2855
b00011 8
1<
#2860
0<
#2865
b00100 8
1<
#2870
0<
#2875
b00101 8
1<
#2880
0<
#2885
b00110 8
1<
#2890
0<
#2895
b00111 8
1<
#2900
0<
#2905
b01000 8
1<
#2910
0<
#2915
b01001 8
1<
#2920
0<
#2925
b01010 8
1<
#2930
0<
#2935
b01011 8
1<
#2940
0<
#2945
b01100 8
1<
#2950
0<
#2955
b01101 8
1<
#2960
0<
#2965
b01110 8
1<
#2970
0<
#2975
b01111 8
1<
#2980
0<
#2985
b10000 8
1<
#2990
0<
#2995
b10001 8
1<
#3000
0<
#3005
b10010 8
1<
#3010
0<
#3015
b10011 8
19
1<
b000 [
#3020
0<
#3025
b000 5
1<
1?
