sim/waves/comm_frame_encoder.vcd
$version Generated by VerilatedVcd $end
$timescale 1ps $end
 $scope module TOP $end
  $var wire 1 8 clk $end
  $var wire 1 9 rst_n $end
  $var wire 1 : frame_in_valid $end
  $var wire 1 ; frame_in_ready $end
  $var wire 3 < frame_in_type [2:0] $end
  $var wire 8 = frame_in_seq [7:0] $end
  $var wire 8 > frame_in_len [7:0] $end
  $var wire 512 ? frame_in_payload [511:0] $end
  $var wire 1 O byte_out_valid $end
  $var wire 1 P byte_out_ready $end
  $var wire 8 Q byte_out_data [7:0] $end
  $scope module chat_pkg $end
   $var wire 32 W MAX_MSG_LEN [31:0] $end
   $var wire 32 W MAX_MSG_NUM [31:0] $end
   $var wire 32 W MAX_LINE_LEN [31:0] $end
   $var wire 32 X MAX_NAME_LEN [31:0] $end
   $var wire 32 Y MSG_ID_WIDTH [31:0] $end
   $var wire 32 Y SEQ_WIDTH [31:0] $end
   $var wire 32 Y LEN_WIDTH [31:0] $end
   $var wire 32 Z RETRY_WIDTH [31:0] $end
   $var wire 32 Z MAX_RETRY [31:0] $end
   $var wire 8 [ SOF_BYTE [7:0] $end
   $var wire 32 X CRC_WIDTH [31:0] $end
   $var wire 16 \ CRC16_POLY [15:0] $end
   $var wire 16 ] CRC16_INIT [15:0] $end
   $var wire 32 ^ CLK_FREQ_HZ_DEFAULT [31:0] $end
   $var wire 32 _ UART_BAUD_DEFAULT [31:0] $end
  $upscope $end
  $scope module comm_frame_encoder $end
   $var wire 1 8 clk $end
   $var wire 1 9 rst_n $end
   $var wire 1 : frame_in_valid $end
   $var wire 1 ; frame_in_ready $end
   $var wire 3 < frame_in_type [2:0] $end
   $var wire 8 = frame_in_seq [7:0] $end
   $var wire 8 > frame_in_len [7:0] $end
   $var wire 512 ? frame_in_payload [511:0] $end
   $var wire 1 O byte_out_valid $end
   $var wire 1 P byte_out_ready $end
   $var wire 8 Q byte_out_data [7:0] $end
   $var wire 3 " type_q [2:0] $end
   $var wire 8 # seq_q [7:0] $end
   $var wire 8 $ len_q [7:0] $end
   $var wire 512 % payload_q [511:0] $end
   $var wire 8 5 pld_idx_q [7:0] $end
   $var wire 1 R crc_init $end
   $var wire 1 S crc_en $end
   $var wire 8 T crc_byte_in [7:0] $end
   $var wire 16 6 crc_state [15:0] $end
   $var wire 4 7 state_q [3:0] $end
   $var wire 4 U state_d [3:0] $end
   $var wire 1 V accept_byte $end
   $scope module u_crc $end
    $var wire 1 8 clk $end
    $var wire 1 9 rst_n $end
    $var wire 1 R init $end
    $var wire 1 S en $end
    $var wire 8 T byte_in [7:0] $end
    $var wire 16 6 crc_out [15:0] $end
    $var wire 16 6 crc_q [15:0] $end
   $upscope $end
  $upscope $end
 $upscope $end
$enddefinitions $end


#0
b000 "
b00000000 #
b00000000 $
b00000000000000000000000000000000000000000000000000000000000000000000000000000000000000000000000000000000000000000000000000000000000000000000000000000000000000000000000000000000000000000000000000000000000000000000000000000000000000000000000000000000000000000000000000000000000000000000000000000000000000000000000000000000000000000000000000000000000000000000000000000000000000000000000000000000000000000000000000000000000000000000000000000000000000000000000000000000000000000000000000000000000000000000000000000000 %
b00000000 5
b0000000000000000 6
b0000 7
08
09
0:
1;
b000 <
b00000000 =
b00000000 >
b00000000000000000000000000000000000000000000000000000000000000000000000000000000000000000000000000000000000000000000000000000000000000000000000000000000000000000000000000000000000000000000000000000000000000000000000000000000000000000000000000000000000000000000000000000000000000000000000000000000000000000000000000000000000000000000000000000000000000000000000000000000000000000000000000000000000000000000000000000000000000000000000000000000000000000000000000000000000000000000000000000000000000000000000000000000 ?
0O
1P
b00000000 Q
0R
0S
b00000000 T
b0000 U
0V
b00000000000000000000000001000000 W
b00000000000000000000000000010000 X
b00000000000000000000000000001000 Y
b00000000000000000000000000000100 Z
b01111110 [
b0001000000100001 \
b1111111111111111 ]
b00000101111101011110000100000000 ^
b00000000000000011100001000000000 _
#5
b1111111111111111 6
18
#10
08
#15
18
#20
08
#25
18
#30
08
#35
18
#40
08
19
#45
18
#50
08
1:
b00000101 >
b00000000000000000000000000000000000000000000000000000000000000000000000000000000000000000000000000000000000000000000000000000000000000000000000000000000000000000000000000000000000000000000000000000000000000000000000000000000000000000000000000000000000000000000000000000000000000000000000000000000000000000000000000000000000000000000000000000000000000000000000000000000000000000000000000000000000000000000000000000000000000000000000000000000000000000000000000000000000000000110111101101100011011000110010101101000 ?
1R
b0001 U
#55
b00000101 $
b00000000000000000000000000000000000000000000000000000000000000000000000000000000000000000000000000000000000000000000000000000000000000000000000000000000000000000000000000000000000000000000000000000000000000000000000000000000000000000000000000000000000000000000000000000000000000000000000000000000000000000000000000000000000000000000000000000000000000000000000000000000000000000000000000000000000000000000000000000000000000000000000000000000000000000000000000000000000000000110111101101100011011000110010101101000 %
b0001 7
18
0;
1O
b01111110 Q
0R
b0010 U
1V
#60
08
0:
#65
b0010 7
18
b00000000 Q
1S
b0011 U
#70
08
#75
b1110000111110000 6
b0011 7
18
b0100 U
#80
08
#85
b0001110100001111 6
b0100 7
18
b00000101 Q
b00000101 T
b0101 U
#90
08
#95
b1001110000111001 6
b0101 7
18
b01101000 Q
b01101000 T
#100
08
#105
b00000001 5
b1001011010011011 6
18
b01100101 Q
b01100101 T
#110
08
#115
b00000010 5
b0100010001111100 6
18
b01101100 Q
b01101100 T
#120
08
#125
b00000011 5
b1101100101101010 6
18
#130
08
#135
b00000100 5
b1001110101111110 6
18
b01101111 Q
b01101111 T
b0110 U
#140
08
#145
b00000101 5
b1011000101011101 6
b0110 7
18
b10110001 Q
0S
b00000000 T
b0111 U
#150
08
#155
b0111 7
18
b01011101 Q
b0000 U
#160
08
#165
b0000 7
18
1;
0O
b00000000 Q
0V
#170
b00000000 $
b00000000000000000000000000000000000000000000000000000000000000000000000000000000000000000000000000000000000000000000000000000000000000000000000000000000000000000000000000000000000000000000000000000000000000000000000000000000000000000000000000000000000000000000000000000000000000000000000000000000000000000000000000000000000000000000000000000000000000000000000000000000000000000000000000000000000000000000000000000000000000000000000000000000000000000000000000000000000000000000000000000000000000000000000000000000 %
b00000000 5
b1111111111111111 6
08
09
b00000000 >
b00000000000000000000000000000000000000000000000000000000000000000000000000000000000000000000000000000000000000000000000000000000000000000000000000000000000000000000000000000000000000000000000000000000000000000000000000000000000000000000000000000000000000000000000000000000000000000000000000000000000000000000000000000000000000000000000000000000000000000000000000000000000000000000000000000000000000000000000000000000000000000000000000000000000000000000000000000000000000000000000000000000000000000000000000000000 ?
#175
18
#180
08
#185
18
#190
08
#195
18
#200
08
#205
18
#210
08
19
#215
18
#220
08
1:
b011 <
b00000001 =
b00000101 >
b00000000000000000000000000000000000000000000000000000000000000000000000000000000000000000000000000000000000000000000000000000000000000000000000000000000000000000000000000000000000000000000000000000000000000000000000000000000000000000000000000000000000000000000000000000000000000000000000000000000000000000000000000000000000000000000000000000000000000000000000000000000000000000000000000000000000000000000000000000000000000000000000000000000000000000000000000000000000000000110010101100011011010010110110001000001 ?
1R
b0001 U
#225
b011 "
b00000001 #
b00000101 $
b00000000000000000000000000000000000000000000000000000000000000000000000000000000000000000000000000000000000000000000000000000000000000000000000000000000000000000000000000000000000000000000000000000000000000000000000000000000000000000000000000000000000000000000000000000000000000000000000000000000000000000000000000000000000000000000000000000000000000000000000000000000000000000000000000000000000000000000000000000000000000000000000000000000000000000000000000000000000000000110010101100011011010010110110001000001 %
b0001 7
18
0;
1O
b01111110 Q
0R
b0010 U
1V
#230
08
0:
#235
b0010 7
18
b00000011 Q
1S
b00000011 T
b0011 U
#240
08
#245
b1101000110010011 6
b0011 7
18
b00000001 Q
b00000001 T
b0100 U
#250
08
#255
b0101100001111101 6
b0100 7
18
b00000101 Q
b00000101 T
b0101 U
#260
08
#265
b1111011001011000 6
b0101 7
18
b01000001 Q
b01000001 T
#270
08
#275
b00000001 5
b1000111100111100 6
18
b01101100 Q
b01101100 T
#280
08
#285
b00000010 5
b1111000101001101 6
18
b01101001 Q
b01101001 T
#290
08
#295
b00000011 5
b0100111110110001 6
18
b01100011 Q
b01100011 T
#300
08
#305
b00000100 5
b0101010011101110 6
18
b01100101 Q
b01100101 T
b0110 U
#310
08
#315
b00000101 5
b1100100001110010 6
b0110 7
18
b11001000 Q
0S
b00000000 T
b0111 U
#320
08
#325
b0111 7
18
b01110010 Q
b0000 U
#330
08
#335
b0000 7
18
1;
0O
b00000000 Q
0V
#340
b000 "
b00000000 #
b00000000 $
b00000000000000000000000000000000000000000000000000000000000000000000000000000000000000000000000000000000000000000000000000000000000000000000000000000000000000000000000000000000000000000000000000000000000000000000000000000000000000000000000000000000000000000000000000000000000000000000000000000000000000000000000000000000000000000000000000000000000000000000000000000000000000000000000000000000000000000000000000000000000000000000000000000000000000000000000000000000000000000000000000000000000000000000000000000000 %
b00000000 5
b1111111111111111 6
08
09
b000 <
b00000000 =
b00000000 >
b00000000000000000000000000000000000000000000000000000000000000000000000000000000000000000000000000000000000000000000000000000000000000000000000000000000000000000000000000000000000000000000000000000000000000000000000000000000000000000000000000000000000000000000000000000000000000000000000000000000000000000000000000000000000000000000000000000000000000000000000000000000000000000000000000000000000000000000000000000000000000000000000000000000000000000000000000000000000000000000000000000000000000000000000000000000 ?
#345
18
#350
08
#355
18
#360
08
#365
18
#370
08
#375
18
#380
08
19
#385
18
#390
08
1:
b001 <
b00000111 =
1R
b0001 U
#395
b001 "
b00000111 #
b0001 7
18
0;
1O
b01111110 Q
0R
b0010 U
1V
#400
08
0:
#405
b0010 7
18
b00000001 Q
1S
b00000001 T
b0011 U
#410
08
#415
b1111000111010001 6
b0011 7
18
b00000111 Q
b00000111 T
b0100 U
#420
08
#425
b0101111011011001 6
b0100 7
18
b00000000 Q
b00000000 T
b0110 U
#430
08
#435
b0110001000111011 6
b0110 7
18
b01100010 Q
0S
b0111 U
#440
08
#445
b0111 7
18
b00111011 Q
b0000 U
#450
08
#455
b0000 7
18
1;
0O
b00000000 Q
0V
#460
b000 "
b00000000 #
b1111111111111111 6
08
09
b000 <
b00000000 =
#465
18
#470
08
#475
18
#480
08
#485
18
#490
08
#495
18
#500
08
19
#505
18
#510
08
1:
b110 <
b00000111 =
1R
b0001 U
#515
b110 "
b00000111 #
b0001 7
18
0;
1O
b01111110 Q
0R
b0010 U
1V
#520
08
0:
#525
b0010 7
18
b00000110 Q
1S
b00000110 T
b0011 U
#530
08
#535
b1000000100110110 6
b0011 7
18
b00000111 Q
b00000111 T
b0100 U
#540
08
#545
b1100011101001110 6
b0100 7
18
b00000000 Q
b00000000 T
b0110 U
#550
08
#555
b1110011110101011 6
b0110 7
18
b11100111 Q
0S
b0111 U
#560
08
#565
b0111 7
18
b10101011 Q
b0000 U
#570
08
#575
b0000 7
18
1;
0O
b00000000 Q
0V
#580
b000 "
b00000000 #
b1111111111111111 6
08
09
b000 <
b00000000 =
#585
18
#590
08
#595
18
#600
08
#605
18
#610
08
#615
18
#620
08
19
#625
18
#630
08
1:
b010 <
b00000111 =
1R
b0001 U
#635
b010 "
b00000111 #
b0001 7
18
0;
1O
b01111110 Q
0R
b0010 U
1V
#640
08
0:
#645
b0010 7
18
b00000010 Q
1S
b00000010 T
b0011 U
#650
08
#655
b1100000110110010 6
b0011 7
18
b00000111 Q
b00000111 T
b0100 U
#660
08
#665
b0000101110001010 6
b0100 7
18
b00000000 Q
b00000000 T
b0110 U
#670
08
#675
b0011101101101011 6
b0110 7
18
b00111011 Q
0S
b0111 U
#680
08
#685
b0111 7
18
b01101011 Q
b0000 U
#690
08
#695
b0000 7
18
1;
0O
b00000000 Q
0V
#700
b000 "
b00000000 #
b1111111111111111 6
08
09
b000 <
b00000000 =
#705
18
#710
08
#715
18
#720
08
#725
18
#730
08
#735
18
#740
08
19
#745
18
#750
08
1:
b00000001 =
b00000101 >
b00000000000000000000000000000000000000000000000000000000000000000000000000000000000000000000000000000000000000000000000000000000000000000000000000000000000000000000000000000000000000000000000000000000000000000000000000000000000000000000000000000000000000000000000000000000000000000000000000000000000000000000000000000000000000000000000000000000000000000000000000000000000000000000000000000000000000000000000000000000000000000000000000000000000000000000000000000000000000000100001001111110011111100000000101111110 ?
1R
b0001 U
#755
b00000001 #
b00000101 $
b00000000000000000000000000000000000000000000000000000000000000000000000000000000000000000000000000000000000000000000000000000000000000000000000000000000000000000000000000000000000000000000000000000000000000000000000000000000000000000000000000000000000000000000000000000000000000000000000000000000000000000000000000000000000000000000000000000000000000000000000000000000000000000000000000000000000000000000000000000000000000000000000000000000000000000000000000000000000000000100001001111110011111100000000101111110 %
b0001 7
18
0;
1O
b01111110 Q
0R
b0010 U
1V
#760
08
0:
#765
b0010 7
18
b00000000 Q
1S
b0011 U
#770
08
#775
b1110000111110000 6
b0011 7
18
b00000001 Q
b00000001 T
b0100 U
#780
08
#785
b0000110100101110 6
b0100 7
18
b00000101 Q
b00000101 T
b0101 U
#790
08
#795
b1010111100001000 6
b0101 7
18
b01111110 Q
b01111110 T
#800
08
#805
b00000001 5
b1101001101011100 6
18
b00000001 Q
b00000001 T
#810
08
#815
b00000010 5
b1011011100111111 6
18
b01111110 Q
b01111110 T
#820
08
#825
b00000011 5
b0111011101100101 6
18
#830
08
#835
b00000100 5
b1111010000101001 6
18
b01000010 Q
b01000010 T
b0110 U
#840
08
#845
b00000101 5
b1110111000011101 6
b0110 7
18
b11101110 Q
0S
b00000000 T
b0111 U
#850
08
#855
b0111 7
18
b00011101 Q
b0000 U
#860
08
#865
b0000 7
18
1;
0O
b00000000 Q
0V
#870
b00000000 #
b00000000 $
b00000000000000000000000000000000000000000000000000000000000000000000000000000000000000000000000000000000000000000000000000000000000000000000000000000000000000000000000000000000000000000000000000000000000000000000000000000000000000000000000000000000000000000000000000000000000000000000000000000000000000000000000000000000000000000000000000000000000000000000000000000000000000000000000000000000000000000000000000000000000000000000000000000000000000000000000000000000000000000000000000000000000000000000000000000000 %
b00000000 5
b1111111111111111 6
08
09
b00000000 =
b00000000 >
b00000000000000000000000000000000000000000000000000000000000000000000000000000000000000000000000000000000000000000000000000000000000000000000000000000000000000000000000000000000000000000000000000000000000000000000000000000000000000000000000000000000000000000000000000000000000000000000000000000000000000000000000000000000000000000000000000000000000000000000000000000000000000000000000000000000000000000000000000000000000000000000000000000000000000000000000000000000000000000000000000000000000000000000000000000000 ?
#875
18
#880
08
#885
18
#890
08
#895
18
#900
08
#905
18
#910
08
19
#915
18
#920
08
1:
b011 <
b00000100 >
b00000000000000000000000000000000000000000000000000000000000000000000000000000000000000000000000000000000000000000000000000000000000000000000000000000000000000000000000000000000000000000000000000000000000000000000000000000000000000000000000000000000000000000000000000000000000000000000000000000000000000000000000000000000000000000000000000000000000000000000000000000000000000000000000000000000000000000000000000000000000000000000000000000000000000000000000000000000000000000000000001100011011010010110110001000001 ?
1R
b0001 U
#925
b011 "
b00000100 $
b00000000000000000000000000000000000000000000000000000000000000000000000000000000000000000000000000000000000000000000000000000000000000000000000000000000000000000000000000000000000000000000000000000000000000000000000000000000000000000000000000000000000000000000000000000000000000000000000000000000000000000000000000000000000000000000000000000000000000000000000000000000000000000000000000000000000000000000000000000000000000000000000000000000000000000000000000000000000000000000000001100011011010010110110001000001 %
b0001 7
18
0;
1O
b01111110 Q
0R
b0010 U
1V
#930
08
0:
#935
b0010 7
18
b00000011 Q
1S
b00000011 T
b0011 U
#940
08
#945
b1101000110010011 6
b0011 7
18
b00000000 Q
b00000000 T
b0100 U
#950
08
#955
b0100100001011100 6
b0100 7
18
b00000100 Q
b00000100 T
b0101 U
#960
08
#965
b1101010101001000 6
b0101 7
18
b01000001 Q
b01000001 T
#970
08
#975
b00000001 5
b1000101100111101 6
18
b01101100 Q
b01101100 T
#980
08
#985
b00000010 5
b1011000011001001 6
18
b01101001 Q
b01101001 T
#990
08
#995
b00000011 5
b1001001101010100 6
18
b01100011 Q
b01100011 T
b0110 U
#1000
08
#1005
b00000100 5
b1011101100011111 6
b0110 7
18
b10111011 Q
0S
b00000000 T
b0111 U
#1010
08
#1015
b0111 7
18
b00011111 Q
b0000 U
#1020
08
#1025
b0000 7
18
1;
0O
b00000000 Q
0V
#1030
08
1:
b000 <
b00000001 =
b00000010 >
b00000000000000000000000000000000000000000000000000000000000000000000000000000000000000000000000000000000000000000000000000000000000000000000000000000000000000000000000000000000000000000000000000000000000000000000000000000000000000000000000000000000000000000000000000000000000000000000000000000000000000000000000000000000000000000000000000000000000000000000000000000000000000000000000000000000000000000000000000000000000000000000000000000000000000000000000000000000000000000000000000000000000000000110100101101000 ?
1R
b0001 U
#1035
b000 "
b00000001 #
b00000010 $
b00000000000000000000000000000000000000000000000000000000000000000000000000000000000000000000000000000000000000000000000000000000000000000000000000000000000000000000000000000000000000000000000000000000000000000000000000000000000000000000000000000000000000000000000000000000000000000000000000000000000000000000000000000000000000000000000000000000000000000000000000000000000000000000000000000000000000000000000000000000000000000000000000000000000000000000000000000000000000000000000000000000000000000110100101101000 %
b00000000 5
b1111111111111111 6
b0001 7
18
0;
1O
b01111110 Q
0R
b0010 U
1V
#1040
08
0:
#1045
b0010 7
18
b00000000 Q
1S
b0011 U
#1050
08
#1055
b1110000111110000 6
b0011 7
18
b00000001 Q
b00000001 T
b0100 U
#1060
08
#1065
b0000110100101110 6
b0100 7
18
b00000010 Q
b00000010 T
b0101 U
#1070
08
#1075
b1101111111101111 6
b0101 7
18
b01101000 Q
b01101000 T
#1080
08
#1085
b00000001 5
b0011100000111100 6
18
b01101001 Q
b01101001 T
b0110 U
#1090
08
#1095
b00000010 5
b0111011011010100 6
b0110 7
18
b01110110 Q
0S
b00000000 T
b0111 U
#1100
08
#1105
b0111 7
18
b11010100 Q
b0000 U
#1110
08
#1115
b0000 7
18
1;
0O
b00000000 Q
0V
#1120
b00000000 #
b00000000 $
b00000000000000000000000000000000000000000000000000000000000000000000000000000000000000000000000000000000000000000000000000000000000000000000000000000000000000000000000000000000000000000000000000000000000000000000000000000000000000000000000000000000000000000000000000000000000000000000000000000000000000000000000000000000000000000000000000000000000000000000000000000000000000000000000000000000000000000000000000000000000000000000000000000000000000000000000000000000000000000000000000000000000000000000000000000000 %
b00000000 5
b1111111111111111 6
08
09
b00000000 =
b00000000 >
b00000000000000000000000000000000000000000000000000000000000000000000000000000000000000000000000000000000000000000000000000000000000000000000000000000000000000000000000000000000000000000000000000000000000000000000000000000000000000000000000000000000000000000000000000000000000000000000000000000000000000000000000000000000000000000000000000000000000000000000000000000000000000000000000000000000000000000000000000000000000000000000000000000000000000000000000000000000000000000000000000000000000000000000000000000000 ?
#1125
18
#1130
08
#1135
18
#1140
08
#1145
18
#1150
08
#1155
18
#1160
08
19
#1165
18
#1170
08
1:
b00000101 =
b00000100 >
b00000000000000000000000000000000000000000000000000000000000000000000000000000000000000000000000000000000000000000000000000000000000000000000000000000000000000000000000000000000000000000000000000000000000000000000000000000000000000000000000000000000000000000000000000000000000000000000000000000000000000000000000000000000000000000000000000000000000000000000000000000000000000000000000000000000000000000000000000000000000000000000000000000000000000000000000000000000000000000000000011101111101111101010110111011110 ?
1R
b0001 U
#1175
b00000101 #
b00000100 $
b00000000000000000000000000000000000000000000000000000000000000000000000000000000000000000000000000000000000000000000000000000000000000000000000000000000000000000000000000000000000000000000000000000000000000000000000000000000000000000000000000000000000000000000000000000000000000000000000000000000000000000000000000000000000000000000000000000000000000000000000000000000000000000000000000000000000000000000000000000000000000000000000000000000000000000000000000000000000000000000000011101111101111101010110111011110 %
b0001 7
18
0;
1O
b01111110 Q
0R
b0010 U
1V
#1180
08
0:
0P
b0001 U
0V
#1185
18
#1190
08
#1195
18
#1200
08
1P
b0010 U
1V
#1205
b0010 7
18
b00000000 Q
1S
b0011 U
#1210
08
0P
0S
b0010 U
0V
#1215
18
#1220
08
#1225
18
#1230
08
1P
1S
b0011 U
1V
#1235
b1110000111110000 6
b0011 7
18
b00000101 Q
b00000101 T
b0100 U
#1240
08
0P
0S
b00000000 T
b0011 U
0V
#1245
18
#1250
08
#1255
18
#1260
08
1P
1S
b00000101 T
b0100 U
1V
#1265
b0100110110101010 6
b0100 7
18
b00000100 Q
b00000100 T
b0101 U
#1270
08
0P
0S
b00000000 T
b0100 U
0V
#1275
18
#1280
08
#1285
18
#1290
08
1P
1S
b00000100 T
b0101 U
1V
#1295
b0111001111101101 6
b0101 7
18
b11011110 Q
b11011110 T
#1300
08
0P
0S
b00000000 T
0V
#1305
18
#1310
08
#1315
18
#1320
08
1P
1S
b11011110 T
1V
#1325
b00000001 5
b1000100101000111 6
18
b10101101 Q
b10101101 T
#1330
08
0P
0S
b00000000 T
0V
#1335
18
#1340
08
#1345
18
#1350
08
1P
1S
b10101101 T
1V
#1355
b00000010 5
b0010001111100110 6
18
b10111110 Q
b10111110 T
#1360
08
0P
0S
b00000000 T
0V
#1365
18
#1370
08
#1375
18
#1380
08
1P
1S
b10111110 T
1V
#1385
b00000011 5
b1011010000010100 6
18
b11101111 Q
b11101111 T
b0110 U
#1390
08
0P
0S
b00000000 T
b0101 U
0V
#1395
18
#1400
08
#1405
18
#1410
08
1P
1S
b11101111 T
b0110 U
1V
#1415
b00000100 5
b1111111110011110 6
b0110 7
18
b11111111 Q
0S
b00000000 T
b0111 U
#1420
08
0P
b0110 U
0V
#1425
18
#1430
08
#1435
18
#1440
08
1P
b0111 U
1V
#1445
b0111 7
18
b10011110 Q
b0000 U
#1450
08
0P
b0111 U
0V
#1455
18
#1460
08
#1465
18
#1470
08
1P
b0000 U
1V
#1475
b0000 7
18
1;
0O
b00000000 Q
0V
#1480
b00000000 #
b00000000 $
b00000000000000000000000000000000000000000000000000000000000000000000000000000000000000000000000000000000000000000000000000000000000000000000000000000000000000000000000000000000000000000000000000000000000000000000000000000000000000000000000000000000000000000000000000000000000000000000000000000000000000000000000000000000000000000000000000000000000000000000000000000000000000000000000000000000000000000000000000000000000000000000000000000000000000000000000000000000000000000000000000000000000000000000000000000000 %
b00000000 5
b1111111111111111 6
08
09
b00000000 =
b00000000 >
b00000000000000000000000000000000000000000000000000000000000000000000000000000000000000000000000000000000000000000000000000000000000000000000000000000000000000000000000000000000000000000000000000000000000000000000000000000000000000000000000000000000000000000000000000000000000000000000000000000000000000000000000000000000000000000000000000000000000000000000000000000000000000000000000000000000000000000000000000000000000000000000000000000000000000000000000000000000000000000000000000000000000000000000000000000000 ?
#1485
18
#1490
08
#1495
18
#1500
08
#1505
18
#1510
08
#1515
18
#1520
08
19
#1525
18
#1530
08
1:
b00001001 =
b01000000 >
b10011010100110111001100010011001100111101001111110011100100111011001001010010011100100001001000110010110100101111001010010010101100010101000101110001000100010011000111010001111100011001000110110000010100000111000000010000001100001101000011110000100100001011011101010111011101110001011100110111110101111111011110010111101101100101011001110110000101100011011011010110111101101001011010110101010101010111010100010101001101011101010111110101100101011011010001010100011101000001010000110100110101001111010010010100101 ?
1R
b0001 U
#1535
b00001001 #
b01000000 $
b10011010100110111001100010011001100111101001111110011100100111011001001010010011100100001001000110010110100101111001010010010101100010101000101110001000100010011000111010001111100011001000110110000010100000111000000010000001100001101000011110000100100001011011101010111011101110001011100110111110101111111011110010111101101100101011001110110000101100011011011010110111101101001011010110101010101010111010100010101001101011101010111110101100101011011010001010100011101000001010000110100110101001111010010010100101 %
b0001 7
18
0;
1O
b01111110 Q
0R
b0010 U
1V
#1540
08
0:
#1545
b0010 7
18
b00000000 Q
1S
b0011 U
#1550
08
#1555
b1110000111110000 6
b0011 7
18
b00001001 Q
b00001001 T
b0100 U
#1560
08
#1565
b1000110000100110 6
b0100 7
18
b01000000 Q
b01000000 T
b0101 U
#1570
08
#1575
b0011111011000000 6
b0101 7
18
b10100101 Q
b10100101 T
#1580
08
#1585
b00000001 5
b1111001011010010 6
18
b10100100 Q
b10100100 T
#1590
08
#1595
b00000010 5
b1110100000110011 6
18
b10100111 Q
b10100111 T
#1600
08
#1605
b00000011 5
b1000101000101011 6
18
b10100110 Q
b10100110 T
#1610
08
#1615
b00000100 5
b1100111011101110 6
18
b10100001 Q
b10100001 T
#1620
08
#1625
b00000101 5
b0111001101001001 6
18
b10100000 Q
b10100000 T
#1630
08
#1635
b00000110 5
b1011001000011110 6
18
b10100011 Q
b10100011 T
#1640
08
#1645
b00000111 5
b0001110000010000 6
18
b10100010 Q
b10100010 T
#1650
08
#1655
b00001000 5
b0101011000010101 6
18
b10101101 Q
b10101101 T
#1660
08
#1665
b00001001 5
b0100101101110100 6
18
b10101100 Q
b10101100 T
#1670
08
#1675
b00001010 5
b1111100111001001 6
18
b10101111 Q
b10101111 T
#1680
08
#1685
b00001011 5
b1111001100110011 6
18
b10101110 Q
b10101110 T
#1690
08
#1695
b00001100 5
b1011100001011000 6
18
b10101001 Q
b10101001 T
#1700
08
#1705
b00001101 5
b0101101000010000 6
18
b10101000 Q
b10101000 T
#1710
08
#1715
b00001110 5
b1101111101011101 6
18
b10101011 Q
b10101011 T
#1720
08
#1725
b00001111 5
b0110001100010011 6
18
b10101010 Q
b10101010 T
#1730
08
#1735
b00010000 5
b0101101101100101 6
18
b10110101 Q
b10110101 T
#1740
08
#1745
b00010001 5
b0111100111100000 6
18
b10110100 Q
b10110100 T
#1750
08
#1755
b00010010 5
b1110100011100001 6
18
b10110111 Q
b10110111 T
#1760
08
#1765
b00010011 5
b0100101000011010 6
18
b10110110 Q
b10110110 T
#1770
08
#1775
b00010100 5
b0011010010010011 6
18
b10110001 Q
b10110001 T
#1780
08
#1785
b00010101 5
b0101001000101101 6
18
b10110000 Q
b10110000 T
#1790
08
#1795
b00010110 5
b1111000001101100 6
18
b10110011 Q
b10110011 T
#1800
08
#1805
b00010111 5
b0001010010100111 6
18
b10110010 Q
b10110010 T
#1810
08
#1815
b00011000 5
b0111001000101100 6
18
b10111101 Q
b10111101 T
#1820
08
#1825
b00011001 5
b0000010010100011 6
18
b10111100 Q
b10111100 T
#1830
08
#1835
b00011010 5
b1000010111010011 6
18
b10111111 Q
b10111111 T
#1840
08
#1845
b00011011 5
b0100010000011001 6
18
b10111110 Q
b10111110 T
#1850
08
#1855
b00011100 5
b0101011101010101 6
18
b10111001 Q
b10111001 T
#1860
08
#1865
b00011101 5
b0100100111100000 6
18
b10111000 Q
b10111000 T
#1870
08
#1875
b00011110 5
b0001111100111110 6
18
b10111011 Q
b10111011 T
#1880
08
#1885
b00011111 5
b1100101101101110 6
18
b10111010 Q
b10111010 T
#1890
08
#1895
b00100000 5
b0000000010110110 6
18
b10000101 Q
b10000101 T
#1900
08
#1905
b00100001 5
b0111011100101101 6
18
b10000100 Q
b10000100 T
#1910
08
#1915
b00100010 5
b1111001001111100 6
18
b10000111 Q
b10000111 T
#1920
08
#1925
b00100011 5
b0101001000110010 6
18
b10000110 Q
b10000110 T
#1930
08
#1935
b00100100 5
b1011100111111001 6
18
b10000001 Q
b10000001 T
#1940
08
#1945
b00100101 5
b0100111001011011 6
18
b10000000 Q
b10000000 T
#1950
08
#1955
b00100110 5
b0110001110000010 6
18
b10000011 Q
b10000011 T
#1960
08
#1965
b00100111 5
b0111111100101110 6
18
b10000010 Q
b10000010 T
#1970
08
#1975
b00101000 5
b0001000010110010 6
18
b10001101 Q
b10001101 T
#1980
08
#1985
b00101001 5
b1110000000010100 6
18
b10001100 Q
b10001100 T
#1990
08
#1995
b00101010 5
b1011100100101010 6
18
b10001111 Q
b10001111 T
#2000
08
#2005
b00101011 5
b0111110010010101 6
18
b10001110 Q
b10001110 T
#2010
08
#2015
b00101100 5
b0101101001011101 6
18
b10001001 Q
b10001001 T
#2020
08
#2025
b00101101 5
b1010011000011110 6
18
b10001000 Q
b10001000 T
#2030
08
#2035
b00101110 5
b1101101110101100 6
18
b10001011 Q
b10001011 T
#2040
08
#2045
b00101111 5
b1111011011110101 6
18
b10001010 Q
b10001010 T
#2050
08
#2055
b00110000 5
b0100101000011011 6
18
b10010101 Q
b10010101 T
#2060
08
#2065
b00110001 5
b0010000110010010 6
18
b10010100 Q
b10010100 T
#2070
08
#2075
b00110010 5
b0110010101111110 6
18
b10010111 Q
b10010111 T
#2080
08
#2085
b00110011 5
b1011000101011101 6
18
b10010110 Q
b10010110 T
#2090
08
#2095
b00110100 5
b0000100110000101 6
18
b10010001 Q
b10010001 T
#2100
08
#2105
b00110101 5
b1000011110110001 6
18
b10010000 Q
b10010000 T
#2110
08
#2115
b00110110 5
b1101001111010110 6
18
b10010011 Q
b10010011 T
#2120
08
#2125
b00110111 5
b1001111011000100 6
18
b10010010 Q
b10010010 T
#2130
08
#2135
b00111000 5
b0000010110001100 6
18
b10011101 Q
b10011101 T
#2140
08
#2145
b00111001 5
b1000111010110001 6
18
b10011100 Q
b10011100 T
#2150
08
#2155
b00111010 5
b1000001101110011 6
18
b10011111 Q
b10011111 T
#2160
08
#2165
b00111011 5
b1010000010111101 6
18
b10011110 Q
b10011110 T
#2170
08
#2175
b00111100 5
b0110101010011101 6
18
b10011001 Q
b10011001 T
#2180
08
#2185
b00111101 5
b0100001001111100 6
18
b10011000 Q
b10011000 T
#2190
08
#2195
b00111110 5
b0001011000110111 6
18
b10011011 Q
b10011011 T
#2200
08
#2205
b00111111 5
b0111011100100101 6
18
b10011010 Q
b10011010 T
b0110 U
#2210
08
#2215
b01000000 5
b0000100110000011 6
b0110 7
18
b00001001 Q
0S
b00000000 T
b0111 U
#2220
08
#2225
b0111 7
18
b10000011 Q
b0000 U
#2230
08
#2235
b0000 7
18
1;
0O
b00000000 Q
0V
