sim/waves/comm_top.vcd
$version Generated by VerilatedVcd $end
$timescale 1ps $end
 $scope module TOP $end
  $var wire 1 j! clk $end
  $var wire 1 k! rst_n $end
  $var wire 1 l! be_tx_valid $end
  $var wire 1 m! be_tx_ready $end
  $var wire 3 n! be_tx_frame_type [2:0] $end
  $var wire 8 o! be_tx_msg_id [7:0] $end
  $var wire 8 p! be_tx_len [7:0] $end
  $var wire 512 q! be_tx_payload [511:0] $end
  $var wire 1 #" cm_rx_valid $end
  $var wire 1 $" cm_rx_ready $end
  $var wire 3 " cm_rx_frame_type [2:0] $end
  $var wire 8 # cm_rx_seq [7:0] $end
  $var wire 8 $ cm_rx_len [7:0] $end
  $var wire 512 % cm_rx_payload [511:0] $end
  $var wire 1 %" cm_status_valid $end
  $var wire 1 &" cm_status_ready $end
  $var wire 8 5 cm_status_msg_id [7:0] $end
  $var wire 2 '" cm_status_code [1:0] $end
  $var wire 1 6 line_obs $end
  $scope module chat_pkg $end
   $var wire 32 4" MAX_MSG_LEN [31:0] $end
   $var wire 32 4" MAX_MSG_NUM [31:0] $end
   $var wire 32 4" MAX_LINE_LEN [31:0] $end
   $var wire 32 1" MAX_NAME_LEN [31:0] $end
   $var wire 32 ." MSG_ID_WIDTH [31:0] $end
   $var wire 32 ." SEQ_WIDTH [31:0] $end
   $var wire 32 ." LEN_WIDTH [31:0] $end
   $var wire 32 2" RETRY_WIDTH [31:0] $end
   $var wire 32 2" MAX_RETRY [31:0] $end
   $var wire 8 5" SOF_BYTE [7:0] $end
   $var wire 32 1" CRC_WIDTH [31:0] $end
   $var wire 16 6" CRC16_POLY [15:0] $end
   $var wire 16 7" CRC16_INIT [15:0] $end
   $var wire 32 8" CLK_FREQ_HZ_DEFAULT [31:0] $end
   $var wire 32 9" UART_BAUD_DEFAULT [31:0] $end
  $upscope $end
  $scope module comm_top_lb $end
   $var wire 32 *" CLK_FREQ_HZ [31:0] $end
   $var wire 32 +" BAUD [31:0] $end
   $var wire 32 ," TIMEOUT_CYCLES [31:0] $end
   $var wire 1 j! clk $end
   $var wire 1 k! rst_n $end
   $var wire 1 l! be_tx_valid $end
   $var wire 1 m! be_tx_ready $end
   $var wire 3 n! be_tx_frame_type [2:0] $end
   $var wire 8 o! be_tx_msg_id [7:0] $end
   $var wire 8 p! be_tx_len [7:0] $end
   $var wire 512 q! be_tx_payload [511:0] $end
   $var wire 1 #" cm_rx_valid $end
   $var wire 1 $" cm_rx_ready $end
   $var wire 3 " cm_rx_frame_type [2:0] $end
   $var wire 8 # cm_rx_seq [7:0] $end
   $var wire 8 $ cm_rx_len [7:0] $end
   $var wire 512 % cm_rx_payload [511:0] $end
   $var wire 1 %" cm_status_valid $end
   $var wire 1 &" cm_status_ready $end
   $var wire 8 5 cm_status_msg_id [7:0] $end
   $var wire 2 '" cm_status_code [1:0] $end
   $var wire 1 6 line_obs $end
   $var wire 1 6 line $end
   $scope module u_comm $end
    $var wire 32 *" CLK_FREQ_HZ [31:0] $end
    $var wire 32 +" BAUD [31:0] $end
    $var wire 32 ," TIMEOUT_CYCLES [31:0] $end
    $var wire 1 j! clk $end
    $var wire 1 k! rst_n $end
    $var wire 1 6 uart_rxd $end
    $var wire 1 6 uart_txd $end
    $var wire 1 l! be_tx_valid $end
    $var wire 1 m! be_tx_ready $end
    $var wire 3 n! be_tx_frame_type [2:0] $end
    $var wire 8 o! be_tx_msg_id [7:0] $end
    $var wire 8 p! be_tx_len [7:0] $end
    $var wire 512 q! be_tx_payload [511:0] $end
    $var wire 1 #" cm_rx_valid $end
    $var wire 1 $" cm_rx_ready $end
    $var wire 3 " cm_rx_frame_type [2:0] $end
    $var wire 8 # cm_rx_seq [7:0] $end
    $var wire 8 $ cm_rx_len [7:0] $end
    $var wire 512 % cm_rx_payload [511:0] $end
    $var wire 1 %" cm_status_valid $end
    $var wire 1 &" cm_status_ready $end
    $var wire 8 5 cm_status_msg_id [7:0] $end
    $var wire 2 '" cm_status_code [1:0] $end
    $var wire 1 7 rx_byte_valid $end
    $var wire 8 8 rx_byte_data [7:0] $end
    $var wire 1 9 rx_frame_error $end
    $var wire 1 : dec_frame_valid $end
    $var wire 1 ; dec_frame_ready $end
    $var wire 3 < dec_frame_type [2:0] $end
    $var wire 8 = dec_frame_seq [7:0] $end
    $var wire 8 > dec_frame_len [7:0] $end
    $var wire 512 ? dec_frame_payload [511:0] $end
    $var wire 1 O dec_drop_pulse $end
    $var wire 1 P ack_q_in_valid $end
    $var wire 1 Q ack_q_in_ready $end
    $var wire 8 # ack_q_in_seq [7:0] $end
    $var wire 1 R tx_ack_valid $end
    $var wire 8 = tx_ack_seq [7:0] $end
    $var wire 1 S ack_q_out_valid $end
    $var wire 1 T ack_q_out_ready $end
    $var wire 8 U ack_q_out_seq [7:0] $end
    $var wire 1 V tx_req_valid $end
    $var wire 1 W tx_req_ready $end
    $var wire 3 X tx_req_type [2:0] $end
    $var wire 8 Y tx_req_seq [7:0] $end
    $var wire 8 Z tx_req_len [7:0] $end
    $var wire 512 [ tx_req_payload [511:0] $end
    $var wire 1 k enc_valid $end
    $var wire 1 l enc_ready $end
    $var wire 3 m enc_type [2:0] $end
    $var wire 8 n enc_seq [7:0] $end
    $var wire 8 o enc_len [7:0] $end
    $var wire 512 p enc_payload [511:0] $end
    $var wire 1 "! tx_byte_valid $end
    $var wire 1 #! tx_byte_ready $end
    $var wire 8 $! tx_byte_data [7:0] $end
    $scope module u_ack_q $end
     $var wire 32 -" DEPTH [31:0] $end
     $var wire 1 j! clk $end
     $var wire 1 k! rst_n $end
     $var wire 1 P in_valid $end
     $var wire 1 Q in_ready $end
     $var wire 8 # in_seq [7:0] $end
     $var wire 1 S out_valid $end
     $var wire 1 T out_ready $end
     $var wire 8 U out_seq [7:0] $end
     $scope module u_fifo $end
      $var wire 32 ." WIDTH [31:0] $end
      $var wire 32 -" DEPTH [31:0] $end
      $var wire 1 j! clk $end
      $var wire 1 k! rst_n $end
      $var wire 1 P in_valid $end
      $var wire 1 Q in_ready $end
      $var wire 8 # in_data [7:0] $end
      $var wire 1 S out_valid $end
      $var wire 1 T out_ready $end
      $var wire 8 U out_data [7:0] $end
      $var wire 32 /" IDX_W [31:0] $end
      $var wire 8 %! mem[0] [7:0] $end
      $var wire 8 &! mem[1] [7:0] $end
      $var wire 2 '! wr_ptr_q [1:0] $end
      $var wire 2 (! rd_ptr_q [1:0] $end
      $var wire 1 )! empty $end
      $var wire 1 *! full $end
      $var wire 1 T do_rd $end
      $var wire 1 +! do_wr $end
     $upscope $end
    $upscope $end
    $scope module u_arb $end
     $var wire 1 S ack_q_valid $end
     $var wire 1 T ack_q_ready $end
     $var wire 8 U ack_q_seq [7:0] $end
     $var wire 1 V tx_req_valid $end
     $var wire 1 W tx_req_ready $end
     $var wire 3 X tx_req_type [2:0] $end
     $var wire 8 Y tx_req_seq [7:0] $end
     $var wire 8 Z tx_req_len [7:0] $end
     $var wire 512 [ tx_req_payload [511:0] $end
     $var wire 1 k enc_valid $end
     $var wire 1 l enc_ready $end
     $var wire 3 m enc_type [2:0] $end
     $var wire 8 n enc_seq [7:0] $end
     $var wire 8 o enc_len [7:0] $end
     $var wire 512 p enc_payload [511:0] $end
     $var wire 1 S ack_wins $end
    $upscope $end
    $scope module u_dec $end
     $var wire 1 j! clk $end
     $var wire 1 k! rst_n $end
     $var wire 1 7 byte_in_valid $end
     $var wire 8 8 byte_in_data [7:0] $end
     $var wire 1 : frame_out_valid $end
     $var wire 1 ; frame_out_ready $end
     $var wire 3 < frame_out_type [2:0] $end
     $var wire 8 = frame_out_seq [7:0] $end
     $var wire 8 > frame_out_len [7:0] $end
     $var wire 512 ? frame_out_payload [511:0] $end
     $var wire 1 O drop_pulse $end
     $var wire 4 ,! state_q [3:0] $end
     $var wire 4 -! state_d [3:0] $end
     $var wire 3 < type_q [2:0] $end
     $var wire 8 = seq_q [7:0] $end
     $var wire 8 > len_q [7:0] $end
     $var wire 8 .! pld_idx_q [7:0] $end
     $var wire 512 ? payload_q [511:0] $end
     $var wire 8 /! rx_crc_hi_q [7:0] $end
     $var wire 1 0! crc_init $end
     $var wire 1 1! crc_en $end
     $var wire 8 8 crc_byte_in [7:0] $end
     $var wire 16 2! crc_state [15:0] $end
     $var wire 1 3! crc_match_now $end
     $var wire 1 4! drop_d $end
     $scope module u_crc $end
      $var wire 1 j! clk $end
      $var wire 1 k! rst_n $end
      $var wire 1 0! init $end
      $var wire 1 1! en $end
      $var wire 8 8 byte_in [7:0] $end
      $var wire 16 2! crc_out [15:0] $end
      $var wire 16 2! crc_q [15:0] $end
     $upscope $end
    $upscope $end
    $scope module u_enc $end
     $var wire 1 j! clk $end
     $var wire 1 k! rst_n $end
     $var wire 1 k frame_in_valid $end
     $var wire 1 l frame_in_ready $end
     $var wire 3 m frame_in_type [2:0] $end
     $var wire 8 n frame_in_seq [7:0] $end
     $var wire 8 o frame_in_len [7:0] $end
     $var wire 512 p frame_in_payload [511:0] $end
     $var wire 1 "! byte_out_valid $end
     $var wire 1 #! byte_out_ready $end
     $var wire 8 $! byte_out_data [7:0] $end
     $var wire 3 5! type_q [2:0] $end
     $var wire 8 6! seq_q [7:0] $end
     $var wire 8 7! len_q [7:0] $end
     $var wire 512 8! payload_q [511:0] $end
     $var wire 8 H! pld_idx_q [7:0] $end
     $var wire 1 I! crc_init $end
     $var wire 1 J! crc_en $end
     $var wire 8 K! crc_byte_in [7:0] $end
     $var wire 16 L! crc_state [15:0] $end
     $var wire 4 M! state_q [3:0] $end
     $var wire 4 N! state_d [3:0] $end
     $var wire 1 O! accept_byte $end
     $scope module u_crc $end
      $var wire 1 j! clk $end
      $var wire 1 k! rst_n $end
      $var wire 1 I! init $end
      $var wire 1 J! en $end
      $var wire 8 K! byte_in [7:0] $end
      $var wire 16 L! crc_out [15:0] $end
      $var wire 16 L! crc_q [15:0] $end
     $upscope $end
    $upscope $end
    $scope module u_rx_fsm $end
     $var wire 1 j! clk $end
     $var wire 1 k! rst_n $end
     $var wire 1 : frame_in_valid $end
     $var wire 1 ; frame_in_ready $end
     $var wire 3 < frame_in_type [2:0] $end
     $var wire 8 = frame_in_seq [7:0] $end
     $var wire 8 > frame_in_len [7:0] $end
     $var wire 512 ? frame_in_payload [511:0] $end
     $var wire 1 #" cm_rx_valid $end
     $var wire 1 $" cm_rx_ready $end
     $var wire 3 " cm_rx_frame_type [2:0] $end
     $var wire 8 # cm_rx_seq [7:0] $end
     $var wire 8 $ cm_rx_len [7:0] $end
     $var wire 512 % cm_rx_payload [511:0] $end
     $var wire 1 P ack_q_valid $end
     $var wire 1 Q ack_q_ready $end
     $var wire 8 # ack_q_seq [7:0] $end
     $var wire 1 R tx_ack_valid $end
     $var wire 8 = tx_ack_seq [7:0] $end
     $var wire 2 P! state_q [1:0] $end
     $var wire 2 (" state_d [1:0] $end
     $var wire 3 " type_q [2:0] $end
     $var wire 8 # seq_q [7:0] $end
     $var wire 8 $ len_q [7:0] $end
     $var wire 512 % payload_q [511:0] $end
     $var wire 8 Q! expected_rx_seq_q [7:0] $end
     $var wire 1 R! dup_q $end
     $var wire 1 S! frame_is_ack $end
     $var wire 1 T! frame_is_data $end
     $var wire 1 U! frame_is_control $end
     $var wire 1 V! accept_frame $end
     $var wire 1 W! incoming_dup $end
    $upscope $end
    $scope module u_tx_fsm $end
     $var wire 32 ," TIMEOUT_CYCLES [31:0] $end
     $var wire 1 j! clk $end
     $var wire 1 k! rst_n $end
     $var wire 1 l! be_tx_valid $end
     $var wire 1 m! be_tx_ready $end
     $var wire 3 n! be_tx_frame_type [2:0] $end
     $var wire 8 o! be_tx_msg_id [7:0] $end
     $var wire 8 p! be_tx_len [7:0] $end
     $var wire 512 q! be_tx_payload [511:0] $end
     $var wire 1 V frame_req_valid $end
     $var wire 1 W frame_req_ready $end
     $var wire 3 X frame_req_type [2:0] $end
     $var wire 8 Y frame_req_seq [7:0] $end
     $var wire 8 Z frame_req_len [7:0] $end
     $var wire 512 [ frame_req_payload [511:0] $end
     $var wire 1 R ack_valid $end
     $var wire 8 = ack_seq [7:0] $end
     $var wire 1 %" cm_status_valid $end
     $var wire 1 &" cm_status_ready $end
     $var wire 8 5 cm_status_msg_id [7:0] $end
     $var wire 2 '" cm_status_code [1:0] $end
     $var wire 32 0" TIMEOUT_W [31:0] $end
     $var wire 3 X! state_q [2:0] $end
     $var wire 3 )" state_d [2:0] $end
     $var wire 3 X type_q [2:0] $end
     $var wire 8 5 msg_id_q [7:0] $end
     $var wire 8 Z len_q [7:0] $end
     $var wire 512 [ payload_q [511:0] $end
     $var wire 8 Y! tx_seq_q [7:0] $end
     $var wire 4 Z! retry_q [3:0] $end
     $var wire 13 [! timeout_q [12:0] $end
     $var wire 1 \! timeout_hit $end
     $var wire 1 ]! ack_match $end
     $var wire 1 ^! is_data $end
     $var wire 1 _! max_retries_used $end
    $upscope $end
    $scope module u_uart_rx $end
     $var wire 32 *" CLK_FREQ_HZ [31:0] $end
     $var wire 32 +" BAUD [31:0] $end
     $var wire 1 j! clk $end
     $var wire 1 k! rst_n $end
     $var wire 1 6 rx $end
     $var wire 1 7 byte_valid $end
     $var wire 8 8 byte_data [7:0] $end
     $var wire 1 9 frame_error $end
     $var wire 32 1" BAUD_DIV [31:0] $end
     $var wire 32 ." HALF_DIV [31:0] $end
     $var wire 32 2" CNT_W [31:0] $end
     $var wire 1 `! rx_s $end
     $var wire 2 a! state_q [1:0] $end
     $var wire 4 b! cnt_q [3:0] $end
     $var wire 3 c! bit_idx_q [2:0] $end
     $var wire 8 d! shift_q [7:0] $end
     $scope module u_sync $end
      $var wire 32 -" N_STAGES [31:0] $end
      $var wire 1 3" RST_VAL $end
      $var wire 1 j! clk $end
      $var wire 1 k! rst_n $end
      $var wire 1 6 async_in $end
      $var wire 1 `! sync_out $end
      $var wire 2 e! sync_q [1:0] $end
     $upscope $end
    $upscope $end
    $scope module u_uart_tx $end
     $var wire 32 *" CLK_FREQ_HZ [31:0] $end
     $var wire 32 +" BAUD [31:0] $end
     $var wire 1 j! clk $end
     $var wire 1 k! rst_n $end
     $var wire 1 "! in_valid $end
     $var wire 1 #! in_ready $end
     $var wire 8 $! in_data [7:0] $end
     $var wire 1 6 tx $end
     $var wire 32 1" BAUD_DIV [31:0] $end
     $var wire 32 2" CNT_W [31:0] $end
     $var wire 1 f! state_q [0:0] $end
     $var wire 10 g! packet_q [9:0] $end
     $var wire 4 h! bit_idx_q [3:0] $end
     $var wire 4 i! cnt_q [3:0] $end
     $var wire 1 6 tx_q $end
    $upscope $end
   $upscope $end
  $upscope $end
 $upscope $end
$enddefinitions $end


#0
b000 "
b00000000 #
b00000000 $
b00000000000000000000000000000000000000000000000000000000000000000000000000000000000000000000000000000000000000000000000000000000000000000000000000000000000000000000000000000000000000000000000000000000000000000000000000000000000000000000000000000000000000000000000000000000000000000000000000000000000000000000000000000000000000000000000000000000000000000000000000000000000000000000000000000000000000000000000000000000000000000000000000000000000000000000000000000000000000000000000000000000000000000000000000000000 %
b00000000 5
06
07
b00000000 8
09
0:
1;
b000 <
b00000000 =
b00000000 >
b00000000000000000000000000000000000000000000000000000000000000000000000000000000000000000000000000000000000000000000000000000000000000000000000000000000000000000000000000000000000000000000000000000000000000000000000000000000000000000000000000000000000000000000000000000000000000000000000000000000000000000000000000000000000000000000000000000000000000000000000000000000000000000000000000000000000000000000000000000000000000000000000000000000000000000000000000000000000000000000000000000000000000000000000000000000 ?
0O
0P
1Q
0R
0S
0T
b00000000 U
0V
1W
b000 X
b00000000 Y
b00000000 Z
b00000000000000000000000000000000000000000000000000000000000000000000000000000000000000000000000000000000000000000000000000000000000000000000000000000000000000000000000000000000000000000000000000000000000000000000000000000000000000000000000000000000000000000000000000000000000000000000000000000000000000000000000000000000000000000000000000000000000000000000000000000000000000000000000000000000000000000000000000000000000000000000000000000000000000000000000000000000000000000000000000000000000000000000000000000000 [
0k
1l
b000 m
b00000000 n
b00000000 o
b00000000000000000000000000000000000000000000000000000000000000000000000000000000000000000000000000000000000000000000000000000000000000000000000000000000000000000000000000000000000000000000000000000000000000000000000000000000000000000000000000000000000000000000000000000000000000000000000000000000000000000000000000000000000000000000000000000000000000000000000000000000000000000000000000000000000000000000000000000000000000000000000000000000000000000000000000000000000000000000000000000000000000000000000000000000 p
0"!
1#!
b00000000 $!
b00000000 %!
b00000000 &!
b00 '!
b00 (!
1)!
0*!
0+!
b0000 ,!
b0000 -!
b00000000 .!
b00000000 /!
00!
01!
b0000000000000000 2!
13!
04!
b000 5!
b00000000 6!
b00000000 7!
b00000000000000000000000000000000000000000000000000000000000000000000000000000000000000000000000000000000000000000000000000000000000000000000000000000000000000000000000000000000000000000000000000000000000000000000000000000000000000000000000000000000000000000000000000000000000000000000000000000000000000000000000000000000000000000000000000000000000000000000000000000000000000000000000000000000000000000000000000000000000000000000000000000000000000000000000000000000000000000000000000000000000000000000000000000000 8!
b00000000 H!
0I!
0J!
b00000000 K!
b0000000000000000 L!
b0000 M!
b0000 N!
0O!
b00 P!
b00000000 Q!
0R!
0S!
1T!
0U!
0V!
0W!
b000 X!
b00000000 Y!
b0000 Z!
b0000000000000 [!
0\!
0]!
1^!
0_!
0`!
b00 a!
b0000 b!
b000 c!
b00000000 d!
b00 e!
0f!
b0000000000 g!
b0000 h!
b0000 i!
0j!
0k!
0l!
1m!
b000 n!
b00000000 o!
b00000000 p!
b00000000000000000000000000000000000000000000000000000000000000000000000000000000000000000000000000000000000000000000000000000000000000000000000000000000000000000000000000000000000000000000000000000000000000000000000000000000000000000000000000000000000000000000000000000000000000000000000000000000000000000000000000000000000000000000000000000000000000000000000000000000000000000000000000000000000000000000000000000000000000000000000000000000000000000000000000000000000000000000000000000000000000000000000000000000 q!
0#"
1$"
0%"
1&"
b01 '"
b00 ("
b000 )"
b00000000000000000000000010100000 *"
b00000000000000000000000000001010 +"
b00000000000000000001111101000000 ,"
b00000000000000000000000000000010 -"
b00000000000000000000000000001000 ."
b00000000000000000000000000000001 /"
b00000000000000000000000000001101 0"
b00000000000000000000000000010000 1"
b00000000000000000000000000000100 2"
13"
b00000000000000000000000001000000 4"
b01111110 5"
b0001000000100001 6"
b1111111111111111 7"
b00000101111101011110000100000000 8"
b00000000000000011100001000000000 9"
#5
16
b1111111111111111 2!
03!
b1111111111111111 L!
1`!
b11 e!
b1111111111 g!
1j!
#10
0j!
#15
1j!
#20
0j!
#25
1j!
#30
0j!
#35
1j!
#40
0j!
1k!
#45
1j!
#50
0j!
#55
1j!
#60
0j!
#65
1j!
#70
0j!
#75
1j!
#80
0j!
#85
1j!
#90
0j!
#95
1j!
#100
0j!
#105
1j!
#110
0j!
#115
1j!
#120
0j!
#125
1j!
#130
0j!
#135
1j!
#140
0j!
#145
1j!
#150
0j!
#155
1j!
#160
0j!
#165
1j!
#170
0j!
#175
1j!
#180
0j!
#185
1j!
#190
0j!
#195
1j!
#200
0j!
1l!
b01000010 o!
b00000011 p!
b00000000000000000000000000000000000000000000000000000000000000000000000000000000000000000000000000000000000000000000000000000000000000000000000000000000000000000000000000000000000000000000000000000000000000000000000000000000000000000000000000000000000000000000000000000000000000000000000000000000000000000000000000000000000000000000000000000000000000000000000000000000000000000000000000000000000000000000000000000000000000000000000000000000000000000000000000000000000000000000000000000000001000010110100101101000 q!
b001 )"
#205
b01000010 5
1V
b00000011 Z
b00000000000000000000000000000000000000000000000000000000000000000000000000000000000000000000000000000000000000000000000000000000000000000000000000000000000000000000000000000000000000000000000000000000000000000000000000000000000000000000000000000000000000000000000000000000000000000000000000000000000000000000000000000000000000000000000000000000000000000000000000000000000000000000000000000000000000000000000000000000000000000000000000000000000000000000000000000000000000000000000000000000001000010110100101101000 [
1k
b00000011 o
b00000000000000000000000000000000000000000000000000000000000000000000000000000000000000000000000000000000000000000000000000000000000000000000000000000000000000000000000000000000000000000000000000000000000000000000000000000000000000000000000000000000000000000000000000000000000000000000000000000000000000000000000000000000000000000000000000000000000000000000000000000000000000000000000000000000000000000000000000000000000000000000000000000000000000000000000000000000000000000000000000000000001000010110100101101000 p
1I!
b0001 N!
b001 X!
1j!
0m!
b010 )"
#210
0j!
0l!
#215
0V
0W
0k
0l
1"!
b01111110 $!
b00000011 7!
b00000000000000000000000000000000000000000000000000000000000000000000000000000000000000000000000000000000000000000000000000000000000000000000000000000000000000000000000000000000000000000000000000000000000000000000000000000000000000000000000000000000000000000000000000000000000000000000000000000000000000000000000000000000000000000000000000000000000000000000000000000000000000000000000000000000000000000000000000000000000000000000000000000000000000000000000000000000000000000000000000000000001000010110100101101000 8!
0I!
b0001 M!
b0010 N!
1O!
b010 X!
1j!
#220
0j!
#225
06
0#!
b00000000 $!
b0010 M!
0O!
b0000000000001 [!
1f!
b1011111100 g!
1j!
#230
0j!
#235
b0000000000010 [!
b10 e!
b0001 i!
1j!
#240
0j!
#245
b0000000000011 [!
0`!
b00 e!
b0010 i!
1j!
#250
0j!
#255
b0000000000100 [!
b01 a!
b0011 i!
1j!
#260
0j!
#265
b0000000000101 [!
b0001 b!
b0100 i!
1j!
#270
0j!
#275
b0000000000110 [!
b0010 b!
b0101 i!
1j!
#280
0j!
#285
b0000000000111 [!
b0011 b!
b0110 i!
1j!
#290
0j!
#295
b0000000001000 [!
b0100 b!
b0111 i!
1j!
#300
0j!
#305
b0000000001001 [!
b0101 b!
b1000 i!
1j!
#310
0j!
#315
b0000000001010 [!
b0110 b!
b1001 i!
1j!
#320
0j!
#325
b0000000001011 [!
b0111 b!
b1010 i!
1j!
#330
0j!
#335
b0000000001100 [!
b10 a!
b0000 b!
b1011 i!
1j!
#340
0j!
#345
b0000000001101 [!
b0001 b!
b1100 i!
1j!
#350
0j!
#355
b0000000001110 [!
b0010 b!
b1101 i!
1j!
#360
0j!
#365
b0000000001111 [!
b0011 b!
b1110 i!
1j!
#370
0j!
#375
b0000000010000 [!
b0100 b!
b1111 i!
1j!
#380
0j!
#385
b0000000010001 [!
b0101 b!
b0001 h!
b0000 i!
1j!
#390
0j!
#395
b0000000010010 [!
b0110 b!
b0001 i!
1j!
#400
0j!
#405
b0000000010011 [!
b0111 b!
b0010 i!
1j!
#410
0j!
#415
b0000000010100 [!
b1000 b!
b0011 i!
1j!
#420
0j!
#425
b0000000010101 [!
b1001 b!
b0100 i!
1j!
#430
0j!
#435
b0000000010110 [!
b1010 b!
b0101 i!
1j!
#440
0j!
#445
b0000000010111 [!
b1011 b!
b0110 i!
1j!
#450
0j!
#455
b0000000011000 [!
b1100 b!
b0111 i!
1j!
#460
0j!
#465
b0000000011001 [!
b1101 b!
b1000 i!
1j!
#470
0j!
#475
b0000000011010 [!
b1110 b!
b1001 i!
1j!
#480
0j!
#485
b0000000011011 [!
b1111 b!
b1010 i!
1j!
#490
0j!
#495
b0000000011100 [!
b0000 b!
b001 c!
b1011 i!
1j!
#500
0j!
#505
b0000000011101 [!
b0001 b!
b1100 i!
1j!
#510
0j!
#515
b0000000011110 [!
b0010 b!
b1101 i!
1j!
#520
0j!
#525
b0000000011111 [!
b0011 b!
b1110 i!
1j!
#530
0j!
#535
b0000000100000 [!
b0100 b!
b1111 i!
1j!
#540
0j!
#545
16
b0000000100001 [!
b0101 b!
b0010 h!
b0000 i!
1j!
#550
0j!
#555
b0000000100010 [!
b0110 b!
b01 e!
b0001 i!
1j!
#560
0j!
#565
b0000000100011 [!
1`!
b0111 b!
b11 e!
b0010 i!
1j!
#570
0j!
#575
b0000000100100 [!
b1000 b!
b0011 i!
1j!
#580
0j!
#585
b0000000100101 [!
b1001 b!
b0100 i!
1j!
#590
0j!
#595
b0000000100110 [!
b1010 b!
b0101 i!
1j!
#600
0j!
#605
b0000000100111 [!
b1011 b!
b0110 i!
1j!
#610
0j!
#615
b0000000101000 [!
b1100 b!
b0111 i!
1j!
#620
0j!
#625
b0000000101001 [!
b1101 b!
b1000 i!
1j!
#630
0j!
#635
b0000000101010 [!
b1110 b!
b1001 i!
1j!
#640
0j!
#645
b0000000101011 [!
b1111 b!
b1010 i!
1j!
#650
0j!
#655
b0000000101100 [!
b0000 b!
b010 c!
b10000000 d!
b1011 i!
1j!
#660
0j!
#665
b0000000101101 [!
b0001 b!
b1100 i!
1j!
#670
0j!
#675
b0000000101110 [!
b0010 b!
b1101 i!
1j!
#680
0j!
#685
b0000000101111 [!
b0011 b!
b1110 i!
1j!
#690
0j!
#695
b0000000110000 [!
b0100 b!
b1111 i!
1j!
#700
0j!
#705
b0000000110001 [!
b0101 b!
b0011 h!
b0000 i!
1j!
#710
0j!
#715
b0000000110010 [!
b0110 b!
b0001 i!
1j!
#720
0j!
#725
b0000000110011 [!
b0111 b!
b0010 i!
1j!
#730
0j!
#735
b0000000110100 [!
b1000 b!
b0011 i!
1j!
#740
0j!
#745
b0000000110101 [!
b1001 b!
b0100 i!
1j!
#750
0j!
#755
b0000000110110 [!
b1010 b!
b0101 i!
1j!
#760
0j!
#765
b0000000110111 [!
b1011 b!
b0110 i!
1j!
#770
0j!
#775
b0000000111000 [!
b1100 b!
b0111 i!
1j!
#780
0j!
#785
b0000000111001 [!
b1101 b!
b1000 i!
1j!
#790
0j!
#795
b0000000111010 [!
b1110 b!
b1001 i!
1j!
#800
0j!
#805
b0000000111011 [!
b1111 b!
b1010 i!
1j!
#810
0j!
#815
b0000000111100 [!
b0000 b!
b011 c!
b11000000 d!
b1011 i!
1j!
#820
0j!
#825
b0000000111101 [!
b0001 b!
b1100 i!
1j!
#830
0j!
#835
b0000000111110 [!
b0010 b!
b1101 i!
1j!
#840
0j!
#845
b0000000111111 [!
b0011 b!
b1110 i!
1j!
#850
0j!
#855
b0000001000000 [!
b0100 b!
b1111 i!
1j!
#860
0j!
#865
b0000001000001 [!
b0101 b!
b0100 h!
b0000 i!
1j!
#870
0j!
#875
b0000001000010 [!
b0110 b!
b0001 i!
1j!
#880
0j!
#885
b0000001000011 [!
b0111 b!
b0010 i!
1j!
#890
0j!
#895
b0000001000100 [!
b1000 b!
b0011 i!
1j!
#900
0j!
#905
b0000001000101 [!
b1001 b!
b0100 i!
1j!
#910
0j!
#915
b0000001000110 [!
b1010 b!
b0101 i!
1j!
#920
0j!
#925
b0000001000111 [!
b1011 b!
b0110 i!
1j!
#930
0j!
#935
b0000001001000 [!
b1100 b!
b0111 i!
1j!
#940
0j!
#945
b0000001001001 [!
b1101 b!
b1000 i!
1j!
#950
0j!
#955
b0000001001010 [!
b1110 b!
b1001 i!
1j!
#960
0j!
#965
b0000001001011 [!
b1111 b!
b1010 i!
1j!
#970
0j!
#975
b0000001001100 [!
b0000 b!
b100 c!
b11100000 d!
b1011 i!
1j!
#980
0j!
#985
b0000001001101 [!
b0001 b!
b1100 i!
1j!
#990
0j!
#995
b0000001001110 [!
b0010 b!
b1101 i!
1j!
#1000
0j!
#1005
b0000001001111 [!
b0011 b!
b1110 i!
1j!
#1010
0j!
#1015
b0000001010000 [!
b0100 b!
b1111 i!
1j!
#1020
0j!
#1025
b0000001010001 [!
b0101 b!
b0101 h!
b0000 i!
1j!
#1030
0j!
#1035
b0000001010010 [!
b0110 b!
b0001 i!
1j!
#1040
0j!
#1045
b0000001010011 [!
b0111 b!
b0010 i!
1j!
#1050
0j!
#1055
b0000001010100 [!
b1000 b!
b0011 i!
1j!
#1060
0j!
#1065
b0000001010101 [!
b1001 b!
b0100 i!
1j!
#1070
0j!
#1075
b0000001010110 [!
b1010 b!
b0101 i!
1j!
#1080
0j!
#1085
b0000001010111 [!
b1011 b!
b0110 i!
1j!
#1090
0j!
#1095
b0000001011000 [!
b1100 b!
b0111 i!
1j!
#1100
0j!
#1105
b0000001011001 [!
b1101 b!
b1000 i!
1j!
#1110
0j!
#1115
b0000001011010 [!
b1110 b!
b1001 i!
1j!
#1120
0j!
#1125
b0000001011011 [!
b1111 b!
b1010 i!
1j!
#1130
0j!
#1135
b0000001011100 [!
b0000 b!
b101 c!
b11110000 d!
b1011 i!
1j!
#1140
0j!
#1145
b0000001011101 [!
b0001 b!
b1100 i!
1j!
#1150
0j!
#1155
b0000001011110 [!
b0010 b!
b1101 i!
1j!
#1160
0j!
#1165
b0000001011111 [!
b0011 b!
b1110 i!
1j!
#1170
0j!
#1175
b0000001100000 [!
b0100 b!
b1111 i!
1j!
#1180
0j!
#1185
b0000001100001 [!
b0101 b!
b0110 h!
b0000 i!
1j!
#1190
0j!
#1195
b0000001100010 [!
b0110 b!
b0001 i!
1j!
#1200
0j!
#1205
b0000001100011 [!
b0111 b!
b0010 i!
1j!
#1210
0j!
#1215
b0000001100100 [!
b1000 b!
b0011 i!
1j!
#1220
0j!
#1225
b0000001100101 [!
b1001 b!
b0100 i!
1j!
#1230
0j!
#1235
b0000001100110 [!
b1010 b!
b0101 i!
1j!
#1240
0j!
#1245
b0000001100111 [!
b1011 b!
b0110 i!
1j!
#1250
0j!
#1255
b0000001101000 [!
b1100 b!
b0111 i!
1j!
#1260
0j!
#1265
b0000001101001 [!
b1101 b!
b1000 i!
1j!
#1270
0j!
#1275
b0000001101010 [!
b1110 b!
b1001 i!
1j!
#1280
0j!
#1285
b0000001101011 [!
b1111 b!
b1010 i!
1j!
#1290
0j!
#1295
b0000001101100 [!
b0000 b!
b110 c!
b11111000 d!
b1011 i!
1j!
#1300
0j!
#1305
b0000001101101 [!
b0001 b!
b1100 i!
1j!
#1310
0j!
#1315
b0000001101110 [!
b0010 b!
b1101 i!
1j!
#1320
0j!
#1325
b0000001101111 [!
b0011 b!
b1110 i!
1j!
#1330
0j!
#1335
b0000001110000 [!
b0100 b!
b1111 i!
1j!
#1340
0j!
#1345
b0000001110001 [!
b0101 b!
b0111 h!
b0000 i!
1j!
#1350
0j!
#1355
b0000001110010 [!
b0110 b!
b0001 i!
1j!
