sim/waves/crc16.vcd
$version Generated by VerilatedVcd $end
$timescale 1ps $end
 $scope module TOP $end
  $var wire 1 " clk $end
  $var wire 1 # rst_n $end
  $var wire 1 $ init $end
  $var wire 1 % en $end
  $var wire 8 & byte_in [7:0] $end
  $var wire 16 ' crc_out [15:0] $end
  $scope module chat_pkg $end
   $var wire 32 ( MAX_MSG_LEN [31:0] $end
   $var wire 32 ( MAX_MSG_NUM [31:0] $end
   $var wire 32 ( MAX_LINE_LEN [31:0] $end
   $var wire 32 ) MAX_NAME_LEN [31:0] $end
   $var wire 32 * MSG_ID_WIDTH [31:0] $end
   $var wire 32 * SEQ_WIDTH [31:0] $end
   $var wire 32 * LEN_WIDTH [31:0] $end
   $var wire 32 + RETRY_WIDTH [31:0] $end
   $var wire 32 + MAX_RETRY [31:0] $end
   $var wire 8 , SOF_BYTE [7:0] $end
   $var wire 32 ) CRC_WIDTH [31:0] $end
   $var wire 16 - CRC16_POLY [15:0] $end
   $var wire 16 . CRC16_INIT [15:0] $end
   $var wire 32 / CLK_FREQ_HZ_DEFAULT [31:0] $end
   $var wire 32 0 UART_BAUD_DEFAULT [31:0] $end
  $upscope $end
  $scope module crc16 $end
   $var wire 1 " clk $end
   $var wire 1 # rst_n $end
   $var wire 1 $ init $end
   $var wire 1 % en $end
   $var wire 8 & byte_in [7:0] $end
   $var wire 16 ' crc_out [15:0] $end
   $var wire 16 ' crc_q [15:0] $end
  $upscope $end
 $upscope $end
$enddefinitions $end


#0
0"
0#
0$
0%
b00000000 &
b0000000000000000 '
b00000000000000000000000001000000 (
b00000000000000000000000000010000 )
b00000000000000000000000000001000 *
b00000000000000000000000000000100 +
b01111110 ,
b0001000000100001 -
b1111111111111111 .
b00000101111101011110000100000000 /
b00000000000000011100001000000000 0
#5
1"
b1111111111111111 '
#10
0"
#15
1"
#20
0"
#25
1"
#30
0"
#35
1"
#40
0"
1#
#45
1"
#50
0"
0#
#55
1"
#60
0"
#65
1"
#70
0"
#75
1"
#80
0"
#85
1"
#90
0"
1#
#95
1"
#100
0"
1%
b01100001 &
#105
1"
b1001110101110111 '
#110
0"
b01100010 &
#115
1"
b0110100111110000 '
#120
0"
b01100011 &
#125
1"
b0101000101001010 '
#130
0"
1$
0%
b00000000 &
#135
1"
b1111111111111111 '
#140
0"
0#
0$
#145
1"
#150
0"
#155
1"
#160
0"
#165
1"
#170
0"
#175
1"
#180
0"
1#
#185
1"
#190
0"
1%
b00110001 &
#195
1"
b1100011110000010 '
#200
0"
b00110010 &
#205
1"
b0011110110111010 '
#210
0"
b00110011 &
#215
1"
b0101101111001110 '
#220
0"
b00110100 &
#225
1"
b0101001101001001 '
#230
0"
b00110101 &
#235
1"
b0100010101100000 '
#240
0"
b00110110 &
#245
1"
b0010111011110100 '
#250
0"
b00110111 &
#255
1"
b0111011100011000 '
#260
0"
b00111000 &
#265
1"
b1010000100101011 '
#270
0"
b00111001 &
#275
1"
b0010100110110001 '
#280
0"
0#
0%
b00000000 &
b1111111111111111 '
#285
1"
#290
0"
#295
1"
#300
0"
#305
1"
#310
0"
#315
1"
#320
0"
1#
#325
1"
#330
0"
1%
b11000100 &
#335
1"
b0111100000111000 '
#340
0"
b01100010 &
#345
1"
b1000101101111011 '
#350
0"
b00111011 &
#355
1"
b1101110011011011 '
#360
0"
b00001101 &
#365
1"
b0000000001011100 '
#370
0"
b10111011 &
#375
1"
b0100101010110000 '
#380
0"
b01110111 &
#385
1"
b0101011111111110 '
#390
0"
b00011111 &
#395
1"
b0011011111001100 '
#400
0"
b10111111 &
#405
1"
b1101110010000000 '
#410
0"
b11000011 &
#415
1"
b0110001111011110 '
#420
0"
b00111010 &
#425
1"
b0001010111011100 '
#430
0"
b11111101 &
#435
1"
b1010000000100110 '
#440
0"
b00111010 &
#445
1"
b0000010011110011 '
#450
0"
b11001010 &
#455
1"
b1100101110000010 '
#460
0"
b10100010 &
#465
1"
b0111111110001111 '
#470
0"
b00110111 &
#475
1"
b0100011011001100 '
#480
0"
b00000011 &
#485
1"
b1101010001100001 '
#490
0"
b10000101 &
#495
1"
b0010101111010100 '
#500
0"
b11001011 &
#505
1"
b0010100100101110 '
#510
0"
b01001000 &
#515
1"
b0101001010000111 '
#520
0"
b10100110 &
#525
1"
b0010100010011011 '
#530
0"
b00100001 &
#535
1"
b0000101000101001 '
#540
0"
b11110110 &
#545
1"
b0000011110010011 '
#550
0"
b11011100 &
#555
1"
b1110100100010110 '
#560
0"
b10110010 &
#565
1"
b1111110110011110 '
#570
0"
b10100110 &
#575
1"
b0111010110011110 '
#580
0"
b11111101 &
#585
1"
b1000111010000000 '
#590
0"
b10010110 &
#595
1"
b0001001100111001 '
#600
0"
b00101010 &
#605
1"
b1001111001111010 '
#610
0"
b00110101 &
#615
1"
b0111111010000001 '
#620
0"
b01101100 &
#625
1"
b1011001101110011 '
#630
0"
b11011111 &
#635
1"
b1101111000101010 '
#640
0"
b10100001 &
#645
1"
b1010010101111000 '
#650
0"
b10011101 &
#655
1"
b1100111101011011 '
#660
0"
b10010000 &
#665
1"
b1111000000011010 '
#670
0"
0#
0%
b00000000 &
b1111111111111111 '
#675
1"
#680
0"
#685
1"
#690
0"
#695
1"
#700
0"
#705
1"
#710
0"
1#
#715
1"
#720
0"
1%
b00101010 &
#725
1"
b0110010011011000 '
#730
0"
b10110010 &
#735
1"
b0111001110111011 '
#740
0"
b01110100 &
#745
1"
b1100101111100111 '
#750
0"
b10101101 &
#755
1"
b1110101101100000 '
#760
0"
b11101100 &
#765
1"
b0001000011100111 '
#770
0"
b01110110 &
#775
1"
b1110101101100000 '
#780
0"
b00111101 &
#785
1"
b1100101110111011 '
#790
0"
b01101110 &
#795
1"
b0101111001001111 '
#800
0"
b00000100 &
#805
1"
b1011010010111111 '
#810
0"
b11011011 &
#815
1"
b0010001001001001 '
#820
0"
b01111101 &
#825
1"
b1110001000011010 '
#830
0"
b11111000 &
#835
1"
b1010100101111011 '
#840
0"
b10101110 &
#845
1"
b0000101111100111 '
#850
0"
b11101110 &
#855
1"
b0100101010001011 '
#860
0"
b10100101 &
#865
1"
b1000011111000001 '
#870
0"
b00000111 &
#875
1"
b0101000010001000 '
#880
0"
b10000101 &
#885
1"
b0001001111011000 '
#890
0"
b11001110 &
#895
1"
b1100001011010000 '
#900
0"
b10000000 &
#905
1"
b1011100010000110 '
#910
0"
b11100010 &
#915
1"
b0111110110111111 '
#920
0"
b01100100 &
#925
1"
b0011110000011000 '
#930
0"
b01100001 &
#935
1"
b1001001101011000 '
#940
0"
b00011010 &
#945
1"
b0101100010100001 '
#950
0"
b01100110 &
#955
1"
b0111011010011101 '
#960
0"
b01101111 &
#965
1"
b0001111000011000 '
#970
0"
b00101000 &
#975
1"
b0100111010010101 '
#980
0"
b00111010 &
#985
1"
b1010101100010011 '
#990
0"
b00110110 &
#995
1"
b0100000100010100 '
#1000
0"
b11000010 &
#1005
1"
b1011010111101011 '
#1010
0"
b11101100 &
#1015
1"
b0010000011011100 '
#1020
0"
b00001100 &
#1025
1"
b0011100111101110 '
#1030
0"
b00101101 &
#1035
1"
b1011110010110101 '
#1040
0"
b10000110 &
#1045
1"
b0010001000011001 '
#1050
0"
b01010010 &
#1055
1"
b0110011110010111 '
#1060
0"
b11100011 &
#1065
1"
b0100011000001100 '
#1070
0"
b11110110 &
#1075
1"
b1010101111011011 '
#1080
0"
b00110000 &
#1085
1"
b1110100111010010 '
#1090
0"
b01010010 &
#1095
1"
b1100010010110000 '
#1100
0"
b01101011 &
#1105
1"
b1111010000000101 '
#1110
0"
b10110110 &
#1115
1"
b0110110110000110 '
#1120
0"
b10001111 &
#1125
1"
b0101101101101100 '
#1130
0"
b11010000 &
#1135
1"
b0100110011100011 '
#1140
0"
b00111001 &
#1145
1"
b1100110100110010 '
#1150
0"
b01010000 &
#1155
1"
b0110000000010100 '
#1160
0"
b10110001 &
#1165
1"
b1100111101011100 '
#1170
0"
b10100100 &
#1175
1"
b1000000111001101 '
#1180
0"
0#
0%
b00000000 &
b1111111111111111 '
#1185
1"
#1190
0"
#1195
1"
#1200
0"
#1205
1"
#1210
0"
#1215
1"
#1220
0"
1#
#1225
1"
#1230
0"
1%
b10101100 &
#1235
1"
b1001010110010110 '
#1240
0"
b11000001 &
#1245
1"
b1000110001110001 '
#1250
0"
b11111111 &
#1255
1"
b0011111111110100 '
#1260
0"
b00110111 &
#1265
1"
b0111010100001000 '
#1270
0"
b01000000 &
#1275
1"
b0110111011110110 '
#1280
0"
b00111101 &
#1285
1"
b1001110010010110 '
#1290
0"
b01010010 &
#1295
1"
b1010111010000010 '
#1300
0"
b01100100 &
#1305
1"
b1111101000000110 '
#1310
0"
b11101110 &
#1315
1"
b0101010010110101 '
#1320
0"
b01000010 &
#1325
1"
b1100011111110111 '
#1330
0"
b00011111 &
#1335
1"
b1011110101110101 '
#1340
0"
b10000000 &
#1345
1"
b1001001011111110 '
#1350
0"
b00011011 &
#1355
1"
b1111111010100001 '
#1360
0"
b11001100 &
#1365
1"
b1011011100010001 '
#1370
0"
b11111110 &
#1375
1"
b1100100011101101 '
#1380
0"
b01010000 &
#1385
1"
b1110111110110001 '
#1390
0"
b01011001 &
#1395
1"
b0111011000011101 '
#1400
0"
b11100100 &
#1405
1"
b1011111011111011 '
#1410
0"
b11100110 &
#1415
1"
b0010000011111101 '
#1420
0"
b10110110 &
#1425
1"
b0001111001111111 '
#1430
0"
b00110100 &
#1435
1"
b1111101000101000 '
#1440
0"
b10101000 &
#1445
1"
b0101001010110111 '
#1450
0"
b01111110 &
#1455
1"
b0101001011101110 '
#1460
0"
b00100010 &
#1465
1"
b1001000010010111 '
#1470
0"
b10111101 &
#1475
1"
b0110001011001111 '
#1480
0"
b00100111 &
#1485
1"
b1101011101100001 '
#1490
0"
b10011000 &
#1495
1"
b1101100000101011 '
#1500
0"
b11101011 &
#1505
1"
b0010110100110000 '
#1510
0"
b01010001 &
#1515
1"
b1000111100011011 '
#1520
0"
b00100011 &
#1525
1"
b0110111101100110 '
#1530
0"
b11110101 &
#1535
1"
b0100010011110011 '
#1540
0"
b01100110 &
#1545
1"
b1111011100100000 '
#1550
0"
b10100001 &
#1555
1"
b0001101000110011 '
#1560
0"
b00011000 &
#1565
1"
b0001001101000010 '
#1570
0"
b01011000 &
#1575
1"
b1011101110101111 '
#1580
0"
b11011101 &
#1585
1"
b1010001101100000 '
#1590
0"
b01001111 &
#1595
1"
b0101110010100010 '
#1600
0"
b10101111 &
#1605
1"
b0111110101111100 '
#1610
0"
b00001111 &
#1615
1"
b0010001011010101 '
#1620
0"
b11001100 &
#1625
1"
b1100100111100000 '
#1630
0"
b11101101 &
#1635
1"
b1000010011100110 '
#1640
0"
b01101000 &
#1645
1"
b1101101010100010 '
#1650
0"
b10001100 &
#1655
1"
b1001100000110011 '
#1660
0"
b10011100 &
#1665
1"
b0111001110000100 '
#1670
0"
b11011010 &
#1675
1"
b1010000011000011 '
#1680
0"
b10111100 &
#1685
1"
b0001000010111101 '
#1690
0"
b10010001 &
#1695
1"
b0011110010101001 '
#1700
0"
0#
0%
b00000000 &
b1111111111111111 '
#1705
1"
#1710
0"
#1715
1"
#1720
0"
#1725
1"
#1730
0"
#1735
1"
#1740
0"
1#
#1745
1"
#1750
0"
1%
b10001011 &
#1755
1"
b1100000100010011 '
#1760
0"
b10000101 &
#1765
1"
b0001101101000000 '
#1770
0"
b01110100 &
#1775
1"
b1101110101001001 '
#1780
0"
b10010000 &
#1785
1"
b1101000001101001 '
#1790
0"
b11100100 &
#1795
1"
b0001111111010111 '
#1800
0"
b00000010 &
#1805
1"
b0001010010011100 '
#1810
0"
b00010110 &
#1815
1"
b1011110001000010 '
#1820
0"
b11110010 &
#1825
1"
b1110101100001010 '
#1830
0"
b01000001 &
#1835
1"
b0001111010100000 '
#1840
0"
b10111111 &
#1845
1"
b0000010111001011 '
#1850
0"
b10000011 &
#1855
1"
b0011101001001110 '
#1860
0"
b00111010 &
#1865
1"
b0100111000000000 '
#1870
0"
b10100111 &
#1875
1"
b0110110000000111 '
#1880
0"
b00101010 &
#1885
1"
b0010111100000010 '
#1890
0"
b00001111 &
#1895
1"
b0010011001100010 '
#1900
0"
b01111100 &
#1905
1"
b1001100110111111 '
#1910
0"
b01101101 &
#1915
1"
b0001000010011011 '
#1920
0"
b11100111 &
#1925
1"
b0000010011111000 '
#1930
0"
b01100000 &
#1935
1"
b1101010000100010 '
#1940
0"
b11000101 &
#1945
1"
b0010000000010000 '
#1950
0"
b10111111 &
#1955
1"
b0110001001010110 '
#1960
0"
b00110010 &
#1965
1"
b0000110011110101 '
#1970
0"
b11010010 &
#1975
1"
b1101111110110011 '
#1980
0"
b01101001 &
#1985
1"
b0111010000011101 '
#1990
0"
b11010010 &
#1995
1"
b1100100000101100 '
#2000
0"
b00101101 &
#2005
1"
b1000000110001011 '
#2010
0"
b01110010 &
#2015
1"
b0101010001111100 '
#2020
0"
#2025
1"
b0011100010100100 '
#2030
0"
b00110011 &
#2035
1"
b0001010101101011 '
#2040
0"
b01011011 &
#2045
1"
b1100001000001010 '
#2050
0"
b01000000 &
#2055
1"
b1011101111001010 '
#2060
0"
b01000100 &
#2065
1"
b1101010011110000 '
#2070
0"
b11111010 &
#2075
1"
b0011010110101100 '
#2080
0"
b01001111 &
#2085
1"
b0111001111011101 '
#2090
0"
b10000100 &
#2095
1"
b0100001011111000 '
#2100
0"
b11110111 &
#2105
1"
b0000111101111110 '
#2110
0"
b00101001 &
#2115
1"
b0011101010100100 '
#2120
0"
b11111011 &
#2125
1"
b0110110101101101 '
#2130
0"
b01011111 &
#2135
1"
b0111101100010001 '
#2140
0"
b00000101 &
#2145
1"
b1000111001011001 '
#2150
0"
b10001001 &
#2155
1"
b0010100111100111 '
#2160
0"
b00101100 &
#2165
1"
b1011011110100101 '
#2170
0"
0#
0%
b00000000 &
b1111111111111111 '
#2175
1"
#2180
0"
#2185
1"
#2190
0"
#2195
1"
#2200
0"
#2205
1"
#2210
0"
1#
#2215
1"
#2220
0"
1%
b10010011 &
#2225
1"
b0101001000101010 '
#2230
0"
b01111000 &
#2235
1"
b1010111100101000 '
#2240
0"
b01100001 &
#2245
1"
b0001000010000010 '
#2250
0"
b00000010 &
#2255
1"
b1011000001110011 '
#2260
0"
b10100110 &
#2265
1"
b0000000111110111 '
#2270
0"
b01110010 &
#2275
1"
b1011100111110100 '
#2280
0"
b11001110 &
#2285
1"
b1111101001110000 '
#2290
0"
b01010011 &
#2295
1"
b0101010011000011 '
#2300
0"
b11011010 &
#2305
1"
b1011001101000110 '
#2310
0"
b01011111 &
#2315
1"
b0111101010100010 '
#2320
0"
b00101001 &
#2325
1"
b1100100010010110 '
#2330
0"
b01101001 &
#2335
1"
b0011001111001011 '
#2340
0"
b00001111 &
#2345
1"
b0011110011011111 '
#2350
0"
b00100101 &
#2355
1"
b0101110000011000 '
#2360
0"
b11000101 &
#2365
1"
b0000101010010000 '
#2370
0"
b11100001 &
#2375
1"
b1101110001000101 '
#2380
0"
b10000010 &
#2385
1"
b1111111000111011 '
#2390
0"
b00010010 &
#2395
1"
b0000011110100010 '
#2400
0"
b11100110 &
#2405
1"
b0100111100001111 '
#2410
0"
b01100100 &
#2415
1"
b1001101000001001 '
#2420
0"
#2425
1"
b0000011111010001 '
#2430
0"
b11010010 &
#2435
1"
b0100101011011000 '
#2440
0"
b00100010 &
#2445
1"
b0011010110101110 '
#2450
0"
b00101010 &
#2455
1"
b0100110111011110 '
#2460
0"
b10111111 &
#2465
1"
b0001000101011101 '
#2470
0"
b11111100 &
#2475
1"
b0111000110000011 '
#2480
0"
b11100010 &
#2485
1"
b0011000011011010 '
#2490
0"
b00001011 &
#2495
1"
b0101110100111000 '
#2500
0"
b00111001 &
#2505
1"
b0001010000100010 '
#2510
0"
b10100000 &
#2515
1"
b1100010101011111 '
#2520
0"
b00110001 &
#2525
1"
b1111000010011011 '
#2530
0"
0#
0%
b00000000 &
b1111111111111111 '
#2535
1"
#2540
0"
#2545
1"
#2550
0"
#2555
1"
#2560
0"
#2565
1"
#2570
0"
1#
#2575
1"
#2580
0"
1%
b11010010 &
#2585
1"
b0000101011001111 '
#2590
0"
b00110000 &
#2595
1"
b0101100000011001 '
#2600
0"
b01111010 &
#2605
1"
b0001110100100000 '
#2610
0"
b00101011 &
#2615
1"
b0111011010010101 '
#2620
0"
b10010000 &
#2625
1"
b0000100011101000 '
#2630
0"
b10100101 &
#2635
1"
b1000110001000111 '
#2640
0"
b01101010 &
#2645
1"
b1101101011101000 '
#2650
0"
b00001101 &
#2655
1"
b0101001110011010 '
#2660
0"
b11110110 &
#2665
1"
b0111111101001111 '
#2670
0"
b11111111 &
#2675
1"
b1101111010001000 '
#2680
0"
b00001010 &
#2685
1"
b0000001111111001 '
#2690
0"
b01001000 &
#2695
1"
b0000000010101111 '
#2700
0"
b01001001 &
#2705
1"
b0111011011101101 '
#2710
0"
b01111001 &
#2715
1"
b0001110011101111 '
#2720
0"
b11111000 &
#2725
1"
b0101001010101010 '
#2730
0"
b10101011 &
#2735
1"
b1101010000110110 '
#2740
0"
b00100110 &
#2745
1"
b1111100101011101 '
#2750
0"
b11100001 &
#2755
1"
b1100111000111001 '
#2760
0"
b01000010 &
#2765
1"
b0110100100000100 '
#2770
0"
b00010010 &
#2775
1"
b1100101111111100 '
#2780
0"
b00001000 &
#2785
1"
b0001010100101111 '
#2790
0"
b01010100 &
#2795
1"
b0111011111100101 '
#2800
0"
b00101011 &
#2805
1"
b0111111001111001 '
#2810
0"
b10110001 &
#2815
1"
b0101000110100011 '
#2820
0"
b11001101 &
#2825
1"
b1110000100110101 '
#2830
0"
b00000110 &
#2835
1"
b1011100011001001 '
#2840
0"
b10010001 &
#2845
1"
b0111110001001011 '
#2850
0"
b11101111 &
#2855
1"
b1111100011011010 '
#2860
0"
b11111011 &
#2865
1"
b1110101001100011 '
#2870
0"
b10110110 &
#2875
1"
b1111100001111001 '
#2880
0"
b00101101 &
#2885
1"
b1110001011011000 '
#2890
0"
b00000000 &
#2895
1"
b0000010101101100 '
#2900
0"
b00100010 &
#2905
1"
b0011100010000101 '
#2910
0"
b11010000 &
#2915
1"
b1111100100100110 '
#2920
0"
b10101111 &
#2925
1"
b0001110000110011 '
#2930
0"
b10100000 &
#2935
1"
b0101010101010111 '
#2940
0"
b10010100 &
#2945
1"
b1001111001101101 '
#2950
0"
b10111001 &
#2955
1"
b0011100110000101 '
#2960
0"
b00001111 &
#2965
1"
b1101001110010101 '
#2970
0"
b11011101 &
#2975
1"
b0111010011001110 '
#2980
0"
b00000101 &
#2985
1"
b1010000010110110 '
#2990
0"
b00111111 &
#2995
1"
b1100010001010110 '
#3000
0"
b11011100 &
#3005
1"
b1100010100111001 '
#3010
0"
b01010110 &
#3015
1"
b1000101011011010 '
#3020
0"
b00000110 &
#3025
1"
b1000101000000100 '
#3030
0"
b00111011 &
#3035
1"
b1011001111111010 '
#3040
0"
b01111111 &
#3045
1"
b1110001011000000 '
#3050
0"
b11101011 &
#3055
1"
b0101000100101001 '
#3060
0"
b10010100 &
#3065
1"
b1010000011101001 '
#3070
0"
b11101011 &
#3075
1"
b0001000010101111 '
#3080
0"
0#
0%
b00000000 &
b1111111111111111 '
#3085
1"
#3090
0"
#3095
1"
#3100
0"
#3105
1"
#3110
0"
#3115
1"
#3120
0"
1#
#3125
1"
#3130
0"
1%
b00010011 &
#3135
1"
b1100001110100010 '
#3140
0"
b01111001 &
#3145
1"
b1010010010010001 '
#3150
0"
b10111101 &
#3155
1"
b0001001000011000 '
#3160
0"
b01100011 &
#3165
1"
b0111011010110110 '
#3170
0"
b00111000 &
#3175
1"
b0001111100001010 '
#3180
0"
b10110100 &
#3185
1"
b0000111010000001 '
#3190
0"
b00010000 &
#3195
1"
b0111001011111111 '
#3200
0"
b00001010 &
#3205
1"
b0000000010011111 '
#3210
0"
b10000110 &
#3215
1"
b0110111001001110 '
#3220
0"
b01111001 &
#3225
1"
b0010110011010110 '
#3230
0"
b00011011 &
#3235
1"
b1001000010110100 '
#3240
0"
b00010011 &
#3245
1"
b0001010111101011 '
#3250
0"
b00100110 &
#3255
1"
b1110110100110000 '
#3260
0"
b01100101 &
#3265
1"
b0010000010000000 '
#3270
0"
b11100010 &
#3275
1"
b0111100100001110 '
#3280
0"
b10100011 &
#3285
1"
b0110010000110111 '
#3290
0"
b01111001 &
#3295
1"
b1111010010011100 '
#3300
0"
b00110010 &
#3305
1"
b0010010110001010 '
#3310
0"
b00111011 &
#3315
1"
b0111100111111111 '
#3320
0"
b01000001 &
#3325
1"
b0100100001011011 '
#3330
0"
b01011011 &
#3335
1"
b0111100101010010 '
#3340
0"
b00100011 &
#3345
1"
b1010100110111111 '
#3350
0"
b11111100 &
#3355
1"
b1011010101010000 '
#3360
0"
b01001110 &
#3365
1"
b0000111001110100 '
#3370
0"
b11101011 &
#3375
1"
b1101100110001011 '
#3380
0"
b10101110 &
#3385
1"
b1000010101110000 '
#3390
0"
b11111011 &
#3395
1"
b1110111101011001 '
#3400
0"
b11101101 &
#3405
1"
b0111100101000010 '
#3410
0"
b01010101 &
#3415
1"
b1010011111101110 '
#3420
0"
b10000100 &
#3425
1"
b1111101000000001 '
#3430
0"
b11101000 &
#3435
1"
b0011001101110011 '
#3440
0"
b11110001 &
#3445
1"
b1000101000001110 '
#3450
0"
0#
0%
b00000000 &
b1111111111111111 '
#3455
1"
#3460
0"
#3465
1"
#3470
0"
#3475
1"
#3480
0"
#3485
1"
#3490
0"
1#
#3495
1"
#3500
0"
1%
b11010100 &
#3505
1"
b0110101000001001 '
#3510
0"
b00001101 &
#3515
1"
b0001010101000001 '
#3520
0"
b01110101 &
#3525
1"
b0010110110100110 '
#3530
0"
b01000111 &
#3535
1"
b0110101111101100 '
#3540
0"
b01111101 &
#3545
1"
b1001111011110111 '
#3550
0"
b01010100 &
#3555
1"
b1000111100000110 '
#3560
0"
b01001110 &
#3565
1"
b1100111101101101 '
#3570
0"
b01111001 &
#3575
1"
b1010101000011101 '
#3580
0"
b11111110 &
#3585
1"
b0000011101110001 '
#3590
0"
b11011011 &
#3595
1"
b0111101111110001 '
#3600
0"
b10100001 &
#3605
1"
b1001101100110111 '
#3610
0"
b10011000 &
#3615
1"
b0000011101100011 '
#3620
0"
b01011000 &
#3625
1"
b1100100000011010 '
#3630
0"
b01101001 &
#3635
1"
b1011111111001011 '
#3640
0"
b01101111 &
#3645
1"
b0000000001111101 '
#3650
0"
b00100101 &
#3655
1"
b0000100111000111 '
#3660
0"
b10110010 &
#3665
1"
b1101000110110000 '
#3670
0"
b01111001 &
#3675
1"
b1000010011100010 '
#3680
0"
b00100101 &
#3685
1"
b0100011111001011 '
#3690
0"
b10100011 &
#3695
1"
b0111011010101010 '
#3700
0"
b10010001 &
#3705
1"
b0010011111001001 '
#3710
0"
b01110010 &
#3715
1"
b1100001101010000 '
#3720
0"
b11110011 &
#3725
1"
b0110011001010011 '
#3730
0"
b01011011 &
#3735
1"
b1011010011111110 '
#3740
0"
b10101110 &
#3745
1"
b0100110101111011 '
#3750
0"
b01110100 &
#3755
1"
b1101110001111010 '
#3760
0"
b10110101 &
#3765
1"
b1000011110001111 '
#3770
0"
b00101100 &
#3775
1"
b1000101110000001 '
#3780
0"
b01101011 &
#3785
1"
b0111110000101110 '
#3790
0"
b11011011 &
#3795
1"
b1110101100001101 '
#3800
0"
b00000111 &
#3805
1"
b0011000110100010 '
#3810
0"
b11101000 &
#3815
1"
b1111100001010100 '
#3820
0"
b01000110 &
#3825
1"
b0001001000010101 '
#3830
0"
0#
0%
b00000000 &
b1111111111111111 '
#3835
1"
#3840
0"
#3845
1"
#3850
0"
#3855
1"
#3860
0"
#3865
1"
#3870
0"
1#
#3875
1"
#3880
0"
1%
b10101010 &
#3885
1"
b1111010101010000 '
#3890
0"
b01010101 &
#3895
1"
b1110010111101010 '
#3900
0"
1$
0%
b00000000 &
#3905
1"
b1111111111111111 '
