sim/waves/io_be_integration.vcd
$version Generated by VerilatedVcd $end
$timescale 1ps $end
 $scope module TOP $end
  $var wire 1 G! clk $end
  $var wire 1 H! rst_n $end
  $var wire 1 I! ps2_clk $end
  $var wire 1 J! ps2_data $end
  $var wire 1 K! be_tx_valid $end
  $var wire 1 L! be_tx_ready $end
  $var wire 3 M! be_tx_frame_type [2:0] $end
  $var wire 8 N! be_tx_msg_id [7:0] $end
  $var wire 8 O! be_tx_len [7:0] $end
  $var wire 512 P! be_tx_payload [511:0] $end
  $var wire 1 `! cm_rx_valid $end
  $var wire 1 a! cm_rx_ready $end
  $var wire 3 b! cm_rx_frame_type [2:0] $end
  $var wire 8 c! cm_rx_seq [7:0] $end
  $var wire 8 d! cm_rx_len [7:0] $end
  $var wire 512 e! cm_rx_payload [511:0] $end
  $var wire 1 u! cm_status_valid $end
  $var wire 1 v! cm_status_ready $end
  $var wire 8 w! cm_status_msg_id [7:0] $end
  $var wire 2 x! cm_status_code [1:0] $end
  $var wire 1 y! be_render_valid $end
  $var wire 1 z! be_render_ready $end
  $var wire 4 {! be_render_cmd [3:0] $end
  $var wire 8 |! be_render_msg_id [7:0] $end
  $var wire 2 }! be_render_side [1:0] $end
  $var wire 2 ~! be_render_status [1:0] $end
  $var wire 8 !" be_render_len [7:0] $end
  $var wire 512 "" be_render_payload [511:0] $end
  $var wire 8 2" be_render_cursor_pos [7:0] $end
  $var wire 8 3" be_render_ascii [7:0] $end
  $var wire 2 4" be_render_conn_state [1:0] $end
  $var wire 8 B be_render_peer_name_len [7:0] $end
  $var wire 128 C be_render_peer_name [127:0] $end
  $var wire 6 5" line_rd_idx [5:0] $end
  $var wire 8 6" line_rd_data [7:0] $end
  $var wire 8 G line_len [7:0] $end
  $var wire 8 H cursor_pos [7:0] $end
  $var wire 1 I enter_committed $end
  $var wire 6 7" store_rd_idx [5:0] $end
  $var wire 1 8" store_rd_valid $end
  $var wire 8 9" store_rd_msg_id [7:0] $end
  $var wire 2 :" store_rd_side [1:0] $end
  $var wire 2 ;" store_rd_status [1:0] $end
  $var wire 8 <" store_rd_len [7:0] $end
  $var wire 512 =" store_rd_payload [511:0] $end
  $var wire 2 4" conn_state_obs [1:0] $end
  $scope module chat_pkg $end
   $var wire 32 q" MAX_MSG_LEN [31:0] $end
   $var wire 32 q" MAX_MSG_NUM [31:0] $end
   $var wire 32 q" MAX_LINE_LEN [31:0] $end
   $var wire 32 n" MAX_NAME_LEN [31:0] $end
   $var wire 32 r" MSG_ID_WIDTH [31:0] $end
   $var wire 32 r" SEQ_WIDTH [31:0] $end
   $var wire 32 r" LEN_WIDTH [31:0] $end
   $var wire 32 X" RETRY_WIDTH [31:0] $end
   $var wire 32 X" MAX_RETRY [31:0] $end
   $var wire 8 s" SOF_BYTE [7:0] $end
   $var wire 32 n" CRC_WIDTH [31:0] $end
   $var wire 16 t" CRC16_POLY [15:0] $end
   $var wire 16 u" CRC16_INIT [15:0] $end
   $var wire 32 v" CLK_FREQ_HZ_DEFAULT [31:0] $end
   $var wire 32 w" UART_BAUD_DEFAULT [31:0] $end
  $upscope $end
  $scope module io_be_integration $end
   $var wire 32 W" LINE_IDX_W [31:0] $end
   $var wire 32 W" STORE_IDX_W [31:0] $end
   $var wire 32 X" MY_NAME_LEN [31:0] $end
   $var wire 128 Y" MY_NAME_PACKED [127:0] $end
   $var wire 1 G! clk $end
   $var wire 1 H! rst_n $end
   $var wire 1 I! ps2_clk $end
   $var wire 1 J! ps2_data $end
   $var wire 1 K! be_tx_valid $end
   $var wire 1 L! be_tx_ready $end
   $var wire 3 M! be_tx_frame_type [2:0] $end
   $var wire 8 N! be_tx_msg_id [7:0] $end
   $var wire 8 O! be_tx_len [7:0] $end
   $var wire 512 P! be_tx_payload [511:0] $end
   $var wire 1 `! cm_rx_valid $end
   $var wire 1 a! cm_rx_ready $end
   $var wire 3 b! cm_rx_frame_type [2:0] $end
   $var wire 8 c! cm_rx_seq [7:0] $end
   $var wire 8 d! cm_rx_len [7:0] $end
   $var wire 512 e! cm_rx_payload [511:0] $end
   $var wire 1 u! cm_status_valid $end
   $var wire 1 v! cm_status_ready $end
   $var wire 8 w! cm_status_msg_id [7:0] $end
   $var wire 2 x! cm_status_code [1:0] $end
   $var wire 1 y! be_render_valid $end
   $var wire 1 z! be_render_ready $end
   $var wire 4 {! be_render_cmd [3:0] $end
   $var wire 8 |! be_render_msg_id [7:0] $end
   $var wire 2 }! be_render_side [1:0] $end
   $var wire 2 ~! be_render_status [1:0] $end
   $var wire 8 !" be_render_len [7:0] $end
   $var wire 512 "" be_render_payload [511:0] $end
   $var wire 8 2" be_render_cursor_pos [7:0] $end
   $var wire 8 3" be_render_ascii [7:0] $end
   $var wire 2 4" be_render_conn_state [1:0] $end
   $var wire 8 B be_render_peer_name_len [7:0] $end
   $var wire 128 C be_render_peer_name [127:0] $end
   $var wire 6 5" line_rd_idx [5:0] $end
   $var wire 8 6" line_rd_data [7:0] $end
   $var wire 8 G line_len [7:0] $end
   $var wire 8 H cursor_pos [7:0] $end
   $var wire 1 I enter_committed $end
   $var wire 6 7" store_rd_idx [5:0] $end
   $var wire 1 8" store_rd_valid $end
   $var wire 8 9" store_rd_msg_id [7:0] $end
   $var wire 2 :" store_rd_side [1:0] $end
   $var wire 2 ;" store_rd_status [1:0] $end
   $var wire 8 <" store_rd_len [7:0] $end
   $var wire 512 =" store_rd_payload [511:0] $end
   $var wire 2 4" conn_state_obs [1:0] $end
   $var wire 1 J io_key_valid $end
   $var wire 1 M" io_key_ready $end
   $var wire 3 K io_key_type [2:0] $end
   $var wire 8 L io_key_ascii [7:0] $end
   $scope module u_be $end
    $var wire 32 W" LINE_IDX_W [31:0] $end
    $var wire 32 W" STORE_IDX_W [31:0] $end
    $var wire 32 X" MY_NAME_LEN [31:0] $end
    $var wire 128 Y" MY_NAME_PACKED [127:0] $end
    $var wire 1 G! clk $end
    $var wire 1 H! rst_n $end
    $var wire 1 J io_key_valid $end
    $var wire 1 M" io_key_ready $end
    $var wire 3 K io_key_type [2:0] $end
    $var wire 8 L io_key_ascii [7:0] $end
    $var wire 1 `! cm_rx_valid $end
    $var wire 1 a! cm_rx_ready $end
    $var wire 3 b! cm_rx_frame_type [2:0] $end
    $var wire 8 c! cm_rx_seq [7:0] $end
    $var wire 8 d! cm_rx_len [7:0] $end
    $var wire 512 e! cm_rx_payload [511:0] $end
    $var wire 1 u! cm_status_valid $end
    $var wire 1 v! cm_status_ready $end
    $var wire 8 w! cm_status_msg_id [7:0] $end
    $var wire 2 x! cm_status_code [1:0] $end
    $var wire 1 K! be_tx_valid $end
    $var wire 1 L! be_tx_ready $end
    $var wire 3 M! be_tx_frame_type [2:0] $end
    $var wire 8 N! be_tx_msg_id [7:0] $end
    $var wire 8 O! be_tx_len [7:0] $end
    $var wire 512 P! be_tx_payload [511:0] $end
    $var wire 1 y! be_render_valid $end
    $var wire 1 z! be_render_ready $end
    $var wire 4 {! be_render_cmd [3:0] $end
    $var wire 8 |! be_render_msg_id [7:0] $end
    $var wire 2 }! be_render_side [1:0] $end
    $var wire 2 ~! be_render_status [1:0] $end
    $var wire 8 !" be_render_len [7:0] $end
    $var wire 512 "" be_render_payload [511:0] $end
    $var wire 8 2" be_render_cursor_pos [7:0] $end
    $var wire 8 3" be_render_ascii [7:0] $end
    $var wire 2 4" be_render_conn_state [1:0] $end
    $var wire 8 B be_render_peer_name_len [7:0] $end
    $var wire 128 C be_render_peer_name [127:0] $end
    $var wire 6 5" line_rd_idx [5:0] $end
    $var wire 8 6" line_rd_data [7:0] $end
    $var wire 8 G line_len [7:0] $end
    $var wire 8 H cursor_pos [7:0] $end
    $var wire 1 I enter_committed $end
    $var wire 6 7" store_rd_idx [5:0] $end
    $var wire 1 8" store_rd_valid $end
    $var wire 8 9" store_rd_msg_id [7:0] $end
    $var wire 2 :" store_rd_side [1:0] $end
    $var wire 2 ;" store_rd_status [1:0] $end
    $var wire 8 <" store_rd_len [7:0] $end
    $var wire 512 =" store_rd_payload [511:0] $end
    $var wire 2 4" conn_state_obs [1:0] $end
    $var wire 5 M state_q [4:0] $end
    $var wire 5 " state_d [4:0] $end
    $var wire 8 G len_q [7:0] $end
    $var wire 8 H cursor_pos_q [7:0] $end
    $var wire 1 I enter_pulse_q $end
    $var wire 8 N last_event_ascii_q [7:0] $end
    $var wire 6 O wr_ptr_q [5:0] $end
    $var wire 8 P next_msg_id_q [7:0] $end
    $var wire 8 Q pending_msg_id_q [7:0] $end
    $var wire 8 R pending_len_q [7:0] $end
    $var wire 8 S rx_seq_q [7:0] $end
    $var wire 8 T rx_len_q [7:0] $end
    $var wire 512 U rx_payload_q [511:0] $end
    $var wire 8 e status_msg_id_q [7:0] $end
    $var wire 2 f status_status_q [1:0] $end
    $var wire 128 C peer_name_q [127:0] $end
    $var wire 8 B peer_name_len_q [7:0] $end
    $var wire 512 g line_buf_packed [511:0] $end
    $var wire 512 ]" my_name_payload [511:0] $end
    $var wire 8 N" rx_len_clamped [7:0] $end
    $var wire 8 O" rx_name_len_clamped [7:0] $end
    $var wire 1 # peer_name_changed $end
    $var wire 1 P" rx_is_data $end
    $var wire 1 Q" rx_is_hello $end
    $var wire 1 R" rx_is_rehello $end
    $var wire 1 S" rx_is_username $end
    $var wire 1 T" rx_is_goodbye $end
    $var wire 1 v! in_chat_idle $end
    $var wire 1 w in_handshake_idle $end
    $var wire 1 x in_disc_idle $end
    $var wire 1 $ accept_io $end
    $var wire 1 % accept_rx $end
    $var wire 1 & accept_status $end
    $var wire 1 ' accept_username_frame $end
    $var wire 1 ( do_store_clear $end
    $var wire 1 ) store_wr_en $end
    $var wire 6 O store_wr_idx [5:0] $end
    $var wire 8 * store_wr_msg_id [7:0] $end
    $var wire 2 + store_wr_side [1:0] $end
    $var wire 2 , store_wr_status [1:0] $end
    $var wire 8 - store_wr_len [7:0] $end
    $var wire 512 . store_wr_payload [511:0] $end
    $var wire 1 > store_lookup_hit $end
    $var wire 6 ? store_lookup_idx [5:0] $end
    $var wire 1 U" store_upd_en $end
    $var wire 6 ? store_upd_idx [5:0] $end
    $var wire 2 V" store_upd_status [1:0] $end
    $scope module u_store $end
     $var wire 32 W" IDX_W [31:0] $end
     $var wire 1 G! clk $end
     $var wire 1 H! rst_n $end
     $var wire 1 ) wr_en $end
     $var wire 6 O wr_idx [5:0] $end
     $var wire 8 * wr_msg_id [7:0] $end
     $var wire 2 + wr_side [1:0] $end
     $var wire 2 , wr_status [1:0] $end
     $var wire 8 - wr_len [7:0] $end
     $var wire 512 . wr_payload [511:0] $end
     $var wire 1 U" upd_en $end
     $var wire 6 ? upd_idx [5:0] $end
     $var wire 2 V" upd_status [1:0] $end
     $var wire 1 ( clear_en $end
     $var wire 6 7" rd_idx [5:0] $end
     $var wire 1 8" rd_valid $end
     $var wire 8 9" rd_msg_id [7:0] $end
     $var wire 2 :" rd_side [1:0] $end
     $var wire 2 ;" rd_status [1:0] $end
     $var wire 8 <" rd_len [7:0] $end
     $var wire 512 =" rd_payload [511:0] $end
     $var wire 8 w! lookup_msg_id [7:0] $end
     $var wire 1 > lookup_hit $end
     $var wire 6 ? lookup_idx [5:0] $end
    $upscope $end
   $upscope $end
   $scope module u_io $end
    $var wire 1 G! clk $end
    $var wire 1 H! rst_n $end
    $var wire 1 I! ps2_clk $end
    $var wire 1 J! ps2_data $end
    $var wire 1 J io_key_valid $end
    $var wire 1 M" io_key_ready $end
    $var wire 3 K io_key_type [2:0] $end
    $var wire 8 L io_key_ascii [7:0] $end
    $var wire 1 y phy_byte_valid $end
    $var wire 8 z phy_byte_data [7:0] $end
    $var wire 1 { dec_ev_valid $end
    $var wire 3 | dec_ev_type [2:0] $end
    $var wire 8 } dec_ev_ascii [7:0] $end
    $scope module u_decoder $end
     $var wire 1 G! clk $end
     $var wire 1 H! rst_n $end
     $var wire 1 y byte_valid $end
     $var wire 8 z byte_data [7:0] $end
     $var wire 1 { ev_valid $end
     $var wire 3 | ev_type [2:0] $end
     $var wire 8 } ev_ascii [7:0] $end
     $var wire 1 ~ shift_held_q $end
     $var wire 1 !! caps_locked_q $end
     $var wire 1 "! seen_e0_q $end
     $var wire 1 #! seen_f0_q $end
     $var wire 1 $! is_letter $end
     $var wire 1 %! effective_shift $end
     $var wire 8 &! decoded_ascii [7:0] $end
    $upscope $end
    $scope module u_fifo $end
     $var wire 32 m" WIDTH [31:0] $end
     $var wire 32 n" DEPTH [31:0] $end
     $var wire 1 G! clk $end
     $var wire 1 H! rst_n $end
     $var wire 1 { in_valid $end
     $var wire 1 @ in_ready $end
     $var wire 11 '! in_data [10:0] $end
     $var wire 1 J out_valid $end
     $var wire 1 M" out_ready $end
     $var wire 11 (! out_data [10:0] $end
     $var wire 32 X" IDX_W [31:0] $end
     $var wire 11 )! mem[0] [10:0] $end
     $var wire 11 *! mem[1] [10:0] $end
     $var wire 11 +! mem[2] [10:0] $end
     $var wire 11 ,! mem[3] [10:0] $end
     $var wire 11 -! mem[4] [10:0] $end
     $var wire 11 .! mem[5] [10:0] $end
     $var wire 11 /! mem[6] [10:0] $end
     $var wire 11 0! mem[7] [10:0] $end
     $var wire 11 1! mem[8] [10:0] $end
     $var wire 11 2! mem[9] [10:0] $end
     $var wire 11 3! mem[10] [10:0] $end
     $var wire 11 4! mem[11] [10:0] $end
     $var wire 11 5! mem[12] [10:0] $end
     $var wire 11 6! mem[13] [10:0] $end
     $var wire 11 7! mem[14] [10:0] $end
     $var wire 11 8! mem[15] [10:0] $end
     $var wire 5 9! wr_ptr_q [4:0] $end
     $var wire 5 :! rd_ptr_q [4:0] $end
     $var wire 1 ;! empty $end
     $var wire 1 <! full $end
     $var wire 1 $ do_rd $end
     $var wire 1 A do_wr $end
    $upscope $end
    $scope module u_phy $end
     $var wire 1 G! clk $end
     $var wire 1 H! rst_n $end
     $var wire 1 I! ps2_clk $end
     $var wire 1 J! ps2_data $end
     $var wire 1 y byte_valid $end
     $var wire 8 z byte_data [7:0] $end
     $var wire 1 =! frame_error $end
     $var wire 1 >! ps2_clk_s $end
     $var wire 1 ?! ps2_data_s $end
     $var wire 1 @! ps2_clk_prev $end
     $var wire 1 A! ps2_clk_fall $end
     $var wire 10 B! shift_q [10:1] $end
     $var wire 4 C! bit_count_q [3:0] $end
     $var wire 11 D! shift_next [10:0] $end
     $scope module u_sync_clk $end
      $var wire 32 o" N_STAGES [31:0] $end
      $var wire 1 p" RST_VAL $end
      $var wire 1 G! clk $end
      $var wire 1 H! rst_n $end
      $var wire 1 I! async_in $end
      $var wire 1 >! sync_out $end
      $var wire 2 E! sync_q [1:0] $end
     $upscope $end
     $scope module u_sync_data $end
      $var wire 32 o" N_STAGES [31:0] $end
      $var wire 1 p" RST_VAL $end
      $var wire 1 G! clk $end
      $var wire 1 H! rst_n $end
      $var wire 1 J! async_in $end
      $var wire 1 ?! sync_out $end
      $var wire 2 F! sync_q [1:0] $end
     $upscope $end
    $upscope $end
   $upscope $end
  $upscope $end
 $upscope $end
$enddefinitions $end


#0
b00001 "
0#
0$
0%
0&
0'
0(
0)
b00000000 *
b00 +
b00 ,
b00000000 -
b00000000000000000000000000000000000000000000000000000000000000000000000000000000000000000000000000000000000000000000000000000000000000000000000000000000000000000000000000000000000000000000000000000000000000000000000000000000000000000000000000000000000000000000000000000000000000000000000000000000000000000000000000000000000000000000000000000000000000000000000000000000000000000000000000000000000000000000000000000000000000000000000000000000000000000000000000000000000000000000000000000000000000000000000000000000 .
0>
b000000 ?
1@
0A
b00000000 B
b00000000000000000000000000000000000000000000000000000000000000000000000000000000000000000000000000000000000000000000000000000000 C
b00000000 G
b00000000 H
0I
0J
b000 K
b00000000 L
b00000 M
b00000000 N
b000000 O
b00000000 P
b00000000 Q
b00000000 R
b00000000 S
b00000000 T
b00000000000000000000000000000000000000000000000000000000000000000000000000000000000000000000000000000000000000000000000000000000000000000000000000000000000000000000000000000000000000000000000000000000000000000000000000000000000000000000000000000000000000000000000000000000000000000000000000000000000000000000000000000000000000000000000000000000000000000000000000000000000000000000000000000000000000000000000000000000000000000000000000000000000000000000000000000000000000000000000000000000000000000000000000000000 U
b00000000 e
b00 f
b00000000000000000000000000000000000000000000000000000000000000000000000000000000000000000000000000000000000000000000000000000000000000000000000000000000000000000000000000000000000000000000000000000000000000000000000000000000000000000000000000000000000000000000000000000000000000000000000000000000000000000000000000000000000000000000000000000000000000000000000000000000000000000000000000000000000000000000000000000000000000000000000000000000000000000000000000000000000000000000000000000000000000000000000000000000 g
0w
0x
0y
b00000000 z
0{
b000 |
b00000000 }
0~
0!!
0"!
0#!
0$!
0%!
b00000000 &!
b00000000000 '!
b00000000000 (!
b00000000000 )!
b00000000000 *!
b00000000000 +!
b00000000000 ,!
b00000000000 -!
b00000000000 .!
b00000000000 /!
b00000000000 0!
b00000000000 1!
b00000000000 2!
b00000000000 3!
b00000000000 4!
b00000000000 5!
b00000000000 6!
b00000000000 7!
b00000000000 8!
b00000 9!
b00000 :!
1;!
0<!
0=!
0>!
0?!
0@!
0A!
b0000000000 B!
b0000 C!
b00000000000 D!
b00 E!
b00 F!
0G!
0H!
1I!
1J!
0K!
1L!
b000 M!
b00000000 N!
b00000000 O!
b00000000000000000000000000000000000000000000000000000000000000000000000000000000000000000000000000000000000000000000000000000000000000000000000000000000000000000000000000000000000000000000000000000000000000000000000000000000000000000000000000000000000000000000000000000000000000000000000000000000000000000000000000000000000000000000000000000000000000000000000000000000000000000000000000000000000000000000000000000000000000000000000000000000000000000000000000000000000000000000000000000000000000000000000000000000 P!
0`!
0a!
b000 b!
b00000000 c!
b00000000 d!
b00000000000000000000000000000000000000000000000000000000000000000000000000000000000000000000000000000000000000000000000000000000000000000000000000000000000000000000000000000000000000000000000000000000000000000000000000000000000000000000000000000000000000000000000000000000000000000000000000000000000000000000000000000000000000000000000000000000000000000000000000000000000000000000000000000000000000000000000000000000000000000000000000000000000000000000000000000000000000000000000000000000000000000000000000000000 e!
0u!
0v!
b00000000 w!
b00 x!
1y!
1z!
b0101 {!
b00000000 |!
b00 }!
b00 ~!
b00000000 !"
b00000000000000000000000000000000000000000000000000000000000000000000000000000000000000000000000000000000000000000000000000000000000000000000000000000000000000000000000000000000000000000000000000000000000000000000000000000000000000000000000000000000000000000000000000000000000000000000000000000000000000000000000000000000000000000000000000000000000000000000000000000000000000000000000000000000000000000000000000000000000000000000000000000000000000000000000000000000000000000000000000000000000000000000000000000000 ""
b00000000 2"
b00000000 3"
b00 4"
b000000 5"
b00000000 6"
b000000 7"
08"
b00000000 9"
b00 :"
b00 ;"
b00000000 <"
b00000000000000000000000000000000000000000000000000000000000000000000000000000000000000000000000000000000000000000000000000000000000000000000000000000000000000000000000000000000000000000000000000000000000000000000000000000000000000000000000000000000000000000000000000000000000000000000000000000000000000000000000000000000000000000000000000000000000000000000000000000000000000000000000000000000000000000000000000000000000000000000000000000000000000000000000000000000000000000000000000000000000000000000000000000000 ="
0M"
b00000000 N"
b00000000 O"
1P"
0Q"
0R"
0S"
0T"
0U"
b01 V"
b00000000000000000000000000000110 W"
b00000000000000000000000000000100 X"
b00000000000000000000000000000000000000000000000000000000000000000000000000000000000000000000000001100011011010010110110001000001 Y"
b00000000000000000000000000000000000000000000000000000000000000000000000000000000000000000000000000000000000000000000000000000000000000000000000000000000000000000000000000000000000000000000000000000000000000000000000000000000000000000000000000000000000000000000000000000000000000000000000000000000000000000000000000000000000000000000000000000000000000000000000000000000000000000000000000000000000000000000000000000000000000000000000000000000000000000000000000000000000000000000000001100011011010010110110001000001 ]"
b00000000000000000000000000001011 m"
b00000000000000000000000000010000 n"
b00000000000000000000000000000010 o"
1p"
b00000000000000000000000001000000 q"
b00000000000000000000000000001000 r"
b01111110 s"
b0001000000100001 t"
b1111111111111111 u"
b00000101111101011110000100000000 v"
b00000000000000011100001000000000 w"
#5
1>!
1?!
1@!
b10000000000 D!
b11 E!
b11 F!
1G!
#10
0G!
#15
1G!
#20
0G!
#25
1G!
#30
0G!
#35
1G!
#40
0G!
1H!
#45
b00010 "
b00001 M
1G!
1K!
b011 M!
b00000100 O!
b00000000000000000000000000000000000000000000000000000000000000000000000000000000000000000000000000000000000000000000000000000000000000000000000000000000000000000000000000000000000000000000000000000000000000000000000000000000000000000000000000000000000000000000000000000000000000000000000000000000000000000000000000000000000000000000000000000000000000000000000000000000000000000000000000000000000000000000000000000000000000000000000000000000000000000000000000000000000000000000000001100011011010010110110001000001 P!
0y!
b0000 {!
#50
0G!
#55
b00010 M
1w
1G!
0K!
b000 M!
b00000000 O!
b00000000000000000000000000000000000000000000000000000000000000000000000000000000000000000000000000000000000000000000000000000000000000000000000000000000000000000000000000000000000000000000000000000000000000000000000000000000000000000000000000000000000000000000000000000000000000000000000000000000000000000000000000000000000000000000000000000000000000000000000000000000000000000000000000000000000000000000000000000000000000000000000000000000000000000000000000000000000000000000000000000000000000000000000000000000 P!
1a!
b01 4"
1M"
#60
0G!
#65
1G!
#70
0G!
#75
1G!
#80
0G!
#85
1G!
#90
0G!
#95
1G!
#100
0G!
#105
1G!
#110
0G!
#115
1G!
#120
0G!
#125
1G!
#130
0G!
#135
1G!
#140
0G!
#145
1G!
#150
0G!
#155
1G!
#160
0G!
#165
1G!
#170
0G!
#175
1G!
#180
0G!
#185
1G!
#190
0G!
#195
1G!
#200
0G!
#205
1G!
#210
0G!
#215
1G!
#220
0G!
#225
1G!
#230
0G!
#235
1G!
#240
0G!
#245
1G!
#250
0G!
#255
1G!
#260
0G!
#265
1G!
#270
0G!
#275
1G!
#280
0G!
#285
1G!
#290
0G!
#295
1G!
#300
0G!
#305
1G!
#310
0G!
#315
1G!
#320
0G!
#325
1G!
#330
0G!
#335
1G!
#340
0G!
#345
1G!
#350
0G!
#355
1G!
#360
0G!
#365
1G!
#370
0G!
#375
1G!
#380
0G!
#385
1G!
#390
0G!
#395
1G!
#400
0G!
#405
1G!
#410
0G!
#415
1G!
#420
0G!
#425
1G!
#430
0G!
#435
1G!
#440
0G!
#445
1G!
#450
0G!
#455
1G!
#460
0G!
#465
1G!
#470
0G!
#475
1G!
#480
0G!
#485
1G!
#490
0G!
#495
1G!
#500
0G!
#505
1G!
#510
0G!
#515
1G!
#520
0G!
#525
1G!
#530
0G!
#535
1G!
#540
b00001 "
b00000 M
0w
0G!
0H!
0a!
1y!
b0101 {!
b00 4"
0M"
#545
1G!
#550
0G!
#555
1G!
#560
0G!
#565
1G!
#570
0G!
#575
1G!
#580
0G!
1H!
#585
b00010 "
b00001 M
1G!
1K!
b011 M!
b00000100 O!
b00000000000000000000000000000000000000000000000000000000000000000000000000000000000000000000000000000000000000000000000000000000000000000000000000000000000000000000000000000000000000000000000000000000000000000000000000000000000000000000000000000000000000000000000000000000000000000000000000000000000000000000000000000000000000000000000000000000000000000000000000000000000000000000000000000000000000000000000000000000000000000000000000000000000000000000000000000000000000000000000001100011011010010110110001000001 P!
0y!
b0000 {!
#590
0G!
#595
b00010 M
1w
1G!
0K!
b000 M!
b00000000 O!
b00000000000000000000000000000000000000000000000000000000000000000000000000000000000000000000000000000000000000000000000000000000000000000000000000000000000000000000000000000000000000000000000000000000000000000000000000000000000000000000000000000000000000000000000000000000000000000000000000000000000000000000000000000000000000000000000000000000000000000000000000000000000000000000000000000000000000000000000000000000000000000000000000000000000000000000000000000000000000000000000000000000000000000000000000000000 P!
1a!
b01 4"
1M"
