sim/waves/io_ps2_phy.vcd
$version Generated by VerilatedVcd $end
$timescale 1ps $end
 $scope module TOP $end
  $var wire 1 + clk $end
  $var wire 1 , rst_n $end
  $var wire 1 - ps2_clk $end
  $var wire 1 . ps2_data $end
  $var wire 1 / byte_valid $end
  $var wire 8 0 byte_data [7:0] $end
  $var wire 1 1 frame_error $end
  $scope module chat_pkg $end
   $var wire 32 4 MAX_MSG_LEN [31:0] $end
   $var wire 32 4 MAX_MSG_NUM [31:0] $end
   $var wire 32 4 MAX_LINE_LEN [31:0] $end
   $var wire 32 5 MAX_NAME_LEN [31:0] $end
   $var wire 32 6 MSG_ID_WIDTH [31:0] $end
   $var wire 32 6 SEQ_WIDTH [31:0] $end
   $var wire 32 6 LEN_WIDTH [31:0] $end
   $var wire 32 7 RETRY_WIDTH [31:0] $end
   $var wire 32 7 MAX_RETRY [31:0] $end
   $var wire 8 8 SOF_BYTE [7:0] $end
   $var wire 32 5 CRC_WIDTH [31:0] $end
   $var wire 16 9 CRC16_POLY [15:0] $end
   $var wire 16 : CRC16_INIT [15:0] $end
   $var wire 32 ; CLK_FREQ_HZ_DEFAULT [31:0] $end
   $var wire 32 < UART_BAUD_DEFAULT [31:0] $end
  $upscope $end
  $scope module io_ps2_phy $end
   $var wire 1 + clk $end
   $var wire 1 , rst_n $end
   $var wire 1 - ps2_clk $end
   $var wire 1 . ps2_data $end
   $var wire 1 / byte_valid $end
   $var wire 8 0 byte_data [7:0] $end
   $var wire 1 1 frame_error $end
   $var wire 1 " ps2_clk_s $end
   $var wire 1 # ps2_data_s $end
   $var wire 1 $ ps2_clk_prev $end
   $var wire 1 % ps2_clk_fall $end
   $var wire 10 & shift_q [10:1] $end
   $var wire 4 ' bit_count_q [3:0] $end
   $var wire 11 ( shift_next [10:0] $end
   $scope module u_sync_clk $end
    $var wire 32 2 N_STAGES [31:0] $end
    $var wire 1 3 RST_VAL $end
    $var wire 1 + clk $end
    $var wire 1 , rst_n $end
    $var wire 1 - async_in $end
    $var wire 1 " sync_out $end
    $var wire 2 ) sync_q [1:0] $end
   $upscope $end
   $scope module u_sync_data $end
    $var wire 32 2 N_STAGES [31:0] $end
    $var wire 1 3 RST_VAL $end
    $var wire 1 + clk $end
    $var wire 1 , rst_n $end
    $var wire 1 . async_in $end
    $var wire 1 # sync_out $end
    $var wire 2 * sync_q [1:0] $end
   $upscope $end
  $upscope $end
 $upscope $end
$enddefinitions $end


#0
0"
0#
0$
0%
b0000000000 &
b0000 '
b00000000000 (
b00 )
b00 *
0+
0,
1-
1.
0/
b00000000 0
01
b00000000000000000000000000000010 2
13
b00000000000000000000000001000000 4
b00000000000000000000000000010000 5
b00000000000000000000000000001000 6
b00000000000000000000000000000100 7
b01111110 8
b0001000000100001 9
b1111111111111111 :
b00000101111101011110000100000000 ;
b00000000000000011100001000000000 <
#5
1"
1#
1$
b10000000000 (
b11 )
b11 *
1+
#10
0+
#15
1+
#20
0+
#25
1+
#30
0+
#35
1+
#40
0+
1,
#45
1+
#50
0+
#55
1+
#60
0+
#65
1+
#70
0+
#75
1+
#80
0+
#85
1+
#90
0+
#95
1+
#100
0+
#105
1+
#110
0+
#115
1+
#120
0+
#125
1+
#130
0+
#135
1+
#140
0+
#145
1+
#150
0+
#155
1+
#160
0+
#165
1+
#170
0+
#175
1+
#180
0+
#185
1+
#190
0+
#195
1+
#200
0+
#205
1+
#210
0+
#215
1+
#220
0+
#225
1+
#230
0+
#235
1+
#240
0+
#245
1+
#250
0+
#255
1+
#260
0+
#265
1+
#270
0+
#275
1+
#280
0+
#285
1+
#290
0+
#295
1+
#300
0+
#305
1+
#310
0+
#315
1+
#320
0+
#325
1+
#330
0+
#335
1+
#340
0+
#345
1+
#350
0+
#355
1+
#360
0+
#365
1+
#370
0+
#375
1+
#380
0+
#385
1+
#390
0+
#395
1+
#400
0+
#405
1+
#410
0+
#415
1+
#420
0+
#425
1+
#430
0+
#435
1+
#440
0+
#445
1+
#450
0+
#455
1+
#460
0+
#465
1+
#470
0+
#475
1+
#480
0+
#485
1+
#490
0+
#495
1+
#500
0+
#505
1+
#510
0+
#515
1+
#520
0+
#525
1+
#530
0+
#535
1+
#540
0+
#545
1+
#550
0+
#555
1+
#560
0+
#565
1+
#570
0+
#575
1+
#580
0+
#585
1+
#590
0+
#595
1+
#600
0+
#605
1+
#610
0+
#615
1+
#620
0+
#625
1+
#630
0+
#635
1+
#640
0+
#645
1+
#650
0+
#655
1+
#660
0+
#665
1+
#670
0+
#675
1+
#680
0+
#685
1+
#690
0+
#695
1+
#700
0+
#705
1+
#710
0+
#715
1+
#720
0+
#725
1+
#730
0+
#735
1+
#740
0+
#745
1+
#750
0+
#755
1+
#760
0+
#765
1+
#770
0+
#775
1+
#780
0+
#785
1+
#790
0+
#795
1+
#800
0+
#805
1+
#810
0+
#815
1+
#820
0+
#825
1+
#830
0+
#835
1+
#840
0+
#845
1+
#850
0+
#855
1+
#860
0+
#865
1+
#870
0+
#875
1+
#880
0+
#885
1+
#890
0+
#895
1+
#900
0+
#905
1+
#910
0+
#915
1+
#920
0+
#925
1+
#930
0+
#935
1+
#940
0+
#945
1+
#950
0+
#955
1+
#960
0+
#965
1+
#970
0+
#975
1+
#980
0+
#985
1+
#990
0+
#995
1+
#1000
0+
#1005
1+
#1010
0+
#1015
1+
#1020
0+
#1025
1+
#1030
0+
#1035
1+
#1040
0+
#1045
1+
#1050
0+
#1055
1+
#1060
0+
#1065
1+
#1070
0+
#1075
1+
#1080
0+
#1085
1+
#1090
0+
#1095
1+
#1100
0+
#1105
1+
#1110
0+
#1115
1+
#1120
0+
#1125
1+
#1130
0+
#1135
1+
#1140
0+
#1145
1+
#1150
0+
#1155
1+
#1160
0+
#1165
1+
#1170
0+
#1175
1+
#1180
0+
#1185
1+
#1190
0+
#1195
1+
#1200
0+
#1205
1+
#1210
0+
#1215
1+
#1220
0+
#1225
1+
#1230
0+
#1235
1+
#1240
0+
#1245
1+
#1250
0+
#1255
1+
#1260
0+
#1265
1+
#1270
0+
#1275
1+
#1280
0+
#1285
1+
#1290
0+
#1295
1+
#1300
0+
#1305
1+
#1310
0+
#1315
1+
#1320
0+
#1325
1+
#1330
0+
#1335
1+
#1340
0+
#1345
1+
#1350
0+
#1355
1+
#1360
0+
#1365
1+
#1370
0+
#1375
1+
#1380
0+
#1385
1+
#1390
0+
#1395
1+
#1400
0+
#1405
1+
#1410
0+
#1415
1+
#1420
0+
#1425
1+
#1430
0+
#1435
1+
#1440
0+
#1445
1+
#1450
0+
#1455
1+
#1460
0+
#1465
1+
#1470
0+
#1475
1+
#1480
0+
#1485
1+
#1490
0+
#1495
1+
#1500
0+
#1505
1+
#1510
0+
#1515
1+
#1520
0+
#1525
1+
#1530
0+
#1535
1+
#1540
0+
#1545
1+
#1550
0+
#1555
1+
#1560
0+
#1565
1+
#1570
0+
#1575
1+
#1580
0+
#1585
1+
#1590
0+
#1595
1+
#1600
0+
#1605
1+
#1610
0+
#1615
1+
#1620
0+
#1625
1+
#1630
0+
#1635
1+
#1640
0+
#1645
1+
#1650
0+
#1655
1+
#1660
0+
#1665
1+
#1670
0+
#1675
1+
#1680
0+
#1685
1+
#1690
0+
#1695
1+
#1700
0+
#1705
1+
#1710
0+
#1715
1+
#1720
0+
#1725
1+
#1730
0+
#1735
1+
#1740
0+
#1745
1+
#1750
0+
#1755
1+
#1760
0+
#1765
1+
#1770
0+
#1775
1+
#1780
0+
#1785
1+
#1790
0+
#1795
1+
#1800
0+
#1805
1+
#1810
0+
#1815
1+
#1820
0+
#1825
1+
#1830
0+
#1835
1+
#1840
0+
#1845
1+
#1850
0+
#1855
1+
#1860
0+
#1865
1+
#1870
0+
#1875
1+
#1880
0+
#1885
1+
#1890
0+
#1895
1+
#1900
0+
#1905
1+
#1910
0+
#1915
1+
#1920
0+
#1925
1+
#1930
0+
#1935
1+
#1940
0+
#1945
1+
#1950
0+
#1955
1+
#1960
0+
#1965
1+
#1970
0+
#1975
1+
#1980
0+
#1985
1+
#1990
0+
#1995
1+
#2000
0+
#2005
1+
#2010
0+
#2015
1+
#2020
0+
#2025
1+
#2030
0+
#2035
1+
#2040
0+
#2045
1+
#2050
0+
0,
#2055
1+
#2060
0+
#2065
1+
#2070
0+
#2075
1+
#2080
0+
#2085
1+
#2090
0+
1,
#2095
1+
#2100
0+
0.
#2105
b10 *
1+
#2110
0+
#2115
0#
b00000000000 (
b00 *
1+
#2120
0+
#2125
1+
#2130
0+
#2135
1+
#2140
0+
0-
#2145
b10 )
1+
#2150
0+
#2155
0"
1%
b00 )
1+
#2160
0+
#2165
0$
0%
b0001 '
1+
