sim/waves/io_ps2_decoder.vcd
$version Generated by VerilatedVcd $end
$timescale 1ps $end
 $scope module TOP $end
  $var wire 1 & clk $end
  $var wire 1 ' rst_n $end
  $var wire 1 ( byte_valid $end
  $var wire 8 ) byte_data [7:0] $end
  $var wire 1 * ev_valid $end
  $var wire 3 + ev_type [2:0] $end
  $var wire 8 , ev_ascii [7:0] $end
  $scope module chat_pkg $end
   $var wire 32 0 MAX_MSG_LEN [31:0] $end
   $var wire 32 0 MAX_MSG_NUM [31:0] $end
   $var wire 32 0 MAX_LINE_LEN [31:0] $end
   $var wire 32 1 MAX_NAME_LEN [31:0] $end
   $var wire 32 2 MSG_ID_WIDTH [31:0] $end
   $var wire 32 2 SEQ_WIDTH [31:0] $end
   $var wire 32 2 LEN_WIDTH [31:0] $end
   $var wire 32 3 RETRY_WIDTH [31:0] $end
   $var wire 32 3 MAX_RETRY [31:0] $end
   $var wire 8 4 SOF_BYTE [7:0] $end
   $var wire 32 1 CRC_WIDTH [31:0] $end
   $var wire 16 5 CRC16_POLY [15:0] $end
   $var wire 16 6 CRC16_INIT [15:0] $end
   $var wire 32 7 CLK_FREQ_HZ_DEFAULT [31:0] $end
   $var wire 32 8 UART_BAUD_DEFAULT [31:0] $end
  $upscope $end
  $scope module io_ps2_decoder $end
   $var wire 1 & clk $end
   $var wire 1 ' rst_n $end
   $var wire 1 ( byte_valid $end
   $var wire 8 ) byte_data [7:0] $end
   $var wire 1 * ev_valid $end
   $var wire 3 + ev_type [2:0] $end
   $var wire 8 , ev_ascii [7:0] $end
   $var wire 1 " shift_held_q $end
   $var wire 1 # caps_locked_q $end
   $var wire 1 $ seen_e0_q $end
   $var wire 1 % seen_f0_q $end
   $var wire 1 - is_letter $end
   $var wire 1 . effective_shift $end
   $var wire 8 / decoded_ascii [7:0] $end
  $upscope $end
 $upscope $end
$enddefinitions $end


#0
0"
0#
0$
0%
0&
0'
0(
b00000000 )
0*
b000 +
b00000000 ,
0-
0.
b00000000 /
b00000000000000000000000001000000 0
b00000000000000000000000000010000 1
b00000000000000000000000000001000 2
b00000000000000000000000000000100 3
b01111110 4
b0001000000100001 5
b1111111111111111 6
b00000101111101011110000100000000 7
b00000000000000011100001000000000 8
#5
1&
#10
0&
#15
1&
#20
0&
#25
1&
#30
0&
#35
1&
#40
0&
1'
#45
1&
#50
0&
#55
1&
#60
0&
#65
1&
#70
0&
#75
1&
#80
0&
#85
1&
#90
0&
#95
1&
#100
0&
#105
1&
#110
0&
#115
1&
#120
0&
#125
1&
#130
0&
#135
1&
#140
0&
#145
1&
#150
0&
#155
1&
#160
0&
#165
1&
#170
0&
#175
1&
#180
0&
#185
1&
#190
0&
#195
1&
#200
0&
#205
1&
#210
0&
#215
1&
#220
0&
#225
1&
#230
0&
#235
1&
#240
0&
#245
1&
#250
0&
0'
#255
1&
#260
0&
#265
1&
#270
0&
#275
1&
#280
0&
#285
1&
#290
0&
1'
#295
1&
#300
0&
1(
b00011100 )
1-
b01100001 /
#305
1&
1*
b01100001 ,
#310
0&
0'
0(
b00000000 )
0*
b00000000 ,
0-
b00000000 /
#315
1&
#320
0&
#325
1&
#330
0&
#335
1&
#340
0&
#345
1&
#350
0&
1'
#355
1&
#360
0&
1(
b00011010 )
1-
b01111010 /
#365
1&
1*
b01111010 ,
#370
0&
0'
0(
b00000000 )
0*
b00000000 ,
0-
b00000000 /
#375
1&
#380
0&
#385
1&
#390
0&
#395
1&
#400
0&
#405
1&
#410
0&
1'
#415
1&
#420
0&
1(
b00010010 )
#425
1"
1&
1.
#430
0&
b00011100 )
1-
b01000001 /
#435
1&
1*
b01000001 ,
#440
0&
b11110000 )
0-
b00000000 /
#445
1%
1&
0*
#450
0&
b00010010 )
#455
0"
0%
1&
0.
#460
0&
b00011100 )
1-
b01100001 /
#465
1&
1*
b01100001 ,
#470
0&
0'
0(
b00000000 )
0*
b00000000 ,
0-
b00000000 /
#475
1&
#480
0&
#485
1&
#490
0&
#495
1&
#500
0&
#505
1&
#510
0&
1'
#515
1&
#520
0&
1(
b01011000 )
#525
1#
1&
#530
0&
b11110000 )
#535
1%
1&
#540
0&
b01011000 )
#545
0%
1&
#550
0&
b00011100 )
1-
1.
b01000001 /
#555
1&
1*
b01000001 ,
#560
0#
0&
0'
0(
b00000000 )
0*
b00000000 ,
0-
0.
b00000000 /
#565
1&
#570
0&
#575
1&
#580
0&
#585
1&
#590
0&
#595
1&
#600
0&
1'
#605
1&
#610
0&
1(
b01011000 )
#615
1#
1&
#620
0&
b11110000 )
#625
1%
1&
#630
0&
b01011000 )
#635
0%
1&
#640
0&
b00010010 )
#645
1"
1&
1.
#650
0&
b00011100 )
1-
0.
b01100001 /
#655
1&
1*
b01100001 ,
#660
0"
0#
0&
0'
0(
b00000000 )
0*
b00000000 ,
0-
b00000000 /
#665
1&
#670
0&
#675
1&
#680
0&
#685
1&
#690
0&
#695
1&
#700
0&
1'
#705
1&
#710
0&
1(
b01011000 )
#715
1#
1&
#720
0&
b11110000 )
#725
1%
1&
#730
0&
b01011000 )
#735
0%
1&
#740
0&
#745
0#
1&
#750
0&
b11110000 )
#755
1%
1&
#760
0&
b01011000 )
#765
0%
1&
#770
0&
b00011100 )
1-
b01100001 /
#775
1&
1*
b01100001 ,
#780
0&
0'
0(
b00000000 )
0*
b00000000 ,
0-
b00000000 /
#785
1&
#790
0&
#795
1&
#800
0&
#805
1&
#810
0&
#815
1&
#820
0&
1'
#825
1&
#830
0&
1(
b00010110 )
b00110001 /
#835
1&
1*
b00110001 ,
#840
0&
0'
0(
b00000000 )
0*
b00000000 ,
b00000000 /
#845
1&
#850
0&
#855
1&
#860
0&
#865
1&
#870
0&
#875
1&
#880
0&
1'
#885
1&
#890
0&
1(
b00010010 )
#895
1"
1&
1.
#900
0&
b00010110 )
b00100001 /
#905
1&
1*
b00100001 ,
#910
0"
0&
0'
0(
b00000000 )
0*
b00000000 ,
0.
b00000000 /
#915
1&
#920
0&
#925
1&
#930
0&
#935
1&
#940
0&
#945
1&
#950
0&
1'
#955
1&
#960
0&
1(
b01001110 )
b00101101 /
#965
1&
1*
b00101101 ,
#970
0&
b00010010 )
b00000000 /
#975
1"
1&
0*
1.
#980
0&
b01001110 )
b01011111 /
#985
1&
1*
b01011111 ,
#990
0&
b11110000 )
b00000000 /
#995
1%
1&
0*
#1000
0&
b00010010 )
#1005
0"
0%
1&
0.
#1010
0&
b01011000 )
#1015
1#
1&
#1020
0&
b11110000 )
#1025
1%
1&
#1030
0&
b01011000 )
#1035
0%
1&
#1040
0&
b01001110 )
b00101101 /
#1045
1&
1*
b00101101 ,
#1050
0#
0&
0'
0(
b00000000 )
0*
b00000000 ,
b00000000 /
#1055
1&
#1060
0&
#1065
1&
#1070
0&
#1075
1&
#1080
0&
#1085
1&
#1090
0&
1'
#1095
1&
#1100
0&
1(
b00101001 )
b00100000 /
#1105
1&
1*
b00100000 ,
#1110
0&
0'
0(
b00000000 )
0*
b00000000 ,
b00000000 /
#1115
1&
#1120
0&
#1125
1&
#1130
0&
#1135
1&
#1140
0&
#1145
1&
#1150
0&
1'
#1155
1&
#1160
0&
1(
b01011010 )
#1165
1&
1*
b001 +
#1170
0&
b01100110 )
#1175
1&
b010 +
#1180
0&
b01110110 )
#1185
1&
b101 +
#1190
0&
0'
0(
b00000000 )
0*
b000 +
#1195
1&
#1200
0&
#1205
1&
#1210
0&
#1215
1&
#1220
0&
#1225
1&
#1230
0&
1'
#1235
1&
#1240
0&
1(
b11100000 )
#1245
1$
1&
#1250
0&
b01101011 )
#1255
0$
1&
1*
b011 +
#1260
0&
b11100000 )
#1265
1$
1&
0*
#1270
0&
b01110100 )
#1275
0$
1&
1*
b100 +
#1280
0&
b11100000 )
#1285
1$
1&
0*
#1290
0&
b01110101 )
#1295
0$
1&
1*
b110 +
#1300
0&
b11100000 )
#1305
1$
1&
0*
#1310
0&
b01110010 )
#1315
0$
1&
1*
b111 +
#1320
0&
0'
0(
b00000000 )
0*
b000 +
#1325
1&
#1330
0&
#1335
1&
#1340
0&
#1345
1&
#1350
0&
#1355
1&
#1360
0&
1'
#1365
1&
#1370
0&
1(
b11110000 )
#1375
1%
1&
#1380
0&
b00011100 )
1-
b01100001 /
#1385
0%
1&
#1390
0&
0'
0(
b00000000 )
0-
b00000000 /
#1395
1&
#1400
0&
#1405
1&
#1410
0&
#1415
1&
#1420
0&
#1425
1&
#1430
0&
1'
#1435
1&
#1440
0&
1(
b11100000 )
#1445
1$
1&
#1450
0&
b11110000 )
#1455
0$
1%
1&
#1460
0&
b01101011 )
#1465
0%
1&
#1470
0&
0'
0(
b00000000 )
#1475
1&
#1480
0&
#1485
1&
#1490
0&
#1495
1&
#1500
0&
#1505
1&
#1510
0&
1'
#1515
1&
#1520
0&
1(
b10101010 )
#1525
1&
#1530
0&
b00011100 )
1-
b01100001 /
#1535
1&
1*
b01100001 ,
#1540
0&
0'
0(
b00000000 )
0*
b00000000 ,
0-
b00000000 /
#1545
1&
#1550
0&
#1555
1&
#1560
0&
#1565
1&
#1570
0&
#1575
1&
#1580
0&
1'
#1585
1&
#1590
0&
1(
b01110111 )
#1595
1&
#1600
0&
0'
0(
b00000000 )
#1605
1&
#1610
0&
#1615
1&
#1620
0&
#1625
1&
#1630
0&
#1635
1&
#1640
0&
1'
#1645
1&
#1650
0&
1(
b00011100 )
1-
b01100001 /
#1655
1&
1*
b01100001 ,
#1660
0&
b01011000 )
0-
b00000000 /
#1665
1#
1&
0*
#1670
0&
b11110000 )
#1675
1%
1&
#1680
0&
b01011000 )
#1685
0%
1&
#1690
0&
b00110010 )
1-
1.
b01000010 /
#1695
1&
1*
b01000010 ,
#1700
0&
b01011000 )
0-
0.
b00000000 /
#1705
0#
1&
0*
#1710
0&
b11110000 )
#1715
1%
1&
#1720
0&
b01011000 )
#1725
0%
1&
#1730
0&
b00010010 )
#1735
1"
1&
1.
#1740
0&
b00010110 )
b00100001 /
#1745
1&
1*
b00100001 ,
#1750
0&
b00011110 )
b01000000 /
#1755
1&
b01000000 ,
#1760
0&
b11110000 )
b00000000 /
#1765
1%
1&
0*
#1770
0&
b00010010 )
#1775
0"
0%
1&
0.
#1780
0&
b00010110 )
b00110001 /
#1785
1&
1*
b00110001 ,
#1790
0&
0'
0(
b00000000 )
0*
b00000000 ,
b00000000 /
#1795
1&
#1800
0&
#1805
1&
#1810
0&
#1815
1&
#1820
0&
#1825
1&
#1830
0&
1'
#1835
1&
#1840
0&
1(
b00010010 )
#1845
1"
1&
1.
#1850
0&
b00011100 )
1-
b01000001 /
#1855
1&
1*
b01000001 ,
#1860
0&
b11110000 )
0-
b00000000 /
#1865
1%
1&
0*
#1870
0&
b00010010 )
#1875
0"
0%
1&
0.
#1880
0&
b00011100 )
1-
b01100001 /
#1885
1&
1*
b01100001 ,
#1890
0&
b00010010 )
0-
b00000000 /
#1895
1"
1&
0*
1.
#1900
0&
b00011100 )
1-
b01000001 /
#1905
1&
1*
b01000001 ,
