sim/waves/io_top.vcd
$version Generated by VerilatedVcd $end
$timescale 1ps $end
 $scope module TOP $end
  $var wire 1 N clk $end
  $var wire 1 O rst_n $end
  $var wire 1 P ps2_clk $end
  $var wire 1 Q ps2_data $end
  $var wire 1 R io_key_valid $end
  $var wire 1 S io_key_ready $end
  $var wire 3 T io_key_type [2:0] $end
  $var wire 8 U io_key_ascii [7:0] $end
  $scope module chat_pkg $end
   $var wire 32 ^ MAX_MSG_LEN [31:0] $end
   $var wire 32 ^ MAX_MSG_NUM [31:0] $end
   $var wire 32 ^ MAX_LINE_LEN [31:0] $end
   $var wire 32 Z MAX_NAME_LEN [31:0] $end
   $var wire 32 _ MSG_ID_WIDTH [31:0] $end
   $var wire 32 _ SEQ_WIDTH [31:0] $end
   $var wire 32 _ LEN_WIDTH [31:0] $end
   $var wire 32 [ RETRY_WIDTH [31:0] $end
   $var wire 32 [ MAX_RETRY [31:0] $end
   $var wire 8 ` SOF_BYTE [7:0] $end
   $var wire 32 Z CRC_WIDTH [31:0] $end
   $var wire 16 a CRC16_POLY [15:0] $end
   $var wire 16 b CRC16_INIT [15:0] $end
   $var wire 32 c CLK_FREQ_HZ_DEFAULT [31:0] $end
   $var wire 32 d UART_BAUD_DEFAULT [31:0] $end
  $upscope $end
  $scope module io_top $end
   $var wire 1 N clk $end
   $var wire 1 O rst_n $end
   $var wire 1 P ps2_clk $end
   $var wire 1 Q ps2_data $end
   $var wire 1 R io_key_valid $end
   $var wire 1 S io_key_ready $end
   $var wire 3 T io_key_type [2:0] $end
   $var wire 8 U io_key_ascii [7:0] $end
   $var wire 1 " phy_byte_valid $end
   $var wire 8 # phy_byte_data [7:0] $end
   $var wire 1 $ dec_ev_valid $end
   $var wire 3 % dec_ev_type [2:0] $end
   $var wire 8 & dec_ev_ascii [7:0] $end
   $scope module u_decoder $end
    $var wire 1 N clk $end
    $var wire 1 O rst_n $end
    $var wire 1 " byte_valid $end
    $var wire 8 # byte_data [7:0] $end
    $var wire 1 $ ev_valid $end
    $var wire 3 % ev_type [2:0] $end
    $var wire 8 & ev_ascii [7:0] $end
    $var wire 1 ' shift_held_q $end
    $var wire 1 ( caps_locked_q $end
    $var wire 1 ) seen_e0_q $end
    $var wire 1 * seen_f0_q $end
    $var wire 1 + is_letter $end
    $var wire 1 , effective_shift $end
    $var wire 8 - decoded_ascii [7:0] $end
   $upscope $end
   $scope module u_fifo $end
    $var wire 32 Y WIDTH [31:0] $end
    $var wire 32 Z DEPTH [31:0] $end
    $var wire 1 N clk $end
    $var wire 1 O rst_n $end
    $var wire 1 $ in_valid $end
    $var wire 1 V in_ready $end
    $var wire 11 . in_data [10:0] $end
    $var wire 1 R out_valid $end
    $var wire 1 S out_ready $end
    $var wire 11 / out_data [10:0] $end
    $var wire 32 [ IDX_W [31:0] $end
    $var wire 11 0 mem[0] [10:0] $end
    $var wire 11 1 mem[1] [10:0] $end
    $var wire 11 2 mem[2] [10:0] $end
    $var wire 11 3 mem[3] [10:0] $end
    $var wire 11 4 mem[4] [10:0] $end
    $var wire 11 5 mem[5] [10:0] $end
    $var wire 11 6 mem[6] [10:0] $end
    $var wire 11 7 mem[7] [10:0] $end
    $var wire 11 8 mem[8] [10:0] $end
    $var wire 11 9 mem[9] [10:0] $end
    $var wire 11 : mem[10] [10:0] $end
    $var wire 11 ; mem[11] [10:0] $end
    $var wire 11 < mem[12] [10:0] $end
    $var wire 11 = mem[13] [10:0] $end
    $var wire 11 > mem[14] [10:0] $end
    $var wire 11 ? mem[15] [10:0] $end
    $var wire 5 @ wr_ptr_q [4:0] $end
    $var wire 5 A rd_ptr_q [4:0] $end
    $var wire 1 B empty $end
    $var wire 1 C full $end
    $var wire 1 W do_rd $end
    $var wire 1 X do_wr $end
   $upscope $end
   $scope module u_phy $end
    $var wire 1 N clk $end
    $var wire 1 O rst_n $end
    $var wire 1 P ps2_clk $end
    $var wire 1 Q ps2_data $end
    $var wire 1 " byte_valid $end
    $var wire 8 # byte_data [7:0] $end
    $var wire 1 D frame_error $end
    $var wire 1 E ps2_clk_s $end
    $var wire 1 F ps2_data_s $end
    $var wire 1 G ps2_clk_prev $end
    $var wire 1 H ps2_clk_fall $end
    $var wire 10 I shift_q [10:1] $end
    $var wire 4 J bit_count_q [3:0] $end
    $var wire 11 K shift_next [10:0] $end
    $scope module u_sync_clk $end
     $var wire 32 \ N_STAGES [31:0] $end
     $var wire 1 ] RST_VAL $end
     $var wire 1 N clk $end
     $var wire 1 O rst_n $end
     $var wire 1 P async_in $end
     $var wire 1 E sync_out $end
     $var wire 2 L sync_q [1:0] $end
    $upscope $end
    $scope module u_sync_data $end
     $var wire 32 \ N_STAGES [31:0] $end
     $var wire 1 ] RST_VAL $end
     $var wire 1 N clk $end
     $var wire 1 O rst_n $end
     $var wire 1 Q async_in $end
     $var wire 1 F sync_out $end
     $var wire 2 M sync_q [1:0] $end
    $upscope $end
   $upscope $end
  $upscope $end
 $upscope $end
$enddefinitions $end


#0
0"
b00000000 #
0$
b000 %
b00000000 &
0'
0(
0)
0*
0+
0,
b00000000 -
b00000000000 .
b00000000000 /
b00000000000 0
b00000000000 1
b00000000000 2
b00000000000 3
b00000000000 4
b00000000000 5
b00000000000 6
b00000000000 7
b00000000000 8
b00000000000 9
b00000000000 :
b00000000000 ;
b00000000000 <
b00000000000 =
b00000000000 >
b00000000000 ?
b00000 @
b00000 A
1B
0C
0D
0E
0F
0G
0H
b0000000000 I
b0000 J
b00000000000 K
b00 L
b00 M
0N
0O
1P
1Q
0R
0S
b000 T
b00000000 U
1V
0W
0X
b00000000000000000000000000001011 Y
b00000000000000000000000000010000 Z
b00000000000000000000000000000100 [
b00000000000000000000000000000010 \
1]
b00000000000000000000000001000000 ^
b00000000000000000000000000001000 _
b01111110 `
b0001000000100001 a
b1111111111111111 b
b00000101111101011110000100000000 c
b00000000000000011100001000000000 d
#5
1E
1F
1G
b10000000000 K
b11 L
b11 M
1N
#10
0N
#15
1N
#20
0N
#25
1N
#30
0N
#35
1N
#40
0N
1O
#45
1N
#50
0N
#55
1N
#60
0N
#65
1N
#70
0N
#75
1N
#80
0N
#85
1N
#90
0N
#95
1N
#100
0N
#105
1N
#110
0N
#115
1N
#120
0N
#125
1N
#130
0N
#135
1N
#140
0N
#145
1N
#150
0N
#155
1N
#160
0N
#165
1N
#170
0N
#175
1N
#180
0N
#185
1N
#190
0N
#195
1N
#200
0N
#205
1N
#210
0N
#215
1N
#220
0N
#225
1N
#230
0N
#235
1N
#240
0N
#245
1N
#250
0N
#255
1N
#260
0N
#265
1N
#270
0N
#275
1N
#280
0N
#285
1N
#290
0N
#295
1N
#300
0N
#305
1N
#310
0N
#315
1N
#320
0N
#325
1N
#330
0N
#335
1N
#340
0N
#345
1N
#350
0N
#355
1N
#360
0N
#365
1N
#370
0N
#375
1N
#380
0N
#385
1N
#390
0N
#395
1N
#400
0N
#405
1N
#410
0N
#415
1N
#420
0N
#425
1N
#430
0N
#435
1N
#440
0N
#445
1N
#450
0N
#455
1N
#460
0N
#465
1N
#470
0N
#475
1N
#480
0N
#485
1N
#490
0N
#495
1N
#500
0N
#505
1N
#510
0N
#515
1N
#520
0N
#525
1N
#530
0N
#535
1N
#540
0N
#545
1N
#550
0N
#555
1N
#560
0N
#565
1N
#570
0N
#575
1N
#580
0N
#585
1N
#590
0N
#595
1N
#600
0N
#605
1N
#610
0N
#615
1N
#620
0N
#625
1N
#630
0N
#635
1N
#640
0N
#645
1N
#650
0N
#655
1N
#660
0N
#665
1N
#670
0N
#675
1N
#680
0N
#685
1N
#690
0N
#695
1N
#700
0N
#705
1N
#710
0N
#715
1N
#720
0N
#725
1N
#730
0N
#735
1N
#740
0N
#745
1N
#750
0N
#755
1N
#760
0N
#765
1N
#770
0N
#775
1N
#780
0N
#785
1N
#790
0N
#795
1N
#800
0N
#805
1N
#810
0N
#815
1N
#820
0N
#825
1N
#830
0N
#835
1N
#840
0N
#845
1N
#850
0N
#855
1N
#860
0N
#865
1N
#870
0N
#875
1N
#880
0N
#885
1N
#890
0N
#895
1N
#900
0N
#905
1N
#910
0N
#915
1N
#920
0N
#925
1N
#930
0N
#935
1N
#940
0N
#945
1N
#950
0N
#955
1N
#960
0N
#965
1N
#970
0N
#975
1N
#980
0N
#985
1N
#990
0N
#995
1N
#1000
0N
#1005
1N
#1010
0N
#1015
1N
#1020
0N
#1025
1N
#1030
0N
#1035
1N
#1040
0N
#1045
1N
#1050
0N
#1055
1N
#1060
0N
#1065
1N
#1070
0N
#1075
1N
#1080
0N
#1085
1N
#1090
0N
#1095
1N
#1100
0N
#1105
1N
#1110
0N
#1115
1N
#1120
0N
#1125
1N
#1130
0N
#1135
1N
#1140
0N
#1145
1N
#1150
0N
#1155
1N
#1160
0N
#1165
1N
#1170
0N
#1175
1N
#1180
0N
#1185
1N
#1190
0N
#1195
1N
#1200
0N
#1205
1N
#1210
0N
#1215
1N
#1220
0N
#1225
1N
#1230
0N
#1235
1N
#1240
0N
#1245
1N
#1250
0N
#1255
1N
#1260
0N
#1265
1N
#1270
0N
#1275
1N
#1280
0N
#1285
1N
#1290
0N
#1295
1N
#1300
0N
#1305
1N
#1310
0N
#1315
1N
#1320
0N
#1325
1N
#1330
0N
#1335
1N
#1340
0N
#1345
1N
#1350
0N
#1355
1N
#1360
0N
#1365
1N
#1370
0N
#1375
1N
#1380
0N
#1385
1N
#1390
0N
#1395
1N
#1400
0N
#1405
1N
#1410
0N
#1415
1N
#1420
0N
#1425
1N
#1430
0N
#1435
1N
#1440
0N
#1445
1N
#1450
0N
#1455
1N
#1460
0N
#1465
1N
#1470
0N
#1475
1N
#1480
0N
#1485
1N
#1490
0N
#1495
1N
#1500
0N
#1505
1N
#1510
0N
#1515
1N
#1520
0N
#1525
1N
#1530
0N
#1535
1N
#1540
0N
#1545
1N
#1550
0N
#1555
1N
#1560
0N
#1565
1N
#1570
0N
#1575
1N
#1580
0N
#1585
1N
#1590
0N
#1595
1N
#1600
0N
#1605
1N
#1610
0N
#1615
1N
#1620
0N
#1625
1N
#1630
0N
#1635
1N
#1640
0N
#1645
1N
#1650
0N
#1655
1N
#1660
0N
#1665
1N
#1670
0N
#1675
1N
#1680
0N
#1685
1N
#1690
0N
#1695
1N
#1700
0N
#1705
1N
#1710
0N
#1715
1N
#1720
0N
#1725
1N
#1730
0N
#1735
1N
#1740
0N
#1745
1N
#1750
0N
#1755
1N
#1760
0N
#1765
1N
#1770
0N
#1775
1N
#1780
0N
#1785
1N
#1790
0N
#1795
1N
#1800
0N
#1805
1N
#1810
0N
#1815
1N
#1820
0N
#1825
1N
#1830
0N
#1835
1N
#1840
0N
#1845
1N
#1850
0N
#1855
1N
#1860
0N
#1865
1N
#1870
0N
#1875
1N
#1880
0N
#1885
1N
#1890
0N
#1895
1N
#1900
0N
#1905
1N
#1910
0N
#1915
1N
#1920
0N
#1925
1N
#1930
0N
#1935
1N
#1940
0N
#1945
1N
#1950
0N
#1955
1N
#1960
0N
#1965
1N
#1970
0N
#1975
1N
#1980
0N
#1985
1N
#1990
0N
#1995
1N
#2000
0N
#2005
1N
#2010
0N
#2015
1N
#2020
0N
#2025
1N
#2030
0N
#2035
1N
#2040
0N
#2045
1N
#2050
0N
0O
#2055
1N
#2060
0N
#2065
1N
#2070
0N
#2075
1N
#2080
0N
#2085
1N
#2090
0N
1O
#2095
1N
#2100
0N
0Q
#2105
b10 M
1N
#2110
0N
#2115
0F
b00000000000 K
b00 M
1N
#2120
0N
#2125
1N
#2130
0N
#2135
1N
#2140
0N
0P
#2145
b10 L
1N
#2150
0N
#2155
0E
1H
b00 L
1N
#2160
0N
#2165
0G
0H
b0001 J
1N
#2170
0N
#2175
1N
#2180
0N
#2185
1N
#2190
0N
#2195
1N
#2200
0N
#2205
1N
#2210
0N
#2215
1N
#2220
0N
#2225
1N
#2230
0N
#2235
1N
#2240
0N
1P
#2245
b01 L
1N
#2250
0N
#2255
1E
b11 L
1N
#2260
0N
#2265
1G
1N
#2270
0N
#2275
1N
#2280
0N
#2285
1N
#2290
0N
#2295
1N
#2300
0N
#2305
1N
#2310
0N
#2315
1N
#2320
0N
#2325
1N
#2330
0N
#2335
1N
#2340
0N
#2345
1N
#2350
0N
#2355
1N
#2360
0N
#2365
1N
#2370
0N
#2375
1N
#2380
0N
0P
#2385
b10 L
1N
#2390
0N
#2395
0E
1H
b00 L
1N
#2400
0N
#2405
0G
0H
b0010 J
1N
#2410
0N
#2415
1N
#2420
0N
#2425
1N
#2430
0N
#2435
1N
#2440
0N
#2445
1N
#2450
0N
#2455
1N
#2460
0N
#2465
1N
#2470
0N
#2475
1N
#2480
0N
1P
#2485
b01 L
1N
#2490
0N
#2495
1E
b11 L
1N
#2500
0N
#2505
1G
1N
#2510
0N
#2515
1N
#2520
0N
#2525
1N
#2530
0N
#2535
1N
#2540
0N
#2545
1N
#2550
0N
#2555
1N
#2560
0N
#2565
1N
#2570
0N
#2575
1N
#2580
0N
#2585
1N
#2590
0N
#2595
1N
#2600
0N
#2605
1N
#2610
0N
#2615
1N
#2620
0N
0P
#2625
b10 L
1N
#2630
0N
#2635
0E
1H
b00 L
1N
#2640
0N
#2645
0G
0H
b0011 J
1N
#2650
0N
#2655
1N
#2660
0N
#2665
1N
#2670
0N
#2675
1N
#2680
0N
#2685
1N
#2690
0N
#2695
1N
#2700
0N
#2705
1N
#2710
0N
#2715
1N
#2720
0N
1P
#2725
b01 L
1N
#2730
0N
#2735
1E
b11 L
1N
#2740
0N
#2745
1G
1N
#2750
0N
#2755
1N
#2760
0N
#2765
1N
#2770
0N
#2775
1N
#2780
0N
#2785
1N
#2790
0N
#2795
1N
#2800
0N
#2805
1N
#2810
0N
#2815
1N
#2820
0N
1Q
#2825
b01 M
1N
#2830
0N
#2835
1F
b10000000000 K
b11 M
1N
#2840
0N
#2845
1N
#2850
0N
#2855
1N
#2860
0N
0P
#2865
b10 L
1N
#2870
0N
#2875
0E
1H
b00 L
1N
#2880
0N
#2885
0G
0H
b1000000000 I
b0100 J
b11000000000 K
1N
#2890
0N
#2895
1N
#2900
0N
#2905
1N
#2910
0N
#2915
1N
#2920
0N
#2925
1N
#2930
0N
#2935
1N
#2940
0N
#2945
1N
#2950
0N
#2955
1N
#2960
0N
1P
#2965
b01 L
1N
#2970
0N
#2975
1E
b11 L
1N
#2980
0N
#2985
1G
1N
#2990
0N
#2995
1N
#3000
0N
#3005
1N
#3010
0N
#3015
1N
#3020
0N
#3025
1N
#3030
0N
#3035
1N
#3040
0N
#3045
1N
#3050
0N
#3055
1N
#3060
0N
#3065
1N
#3070
0N
#3075
1N
#3080
0N
#3085
1N
#3090
0N
#3095
1N
#3100
0N
0P
#3105
b10 L
1N
#3110
0N
#3115
0E
1H
b00 L
1N
#3120
0N
#3125
0G
0H
b1100000000 I
b0101 J
b11100000000 K
1N
#3130
0N
#3135
1N
#3140
0N
#3145
1N
#3150
0N
#3155
1N
#3160
0N
#3165
1N
#3170
0N
#3175
1N
#3180
0N
#3185
1N
#3190
0N
#3195
1N
#3200
0N
1P
#3205
b01 L
1N
#3210
0N
#3215
1E
b11 L
1N
#3220
0N
#3225
1G
1N
#3230
0N
#3235
1N
#3240
0N
#3245
1N
#3250
0N
#3255
1N
#3260
0N
#3265
1N
#3270
0N
#3275
1N
#3280
0N
#3285
1N
#3290
0N
#3295
1N
#3300
0N
#3305
1N
#3310
0N
#3315
1N
#3320
0N
#3325
1N
#3330
0N
#3335
1N
#3340
0N
0P
#3345
b10 L
1N
#3350
0N
#3355
0E
1H
b00 L
1N
#3360
0N
#3365
0G
0H
b1110000000 I
b0110 J
b11110000000 K
1N
#3370
0N
#3375
1N
#3380
0N
#3385
1N
#3390
0N
#3395
1N
#3400
0N
#3405
1N
#3410
0N
#3415
1N
#3420
0N
#3425
1N
#3430
0N
#3435
1N
#3440
0N
1P
#3445
b01 L
1N
#3450
0N
#3455
1E
b11 L
1N
#3460
0N
#3465
1G
1N
#3470
0N
#3475
1N
#3480
0N
#3485
1N
#3490
0N
#3495
1N
#3500
0N
#3505
1N
#3510
0N
#3515
1N
#3520
0N
#3525
1N
#3530
0N
#3535
1N
#3540
0N
0Q
#3545
b10 M
1N
#3550
0N
#3555
0F
b01110000000 K
b00 M
1N
#3560
0N
#3565
1N
#3570
0N
#3575
1N
#3580
0N
0P
#3585
b10 L
1N
#3590
0N
#3595
0E
1H
b00 L
1N
#3600
0N
#3605
0G
0H
b0111000000 I
b0111 J
b00111000000 K
1N
#3610
0N
#3615
1N
#3620
0N
#3625
1N
#3630
0N
#3635
1N
#3640
0N
#3645
1N
#3650
0N
#3655
1N
#3660
0N
#3665
1N
#3670
0N
#3675
1N
#3680
0N
1P
#3685
b01 L
1N
#3690
0N
#3695
1E
b11 L
1N
#3700
0N
#3705
1G
1N
#3710
0N
#3715
1N
#3720
0N
#3725
1N
#3730
0N
#3735
1N
#3740
0N
#3745
1N
#3750
0N
#3755
1N
#3760
0N
#3765
1N
#3770
0N
#3775
1N
#3780
0N
#3785
1N
#3790
0N
#3795
1N
#3800
0N
#3805
1N
#3810
0N
#3815
1N
#3820
0N
0P
#3825
b10 L
1N
#3830
0N
#3835
0E
1H
b00 L
1N
#3840
0N
#3845
0G
0H
b0011100000 I
b1000 J
b00011100000 K
1N
#3850
0N
#3855
1N
#3860
0N
#3865
1N
#3870
0N
#3875
1N
#3880
0N
#3885
1N
#3890
0N
#3895
1N
#3900
0N
#3905
1N
#3910
0N
#3915
1N
#3920
0N
1P
#3925
b01 L
1N
#3930
0N
#3935
1E
b11 L
1N
#3940
0N
#3945
1G
1N
#3950
0N
#3955
1N
#3960
0N
#3965
1N
#3970
0N
#3975
1N
#3980
0N
#3985
1N
#3990
0N
#3995
1N
#4000
0N
#4005
1N
#4010
0N
#4015
1N
#4020
0N
#4025
1N
#4030
0N
#4035
1N
#4040
0N
#4045
1N
#4050
0N
#4055
1N
#4060
0N
0P
#4065
b10 L
1N
#4070
0N
#4075
0E
1H
b00 L
1N
#4080
0N
#4085
0G
0H
b0001110000 I
b1001 J
b00001110000 K
1N
#4090
0N
#4095
1N
#4100
0N
#4105
1N
#4110
0N
#4115
1N
#4120
0N
#4125
1N
#4130
0N
#4135
1N
#4140
0N
#4145
1N
#4150
0N
#4155
1N
#4160
0N
1P
#4165
b01 L
1N
#4170
0N
#4175
1E
b11 L
1N
#4180
0N
#4185
1G
1N
#4190
0N
#4195
1N
#4200
0N
#4205
1N
#4210
0N
#4215
1N
#4220
0N
#4225
1N
#4230
0N
#4235
1N
#4240
0N
#4245
1N
#4250
0N
#4255
1N
#4260
0N
#4265
1N
#4270
0N
#4275
1N
#4280
0N
#4285
1N
#4290
0N
#4295
1N
#4300
0N
0P
#4305
b10 L
1N
#4310
0N
#4315
0E
1H
b00 L
1N
#4320
0N
#4325
0G
0H
b0000111000 I
b1010 J
b00000111000 K
1N
#4330
0N
#4335
1N
#4340
0N
#4345
1N
#4350
0N
#4355
1N
#4360
0N
#4365
1N
#4370
0N
#4375
1N
#4380
0N
#4385
1N
#4390
0N
#4395
1N
#4400
0N
1P
#4405
b01 L
1N
#4410
0N
#4415
1E
b11 L
1N
#4420
0N
#4425
1G
1N
#4430
0N
#4435
1N
#4440
0N
#4445
1N
#4450
0N
#4455
1N
#4460
0N
#4465
1N
#4470
0N
#4475
1N
#4480
0N
#4485
1N
#4490
0N
#4495
1N
#4500
0N
1Q
#4505
b01 M
1N
#4510
0N
#4515
1F
b10000111000 K
b11 M
1N
#4520
0N
#4525
1N
#4530
0N
#4535
1N
#4540
0N
0P
#4545
b10 L
1N
#4550
0N
#4555
0E
1H
b00 L
1N
#4560
0N
#4565
1"
b00011100 #
1+
b01100001 -
0G
0H
b1000011100 I
b0000 J
b11000011100 K
1N
#4570
0N
#4575
0"
1$
b01100001 &
b00001100001 .
1N
1X
#4580
0N
#4585
0$
b00001100001 /
b00001100001 0
b00001 @
0B
1N
1R
b01100001 U
0X
#4590
0N
#4595
1N
#4600
0N
#4605
1N
#4610
0N
#4615
1N
#4620
0N
#4625
1N
#4630
0N
#4635
1N
#4640
0N
1P
#4645
b01 L
1N
#4650
0N
#4655
1E
b11 L
1N
