sim/waves/uart_rx.vcd
$version Generated by VerilatedVcd $end
$timescale 1ps $end
 $scope module TOP $end
  $var wire 1 ( clk $end
  $var wire 1 ) rst_n $end
  $var wire 1 * rx $end
  $var wire 1 + byte_valid $end
  $var wire 8 , byte_data [7:0] $end
  $var wire 1 - frame_error $end
  $scope module chat_pkg $end
   $var wire 32 5 MAX_MSG_LEN [31:0] $end
   $var wire 32 5 MAX_MSG_NUM [31:0] $end
   $var wire 32 5 MAX_LINE_LEN [31:0] $end
   $var wire 32 0 MAX_NAME_LEN [31:0] $end
   $var wire 32 1 MSG_ID_WIDTH [31:0] $end
   $var wire 32 1 SEQ_WIDTH [31:0] $end
   $var wire 32 1 LEN_WIDTH [31:0] $end
   $var wire 32 2 RETRY_WIDTH [31:0] $end
   $var wire 32 2 MAX_RETRY [31:0] $end
   $var wire 8 6 SOF_BYTE [7:0] $end
   $var wire 32 0 CRC_WIDTH [31:0] $end
   $var wire 16 7 CRC16_POLY [15:0] $end
   $var wire 16 8 CRC16_INIT [15:0] $end
   $var wire 32 9 CLK_FREQ_HZ_DEFAULT [31:0] $end
   $var wire 32 : UART_BAUD_DEFAULT [31:0] $end
  $upscope $end
  $scope module uart_rx $end
   $var wire 32 . CLK_FREQ_HZ [31:0] $end
   $var wire 32 / BAUD [31:0] $end
   $var wire 1 ( clk $end
   $var wire 1 ) rst_n $end
   $var wire 1 * rx $end
   $var wire 1 + byte_valid $end
   $var wire 8 , byte_data [7:0] $end
   $var wire 1 - frame_error $end
   $var wire 32 0 BAUD_DIV [31:0] $end
   $var wire 32 1 HALF_DIV [31:0] $end
   $var wire 32 2 CNT_W [31:0] $end
   $var wire 1 " rx_s $end
   $var wire 2 # state_q [1:0] $end
   $var wire 4 $ cnt_q [3:0] $end
   $var wire 3 % bit_idx_q [2:0] $end
   $var wire 8 & shift_q [7:0] $end
   $scope module u_sync $end
    $var wire 32 3 N_STAGES [31:0] $end
    $var wire 1 4 RST_VAL $end
    $var wire 1 ( clk $end
    $var wire 1 ) rst_n $end
    $var wire 1 * async_in $end
    $var wire 1 " sync_out $end
    $var wire 2 ' sync_q [1:0] $end
   $upscope $end
  $upscope $end
 $upscope $end
$enddefinitions $end


#0
0"
b00 #
b0000 $
b000 %
b00000000 &
b00 '
0(
0)
1*
0+
b00000000 ,
0-
b00000000000000000000000010100000 .
b00000000000000000000000000001010 /
b00000000000000000000000000010000 0
b00000000000000000000000000001000 1
b00000000000000000000000000000100 2
b00000000000000000000000000000010 3
14
b00000000000000000000000001000000 5
b01111110 6
b0001000000100001 7
b1111111111111111 8
b00000101111101011110000100000000 9
b00000000000000011100001000000000 :
#5
1"
b11 '
1(
#10
0(
#15
1(
#20
0(
#25
1(
#30
0(
#35
1(
#40
0(
1)
#45
1(
#50
0(
#55
1(
#60
0(
#65
1(
#70
0(
#75
1(
#80
0(
0)
#85
1(
#90
0(
#95
1(
#100
0(
#105
1(
#110
0(
#115
1(
#120
0(
1)
#125
1(
#130
0(
#135
1(
#140
0(
#145
1(
#150
0(
#155
1(
#160
0(
#165
1(
#170
0(
#175
1(
#180
0(
#185
1(
#190
0(
#195
1(
#200
0(
#205
1(
#210
0(
#215
1(
#220
0(
#225
1(
#230
0(
#235
1(
#240
0(
#245
1(
#250
0(
#255
1(
#260
0(
#265
1(
#270
0(
#275
1(
#280
0(
#285
1(
#290
0(
#295
1(
#300
0(
#305
1(
#310
0(
#315
1(
#320
0(
0*
#325
b10 '
1(
#330
0(
#335
0"
b00 '
1(
#340
0(
#345
b01 #
1(
#350
0(
#355
b0001 $
1(
#360
0(
#365
b0010 $
1(
#370
0(
#375
b0011 $
1(
#380
0(
#385
b0100 $
1(
#390
0(
#395
b0101 $
1(
#400
0(
#405
b0110 $
1(
#410
0(
#415
b0111 $
1(
#420
0(
#425
b10 #
b0000 $
1(
#430
0(
#435
b0001 $
1(
#440
0(
#445
b0010 $
1(
#450
0(
#455
b0011 $
1(
#460
0(
#465
b0100 $
1(
#470
0(
#475
b0101 $
1(
#480
0(
1*
#485
b0110 $
b01 '
1(
#490
0(
#495
1"
b0111 $
b11 '
1(
#500
0(
#505
b1000 $
1(
#510
0(
#515
b1001 $
1(
#520
0(
#525
b1010 $
1(
#530
0(
#535
b1011 $
1(
#540
0(
#545
b1100 $
1(
#550
0(
#555
b1101 $
1(
#560
0(
#565
b1110 $
1(
#570
0(
#575
b1111 $
1(
#580
0(
#585
b0000 $
b001 %
b10000000 &
1(
#590
0(
#595
b0001 $
1(
#600
0(
#605
b0010 $
1(
#610
0(
#615
b0011 $
1(
#620
0(
#625
b0100 $
1(
#630
0(
#635
b0101 $
1(
#640
0(
0*
#645
b0110 $
b10 '
1(
#650
0(
#655
0"
b0111 $
b00 '
1(
#660
0(
#665
b1000 $
1(
#670
0(
#675
b1001 $
1(
#680
0(
#685
b1010 $
1(
#690
0(
#695
b1011 $
1(
#700
0(
#705
b1100 $
1(
#710
0(
#715
b1101 $
1(
#720
0(
#725
b1110 $
1(
#730
0(
#735
b1111 $
1(
#740
0(
#745
b0000 $
b010 %
b01000000 &
1(
#750
0(
#755
b0001 $
1(
#760
0(
#765
b0010 $
1(
#770
0(
#775
b0011 $
1(
#780
0(
#785
b0100 $
1(
#790
0(
#795
b0101 $
1(
#800
0(
1*
#805
b0110 $
b01 '
1(
#810
0(
#815
1"
b0111 $
b11 '
1(
#820
0(
#825
b1000 $
1(
#830
0(
#835
b1001 $
1(
#840
0(
#845
b1010 $
1(
#850
0(
#855
b1011 $
1(
#860
0(
#865
b1100 $
1(
#870
0(
#875
b1101 $
1(
#880
0(
#885
b1110 $
1(
#890
0(
#895
b1111 $
1(
#900
0(
#905
b0000 $
b011 %
b10100000 &
1(
#910
0(
#915
b0001 $
1(
#920
0(
#925
b0010 $
1(
#930
0(
#935
b0011 $
1(
#940
0(
#945
b0100 $
1(
#950
0(
#955
b0101 $
1(
#960
0(
0*
#965
b0110 $
b10 '
1(
#970
0(
#975
0"
b0111 $
b00 '
1(
#980
0(
#985
b1000 $
1(
#990
0(
#995
b1001 $
1(
#1000
0(
#1005
b1010 $
1(
#1010
0(
#1015
b1011 $
1(
#1020
0(
#1025
b1100 $
1(
#1030
0(
#1035
b1101 $
1(
#1040
0(
#1045
b1110 $
1(
#1050
0(
#1055
b1111 $
1(
#1060
0(
#1065
b0000 $
b100 %
b01010000 &
1(
#1070
0(
#1075
b0001 $
1(
#1080
0(
#1085
b0010 $
1(
#1090
0(
#1095
b0011 $
1(
#1100
0(
#1105
b0100 $
1(
#1110
0(
#1115
b0101 $
1(
#1120
0(
1*
#1125
b0110 $
b01 '
1(
#1130
0(
#1135
1"
b0111 $
b11 '
1(
#1140
0(
#1145
b1000 $
1(
#1150
0(
#1155
b1001 $
1(
#1160
0(
#1165
b1010 $
1(
#1170
0(
#1175
b1011 $
1(
#1180
0(
#1185
b1100 $
1(
#1190
0(
#1195
b1101 $
1(
#1200
0(
#1205
b1110 $
1(
#1210
0(
#1215
b1111 $
1(
#1220
0(
#1225
b0000 $
b101 %
b10101000 &
1(
#1230
0(
#1235
b0001 $
1(
#1240
0(
#1245
b0010 $
1(
#1250
0(
#1255
b0011 $
1(
#1260
0(
#1265
b0100 $
1(
#1270
0(
#1275
b0101 $
1(
#1280
0(
0*
#1285
b0110 $
b10 '
1(
#1290
0(
#1295
0"
b0111 $
b00 '
1(
#1300
0(
#1305
b1000 $
1(
#1310
0(
#1315
b1001 $
1(
#1320
0(
#1325
b1010 $
1(
#1330
0(
#1335
b1011 $
1(
#1340
0(
#1345
b1100 $
1(
#1350
0(
#1355
b1101 $
1(
#1360
0(
#1365
b1110 $
1(
#1370
0(
#1375
b1111 $
1(
#1380
0(
#1385
b0000 $
b110 %
b01010100 &
1(
#1390
0(
#1395
b0001 $
1(
#1400
0(
#1405
b0010 $
1(
#1410
0(
#1415
b0011 $
1(
#1420
0(
#1425
b0100 $
1(
#1430
0(
#1435
b0101 $
1(
#1440
0(
1*
#1445
b0110 $
b01 '
1(
#1450
0(
#1455
1"
b0111 $
b11 '
1(
#1460
0(
#1465
b1000 $
1(
#1470
0(
#1475
b1001 $
1(
#1480
0(
#1485
b1010 $
1(
#1490
0(
#1495
b1011 $
1(
#1500
0(
#1505
b1100 $
1(
#1510
0(
#1515
b1101 $
1(
#1520
0(
#1525
b1110 $
1(
#1530
0(
#1535
b1111 $
1(
#1540
0(
#1545
b0000 $
b111 %
b10101010 &
1(
#1550
0(
#1555
b0001 $
1(
#1560
0(
#1565
b0010 $
1(
#1570
0(
#1575
b0011 $
1(
#1580
0(
#1585
b0100 $
1(
#1590
0(
#1595
b0101 $
1(
#1600
0(
0*
#1605
b0110 $
b10 '
1(
#1610
0(
#1615
0"
b0111 $
b00 '
1(
#1620
0(
#1625
b1000 $
1(
#1630
0(
#1635
b1001 $
1(
#1640
0(
#1645
b1010 $
1(
#1650
0(
#1655
b1011 $
1(
#1660
0(
#1665
b1100 $
1(
#1670
0(
#1675
b1101 $
1(
#1680
0(
#1685
b1110 $
1(
#1690
0(
#1695
b1111 $
1(
#1700
0(
#1705
b11 #
b0000 $
b01010101 &
1(
#1710
0(
#1715
b0001 $
1(
#1720
0(
#1725
b0010 $
1(
#1730
0(
#1735
b0011 $
1(
#1740
0(
#1745
b0100 $
1(
#1750
0(
#1755
b0101 $
1(
#1760
0(
1*
#1765
b0110 $
b01 '
1(
#1770
0(
#1775
1"
b0111 $
b11 '
1(
#1780
0(
#1785
b1000 $
1(
#1790
0(
#1795
b1001 $
1(
#1800
0(
#1805
b1010 $
1(
#1810
0(
#1815
b1011 $
1(
#1820
0(
#1825
b1100 $
1(
#1830
0(
#1835
b1101 $
1(
#1840
0(
#1845
b1110 $
1(
#1850
0(
#1855
b1111 $
1(
#1860
0(
#1865
b00 #
b0000 $
1(
1+
b01010101 ,
#1870
0(
#1875
1(
0+
#1880
0(
#1885
1(
#1890
0(
#1895
1(
#1900
0(
#1905
1(
#1910
0(
#1915
1(
#1920
0(
#1925
1(
#1930
0(
#1935
1(
#1940
0(
#1945
1(
#1950
0(
#1955
1(
#1960
0(
#1965
1(
#1970
0(
#1975
1(
#1980
0(
#1985
1(
#1990
0(
#1995
1(
#2000
0(
#2005
1(
#2010
0(
#2015
1(
#2020
0(
#2025
1(
#2030
0(
#2035
1(
#2040
0(
#2045
1(
#2050
0(
#2055
1(
#2060
0(
#2065
1(
#2070
0(
#2075
1(
#2080
b000 %
b00000000 &
0(
0)
b00000000 ,
#2085
1(
#2090
0(
#2095
1(
#2100
0(
#2105
1(
#2110
0(
#2115
1(
#2120
0(
1)
#2125
1(
#2130
0(
#2135
1(
#2140
0(
#2145
1(
#2150
0(
#2155
1(
#2160
0(
#2165
1(
#2170
0(
#2175
1(
#2180
0(
#2185
1(
#2190
0(
#2195
1(
#2200
0(
#2205
1(
#2210
0(
#2215
1(
#2220
0(
#2225
1(
#2230
0(
#2235
1(
#2240
0(
#2245
1(
#2250
0(
#2255
1(
#2260
0(
#2265
1(
#2270
0(
#2275
1(
#2280
0(
#2285
1(
#2290
0(
#2295
1(
#2300
0(
#2305
1(
#2310
0(
#2315
1(
#2320
0(
0*
#2325
b10 '
1(
#2330
0(
#2335
0"
b00 '
1(
#2340
0(
#2345
b01 #
1(
#2350
0(
#2355
b0001 $
1(
#2360
0(
#2365
b0010 $
1(
#2370
0(
#2375
b0011 $
1(
#2380
0(
#2385
b0100 $
1(
#2390
0(
#2395
b0101 $
1(
#2400
0(
#2405
b0110 $
1(
#2410
0(
#2415
b0111 $
1(
#2420
0(
#2425
b10 #
b0000 $
1(
#2430
0(
#2435
b0001 $
1(
#2440
0(
#2445
b0010 $
1(
#2450
0(
#2455
b0011 $
1(
#2460
0(
#2465
b0100 $
1(
#2470
0(
#2475
b0101 $
1(
#2480
0(
#2485
b0110 $
1(
#2490
0(
#2495
b0111 $
1(
#2500
0(
#2505
b1000 $
1(
#2510
0(
#2515
b1001 $
1(
#2520
0(
#2525
b1010 $
1(
#2530
0(
#2535
b1011 $
1(
#2540
0(
#2545
b1100 $
1(
#2550
0(
#2555
b1101 $
1(
#2560
0(
#2565
b1110 $
1(
#2570
0(
#2575
b1111 $
1(
#2580
0(
#2585
b0000 $
b001 %
1(
#2590
0(
#2595
b0001 $
1(
#2600
0(
#2605
b0010 $
1(
#2610
0(
#2615
b0011 $
1(
#2620
0(
#2625
b0100 $
1(
#2630
0(
#2635
b0101 $
1(
#2640
0(
#2645
b0110 $
1(
#2650
0(
#2655
b0111 $
1(
#2660
0(
#2665
b1000 $
1(
#2670
0(
#2675
b1001 $
1(
#2680
0(
#2685
b1010 $
1(
#2690
0(
#2695
b1011 $
1(
#2700
0(
#2705
b1100 $
1(
#2710
0(
#2715
b1101 $
1(
#2720
0(
#2725
b1110 $
1(
#2730
0(
#2735
b1111 $
1(
#2740
0(
#2745
b0000 $
b010 %
1(
#2750
0(
#2755
b0001 $
1(
#2760
0(
#2765
b0010 $
1(
#2770
0(
#2775
b0011 $
1(
#2780
0(
#2785
b0100 $
1(
#2790
0(
#2795
b0101 $
1(
#2800
0(
#2805
b0110 $
1(
#2810
0(
#2815
b0111 $
1(
#2820
0(
#2825
b1000 $
1(
#2830
0(
#2835
b1001 $
1(
#2840
0(
#2845
b1010 $
1(
#2850
0(
#2855
b1011 $
1(
#2860
0(
#2865
b1100 $
1(
#2870
0(
#2875
b1101 $
1(
#2880
0(
#2885
b1110 $
1(
#2890
0(
#2895
b1111 $
1(
#2900
0(
#2905
b0000 $
b011 %
1(
#2910
0(
#2915
b0001 $
1(
#2920
0(
#2925
b0010 $
1(
#2930
0(
#2935
b0011 $
1(
#2940
0(
#2945
b0100 $
1(
#2950
0(
#2955
b0101 $
1(
#2960
0(
#2965
b0110 $
1(
#2970
0(
#2975
b0111 $
1(
#2980
0(
#2985
b1000 $
1(
#2990
0(
#2995
b1001 $
1(
#3000
0(
#3005
b1010 $
1(
#3010
0(
#3015
b1011 $
1(
#3020
0(
#3025
b1100 $
1(
#3030
0(
#3035
b1101 $
1(
#3040
0(
#3045
b1110 $
1(
#3050
0(
#3055
b1111 $
1(
#3060
0(
#3065
b0000 $
b100 %
1(
#3070
0(
#3075
b0001 $
1(
#3080
0(
#3085
b0010 $
1(
#3090
0(
#3095
b0011 $
1(
#3100
0(
#3105
b0100 $
1(
#3110
0(
#3115
b0101 $
1(
#3120
0(
#3125
b0110 $
1(
#3130
0(
#3135
b0111 $
1(
#3140
0(
#3145
b1000 $
1(
#3150
0(
#3155
b1001 $
1(
#3160
0(
#3165
b1010 $
1(
#3170
0(
#3175
b1011 $
1(
#3180
0(
#3185
b1100 $
1(
#3190
0(
#3195
b1101 $
1(
#3200
0(
#3205
b1110 $
1(
#3210
0(
#3215
b1111 $
1(
#3220
0(
#3225
b0000 $
b101 %
1(
#3230
0(
#3235
b0001 $
1(
#3240
0(
#3245
b0010 $
1(
#3250
0(
#3255
b0011 $
1(
#3260
0(
#3265
b0100 $
1(
#3270
0(
#3275
b0101 $
1(
#3280
0(
#3285
b0110 $
1(
#3290
0(
#3295
b0111 $
1(
#3300
0(
#3305
b1000 $
1(
#3310
0(
#3315
b1001 $
1(
#3320
0(
#3325
b1010 $
1(
#3330
0(
#3335
b1011 $
1(
#3340
0(
#3345
b1100 $
1(
#3350
0(
#3355
b1101 $
1(
#3360
0(
#3365
b1110 $
1(
#3370
0(
#3375
b1111 $
1(
#3380
0(
#3385
b0000 $
b110 %
1(
#3390
0(
#3395
b0001 $
1(
#3400
0(
#3405
b0010 $
1(
#3410
0(
#3415
b0011 $
1(
#3420
0(
#3425
b0100 $
1(
#3430
0(
#3435
b0101 $
1(
#3440
0(
#3445
b0110 $
1(
#3450
0(
#3455
b0111 $
1(
#3460
0(
#3465
b1000 $
1(
#3470
0(
#3475
b1001 $
1(
#3480
0(
#3485
b1010 $
1(
#3490
0(
#3495
b1011 $
1(
#3500
0(
#3505
b1100 $
1(
#3510
0(
#3515
b1101 $
1(
#3520
0(
#3525
b1110 $
1(
#3530
0(
#3535
b1111 $
1(
#3540
0(
#3545
b0000 $
b111 %
1(
#3550
0(
#3555
b0001 $
1(
#3560
0(
#3565
b0010 $
1(
#3570
0(
#3575
b0011 $
1(
#3580
0(
#3585
b0100 $
1(
#3590
0(
#3595
b0101 $
1(
#3600
0(
#3605
b0110 $
1(
#3610
0(
#3615
b0111 $
1(
#3620
0(
#3625
b1000 $
1(
#3630
0(
#3635
b1001 $
1(
#3640
0(
#3645
b1010 $
1(
#3650
0(
#3655
b1011 $
1(
#3660
0(
#3665
b1100 $
1(
#3670
0(
#3675
b1101 $
1(
#3680
0(
#3685
b1110 $
1(
#3690
0(
#3695
b1111 $
1(
#3700
0(
#3705
b11 #
b0000 $
1(
#3710
0(
#3715
b0001 $
1(
#3720
0(
#3725
b0010 $
1(
#3730
0(
#3735
b0011 $
1(
#3740
0(
#3745
b0100 $
1(
#3750
0(
#3755
b0101 $
1(
#3760
0(
1*
#3765
b0110 $
b01 '
1(
#3770
0(
#3775
1"
b0111 $
b11 '
1(
#3780
0(
#3785
b1000 $
1(
#3790
0(
#3795
b1001 $
1(
#3800
0(
#3805
b1010 $
1(
#3810
0(
#3815
b1011 $
1(
#3820
0(
#3825
b1100 $
1(
#3830
0(
#3835
b1101 $
1(
#3840
0(
#3845
b1110 $
1(
#3850
0(
#3855
b1111 $
1(
#3860
0(
#3865
b00 #
b0000 $
1(
1+
#3870
0(
#3875
1(
0+
